<?xml version="1.0"?>
<svg xmlns="http://www.w3.org/2000/svg" xmlns:xlink="http://www.w3.org/1999/xlink" viewBox="0 0 319.600000 172.000000" width="159.800000mm" height="86.000000mm" version="1.1">
<a xlink:href="process.svg">
<rect x="1.000000" y="1.000000" width="318.600000" height="171.000000" rx="0" ry="0" style="stroke:none;fill:#cccccc;"/>
<rect x="0.000000" y="0.000000" width="318.600000" height="171.000000" rx="0" ry="0" style="stroke:none;fill:#ffffff;"/>
</a>
<text x="10.000000" y="7.000000" font-family="Arial" font-size="7"></text>
<rect x="112.250000" y="55.000000" width="77.400000" height="24.000000" rx="0" ry="0" style="stroke:none;fill:#cccccc;"/>
<rect x="111.250000" y="54.000000" width="77.400000" height="24.000000" rx="0" ry="0" style="stroke:none;fill:#477881;"/>
<text x="149.950000" y="68.000000" font-family="Arial" font-size="7" text-anchor="middle" fill="#FFFFFF">checkbox(Bypass)</text>
<circle cx="113.250000" cy="56.000000" r="1"/>
<line x1="102.250000" y1="45.000000" x2="102.250000" y2="87.000000"  style="stroke: black; stroke-linecap:round; stroke-width:0.25; stroke-dasharray:3,3;"/>
<line x1="102.250000" y1="87.000000" x2="197.650000" y2="87.000000"  style="stroke: black; stroke-linecap:round; stroke-width:0.25; stroke-dasharray:3,3;"/>
<line x1="197.650000" y1="87.000000" x2="197.650000" y2="45.000000"  style="stroke: black; stroke-linecap:round; stroke-width:0.25; stroke-dasharray:3,3;"/>
<line x1="102.250000" y1="45.000000" x2="107.250000" y2="45.000000"  style="stroke: black; stroke-linecap:round; stroke-width:0.25; stroke-dasharray:3,3;"/>
<line x1="139.500000" y1="45.000000" x2="197.650000" y2="45.000000"  style="stroke: black; stroke-linecap:round; stroke-width:0.25; stroke-dasharray:3,3;"/>
<text x="107.250000" y="47.000000" font-family="Arial" font-size="7">hgroup()</text>
<line x1="92.250000" y1="35.000000" x2="92.250000" y2="97.000000"  style="stroke: black; stroke-linecap:round; stroke-width:0.25; stroke-dasharray:3,3;"/>
<line x1="92.250000" y1="97.000000" x2="207.650000" y2="97.000000"  style="stroke: black; stroke-linecap:round; stroke-width:0.25; stroke-dasharray:3,3;"/>
<line x1="207.650000" y1="97.000000" x2="207.650000" y2="35.000000"  style="stroke: black; stroke-linecap:round; stroke-width:0.25; stroke-dasharray:3,3;"/>
<line x1="92.250000" y1="35.000000" x2="97.250000" y2="35.000000"  style="stroke: black; stroke-linecap:round; stroke-width:0.25; stroke-dasharray:3,3;"/>
<line x1="207.650000" y1="35.000000" x2="207.650000" y2="35.000000"  style="stroke: black; stroke-linecap:round; stroke-width:0.25; stroke-dasharray:3,3;"/>
<text x="97.250000" y="37.000000" font-family="Arial" font-size="7">vgroup(CONSTANT-Q FILTER BANK (Butterworth dyadic tree))</text>
<line x1="82.250000" y1="25.000000" x2="82.250000" y2="107.000000"  style="stroke: black; stroke-linecap:round; stroke-width:0.25; stroke-dasharray:3,3;"/>
<line x1="82.250000" y1="107.000000" x2="217.650000" y2="107.000000"  style="stroke: black; stroke-linecap:round; stroke-width:0.25; stroke-dasharray:3,3;"/>
<line x1="217.650000" y1="107.000000" x2="217.650000" y2="25.000000"  style="stroke: black; stroke-linecap:round; stroke-width:0.25; stroke-dasharray:3,3;"/>
<line x1="82.250000" y1="25.000000" x2="87.250000" y2="25.000000"  style="stroke: black; stroke-linecap:round; stroke-width:0.25; stroke-dasharray:3,3;"/>
<line x1="100.150000" y1="25.000000" x2="217.650000" y2="25.000000"  style="stroke: black; stroke-linecap:round; stroke-width:0.25; stroke-dasharray:3,3;"/>
<text x="87.250000" y="27.000000" font-family="Arial" font-size="7">bp</text>
<a xlink:href="inswitch-0x7f2e19bebf50.svg">
<rect x="76.000000" y="117.000000" width="38.700000" height="24.000000" rx="0" ry="0" style="stroke:none;fill:#cccccc;"/>
<rect x="75.000000" y="116.000000" width="38.700000" height="24.000000" rx="0" ry="0" style="stroke:none;fill:#003366;"/>
</a>
<a xlink:href="inswitch-0x7f2e19bebf50.svg">
<text x="94.350000" y="130.000000" font-family="Arial" font-size="7" text-anchor="middle" fill="#FFFFFF">inswitch</text>
</a>
<circle cx="77.000000" cy="118.000000" r="1"/>
<line x1="72.000000" y1="127.000000" x2="75.000000" y2="128.000000"  transform="rotate(0.000000,75.000000,128.000000)" style="stroke: black; stroke-width:0.25;"/>
<line x1="72.000000" y1="129.000000" x2="75.000000" y2="128.000000"  transform="rotate(0.000000,75.000000,128.000000)" style="stroke: black; stroke-width:0.25;"/>
<a xlink:href="mthoctavefilterb-0x7f2e19c5f3f0.svg">
<rect x="122.700000" y="117.000000" width="103.200000" height="24.000000" rx="0" ry="0" style="stroke:none;fill:#cccccc;"/>
<rect x="121.700000" y="116.000000" width="103.200000" height="24.000000" rx="0" ry="0" style="stroke:none;fill:#003366;"/>
</a>
<a xlink:href="mthoctavefilterb-0x7f2e19c5f3f0.svg">
<text x="173.300000" y="130.000000" font-family="Arial" font-size="7" text-anchor="middle" fill="#FFFFFF">mthoctavefilterbankdemo</text>
</a>
<circle cx="123.700000" cy="118.000000" r="1"/>
<line x1="118.700000" y1="127.000000" x2="121.700000" y2="128.000000"  transform="rotate(0.000000,121.700000,128.000000)" style="stroke: black; stroke-width:0.25;"/>
<line x1="118.700000" y1="129.000000" x2="121.700000" y2="128.000000"  transform="rotate(0.000000,121.700000,128.000000)" style="stroke: black; stroke-width:0.25;"/>
<rect x="249.900000" y="75.000000" width="38.700000" height="24.000000" rx="0" ry="0" style="stroke:none;fill:#cccccc;"/>
<rect x="248.900000" y="74.000000" width="38.700000" height="24.000000" rx="0" ry="0" style="stroke:none;fill:#4B71A1;"/>
<text x="268.250000" y="88.000000" font-family="Arial" font-size="7" text-anchor="middle" fill="#FFFFFF">select2</text>
<circle cx="250.900000" cy="76.000000" r="1"/>
<line x1="245.900000" y1="77.000000" x2="248.900000" y2="78.000000"  transform="rotate(0.000000,248.900000,78.000000)" style="stroke: black; stroke-width:0.25;"/>
<line x1="245.900000" y1="79.000000" x2="248.900000" y2="78.000000"  transform="rotate(0.000000,248.900000,78.000000)" style="stroke: black; stroke-width:0.25;"/>
<line x1="245.900000" y1="85.000000" x2="248.900000" y2="86.000000"  transform="rotate(0.000000,248.900000,86.000000)" style="stroke: black; stroke-width:0.25;"/>
<line x1="245.900000" y1="87.000000" x2="248.900000" y2="86.000000"  transform="rotate(0.000000,248.900000,86.000000)" style="stroke: black; stroke-width:0.25;"/>
<line x1="245.900000" y1="93.000000" x2="248.900000" y2="94.000000"  transform="rotate(0.000000,248.900000,94.000000)" style="stroke: black; stroke-width:0.25;"/>
<line x1="245.900000" y1="95.000000" x2="248.900000" y2="94.000000"  transform="rotate(0.000000,248.900000,94.000000)" style="stroke: black; stroke-width:0.25;"/>
<line x1="15.000000" y1="15.000000" x2="15.000000" y2="157.000000"  style="stroke: black; stroke-linecap:round; stroke-width:0.25; stroke-dasharray:3,3;"/>
<line x1="15.000000" y1="157.000000" x2="304.600000" y2="157.000000"  style="stroke: black; stroke-linecap:round; stroke-width:0.25; stroke-dasharray:3,3;"/>
<line x1="304.600000" y1="157.000000" x2="304.600000" y2="15.000000"  style="stroke: black; stroke-linecap:round; stroke-width:0.25; stroke-dasharray:3,3;"/>
<line x1="15.000000" y1="15.000000" x2="20.000000" y2="15.000000"  style="stroke: black; stroke-linecap:round; stroke-width:0.25; stroke-dasharray:3,3;"/>
<line x1="74.825000" y1="15.000000" x2="304.600000" y2="15.000000"  style="stroke: black; stroke-linecap:round; stroke-width:0.25; stroke-dasharray:3,3;"/>
<text x="20.000000" y="17.000000" font-family="Arial" font-size="7">filterbank_demo</text>
<line x1="306.600000" y1="85.000000" x2="309.600000" y2="86.000000"  transform="rotate(0.000000,309.600000,86.000000)" style="stroke: black; stroke-width:0.25;"/>
<line x1="306.600000" y1="87.000000" x2="309.600000" y2="86.000000"  transform="rotate(0.000000,309.600000,86.000000)" style="stroke: black; stroke-width:0.25;"/>
<line x1="10.000000" y1="86.000000" x2="20.000000" y2="86.000000"  style="stroke:black; stroke-linecap:round; stroke-width:0.25;"/>
<line x1="20.000000" y1="86.000000" x2="24.000000" y2="86.000000"  style="stroke:black; stroke-linecap:round; stroke-width:0.25;"/>
<line x1="24.000000" y1="86.000000" x2="28.000000" y2="86.000000"  style="stroke:black; stroke-linecap:round; stroke-width:0.25;"/>
<line x1="28.000000" y1="86.000000" x2="28.000000" y2="86.000000"  style="stroke:black; stroke-linecap:round; stroke-width:0.25;"/>
<line x1="28.000000" y1="86.000000" x2="32.000000" y2="86.000000"  style="stroke:black; stroke-linecap:round; stroke-width:0.25;"/>
<line x1="32.000000" y1="86.000000" x2="36.000000" y2="86.000000"  style="stroke:black; stroke-linecap:round; stroke-width:0.25;"/>
<line x1="36.000000" y1="86.000000" x2="71.000000" y2="128.000000"  style="stroke:black; stroke-linecap:round; stroke-width:0.25;"/>
<line x1="36.000000" y1="86.000000" x2="71.000000" y2="148.000000"  style="stroke:black; stroke-linecap:round; stroke-width:0.25;"/>
<line x1="71.000000" y1="128.000000" x2="75.000000" y2="128.000000"  style="stroke:black; stroke-linecap:round; stroke-width:0.25;"/>
<line x1="71.000000" y1="148.000000" x2="149.950000" y2="148.000000"  style="stroke:black; stroke-linecap:round; stroke-width:0.25;"/>
<line x1="113.700000" y1="128.000000" x2="117.700000" y2="128.000000"  style="stroke:black; stroke-linecap:round; stroke-width:0.25;"/>
<line x1="117.700000" y1="128.000000" x2="117.700000" y2="128.000000"  style="stroke:black; stroke-linecap:round; stroke-width:0.25;"/>
<line x1="117.700000" y1="128.000000" x2="121.700000" y2="128.000000"  style="stroke:black; stroke-linecap:round; stroke-width:0.25;"/>
<line x1="149.950000" y1="148.000000" x2="228.900000" y2="148.000000"  style="stroke:black; stroke-linecap:round; stroke-width:0.25;"/>
<line x1="188.650000" y1="66.000000" x2="192.650000" y2="66.000000"  style="stroke:black; stroke-linecap:round; stroke-width:0.25;"/>
<line x1="192.650000" y1="66.000000" x2="202.650000" y2="66.000000"  style="stroke:black; stroke-linecap:round; stroke-width:0.25;"/>
<line x1="202.650000" y1="66.000000" x2="212.650000" y2="66.000000"  style="stroke:black; stroke-linecap:round; stroke-width:0.25;"/>
<line x1="212.650000" y1="66.000000" x2="222.650000" y2="66.000000"  style="stroke:black; stroke-linecap:round; stroke-width:0.25;"/>
<line x1="222.650000" y1="66.000000" x2="228.900000" y2="66.000000"  style="stroke:black; stroke-linecap:round; stroke-width:0.25;"/>
<line x1="224.900000" y1="128.000000" x2="228.900000" y2="128.000000"  style="stroke:black; stroke-linecap:round; stroke-width:0.25;"/>
<line x1="228.900000" y1="66.000000" x2="244.900000" y2="66.000000"  style="stroke:black; stroke-linecap:round; stroke-width:0.25;"/>
<line x1="228.900000" y1="86.000000" x2="244.900000" y2="86.000000"  style="stroke:black; stroke-linecap:round; stroke-width:0.25;"/>
<line x1="228.900000" y1="128.000000" x2="228.900000" y2="86.000000"  style="stroke:black; stroke-linecap:round; stroke-width:0.25;"/>
<line x1="228.900000" y1="128.000000" x2="228.900000" y2="128.000000"  style="stroke:black; stroke-linecap:round; stroke-width:0.25;"/>
<line x1="228.900000" y1="148.000000" x2="236.900000" y2="148.000000"  style="stroke:black; stroke-linecap:round; stroke-width:0.25;"/>
<line x1="236.900000" y1="94.000000" x2="244.900000" y2="94.000000"  style="stroke:black; stroke-linecap:round; stroke-width:0.25;"/>
<line x1="236.900000" y1="148.000000" x2="236.900000" y2="94.000000"  style="stroke:black; stroke-linecap:round; stroke-width:0.25;"/>
<line x1="244.900000" y1="66.000000" x2="244.900000" y2="78.000000"  style="stroke:black; stroke-linecap:round; stroke-width:0.25;"/>
<line x1="244.900000" y1="78.000000" x2="244.900000" y2="78.000000"  style="stroke:black; stroke-linecap:round; stroke-width:0.25;"/>
<line x1="244.900000" y1="78.000000" x2="248.900000" y2="78.000000"  style="stroke:black; stroke-linecap:round; stroke-width:0.25;"/>
<line x1="244.900000" y1="86.000000" x2="248.900000" y2="86.000000"  style="stroke:black; stroke-linecap:round; stroke-width:0.25;"/>
<line x1="244.900000" y1="94.000000" x2="248.900000" y2="94.000000"  style="stroke:black; stroke-linecap:round; stroke-width:0.25;"/>
<line x1="287.600000" y1="86.000000" x2="291.600000" y2="86.000000"  style="stroke:black; stroke-linecap:round; stroke-width:0.25;"/>
<line x1="291.600000" y1="86.000000" x2="291.600000" y2="86.000000"  style="stroke:black; stroke-linecap:round; stroke-width:0.25;"/>
<line x1="291.600000" y1="86.000000" x2="295.600000" y2="86.000000"  style="stroke:black; stroke-linecap:round; stroke-width:0.25;"/>
<line x1="295.600000" y1="86.000000" x2="299.600000" y2="86.000000"  style="stroke:black; stroke-linecap:round; stroke-width:0.25;"/>
<line x1="299.600000" y1="86.000000" x2="309.600000" y2="86.000000"  style="stroke:black; stroke-linecap:round; stroke-width:0.25;"/>
</svg>
