<?xml version="1.0"?>
<svg xmlns="http://www.w3.org/2000/svg" xmlns:xlink="http://www.w3.org/1999/xlink" viewBox="0 0 770.000000 440.000000" width="385.000000mm" height="220.000000mm" version="1.1">
<a xlink:href="filterbank-0x7f2e19c698f0.svg">
<rect x="1.000000" y="1.000000" width="769.000000" height="439.000000" rx="0" ry="0" style="stroke:none;fill:#cccccc;"/>
<rect x="0.000000" y="0.000000" width="769.000000" height="439.000000" rx="0" ry="0" style="stroke:none;fill:#ffffff;"/>
</a>
<text x="10.000000" y="7.000000" font-family="Arial" font-size="7"></text>
<a xlink:href="mth-0x7f2e19c5f2a0.svg">
<rect x="33.000000" y="181.000000" width="129.000000" height="80.000000" rx="0" ry="0" style="stroke:none;fill:#cccccc;"/>
<rect x="32.000000" y="180.000000" width="129.000000" height="80.000000" rx="0" ry="0" style="stroke:none;fill:#003366;"/>
</a>
<a xlink:href="mth-0x7f2e19c5f2a0.svg">
<text x="96.500000" y="222.000000" font-family="Arial" font-size="7" text-anchor="middle" fill="#FFFFFF">mth_octave_fi...1)(10000)(10)</text>
</a>
<circle cx="34.000000" cy="182.000000" r="1"/>
<line x1="29.000000" y1="219.000000" x2="32.000000" y2="220.000000"  transform="rotate(0.000000,32.000000,220.000000)" style="stroke: black; stroke-width:0.25;"/>
<line x1="29.000000" y1="221.000000" x2="32.000000" y2="220.000000"  transform="rotate(0.000000,32.000000,220.000000)" style="stroke: black; stroke-width:0.25;"/>
<a xlink:href="db2linear-0x7f2e19a89180.svg">
<rect x="210.000000" y="33.000000" width="129.000000" height="24.000000" rx="0" ry="0" style="stroke:none;fill:#cccccc;"/>
<rect x="209.000000" y="32.000000" width="129.000000" height="24.000000" rx="0" ry="0" style="stroke:none;fill:#003366;"/>
</a>
<a xlink:href="db2linear-0x7f2e19a89180.svg">
<text x="273.500000" y="46.000000" font-family="Arial" font-size="7" text-anchor="middle" fill="#FFFFFF">db2linear(vgr...,0.999f : *))</text>
</a>
<circle cx="211.000000" cy="34.000000" r="1"/>
<rect x="355.000000" y="29.000000" width="24.000000" height="24.000000" rx="0" ry="0" style="stroke:none;fill:#cccccc;"/>
<rect x="354.000000" y="28.000000" width="24.000000" height="24.000000" rx="0" ry="0" style="stroke:none;fill:#4B71A1;"/>
<text x="366.000000" y="42.000000" font-family="Arial" font-size="7" text-anchor="middle" fill="#FFFFFF">*</text>
<circle cx="356.000000" cy="30.000000" r="1"/>
<line x1="351.000000" y1="35.000000" x2="354.000000" y2="36.000000"  transform="rotate(0.000000,354.000000,36.000000)" style="stroke: black; stroke-width:0.25;"/>
<line x1="351.000000" y1="37.000000" x2="354.000000" y2="36.000000"  transform="rotate(0.000000,354.000000,36.000000)" style="stroke: black; stroke-width:0.25;"/>
<line x1="351.000000" y1="43.000000" x2="354.000000" y2="44.000000"  transform="rotate(0.000000,354.000000,44.000000)" style="stroke: black; stroke-width:0.25;"/>
<line x1="351.000000" y1="45.000000" x2="354.000000" y2="44.000000"  transform="rotate(0.000000,354.000000,44.000000)" style="stroke: black; stroke-width:0.25;"/>
<a xlink:href="db2linear-0x7f2e19a94490.svg">
<rect x="210.000000" y="73.000000" width="129.000000" height="24.000000" rx="0" ry="0" style="stroke:none;fill:#cccccc;"/>
<rect x="209.000000" y="72.000000" width="129.000000" height="24.000000" rx="0" ry="0" style="stroke:none;fill:#003366;"/>
</a>
<a xlink:href="db2linear-0x7f2e19a94490.svg">
<text x="273.500000" y="86.000000" font-family="Arial" font-size="7" text-anchor="middle" fill="#FFFFFF">db2linear(vgr...,0.999f : *))</text>
</a>
<circle cx="211.000000" cy="74.000000" r="1"/>
<rect x="355.000000" y="69.000000" width="24.000000" height="24.000000" rx="0" ry="0" style="stroke:none;fill:#cccccc;"/>
<rect x="354.000000" y="68.000000" width="24.000000" height="24.000000" rx="0" ry="0" style="stroke:none;fill:#4B71A1;"/>
<text x="366.000000" y="82.000000" font-family="Arial" font-size="7" text-anchor="middle" fill="#FFFFFF">*</text>
<circle cx="356.000000" cy="70.000000" r="1"/>
<line x1="351.000000" y1="75.000000" x2="354.000000" y2="76.000000"  transform="rotate(0.000000,354.000000,76.000000)" style="stroke: black; stroke-width:0.25;"/>
<line x1="351.000000" y1="77.000000" x2="354.000000" y2="76.000000"  transform="rotate(0.000000,354.000000,76.000000)" style="stroke: black; stroke-width:0.25;"/>
<line x1="351.000000" y1="83.000000" x2="354.000000" y2="84.000000"  transform="rotate(0.000000,354.000000,84.000000)" style="stroke: black; stroke-width:0.25;"/>
<line x1="351.000000" y1="85.000000" x2="354.000000" y2="84.000000"  transform="rotate(0.000000,354.000000,84.000000)" style="stroke: black; stroke-width:0.25;"/>
<rect x="395.000000" y="49.000000" width="24.000000" height="24.000000" rx="0" ry="0" style="stroke:none;fill:#cccccc;"/>
<rect x="394.000000" y="48.000000" width="24.000000" height="24.000000" rx="0" ry="0" style="stroke:none;fill:#4B71A1;"/>
<text x="406.000000" y="62.000000" font-family="Arial" font-size="7" text-anchor="middle" fill="#FFFFFF">+</text>
<circle cx="396.000000" cy="50.000000" r="1"/>
<line x1="391.000000" y1="55.000000" x2="394.000000" y2="56.000000"  transform="rotate(0.000000,394.000000,56.000000)" style="stroke: black; stroke-width:0.25;"/>
<line x1="391.000000" y1="57.000000" x2="394.000000" y2="56.000000"  transform="rotate(0.000000,394.000000,56.000000)" style="stroke: black; stroke-width:0.25;"/>
<line x1="391.000000" y1="63.000000" x2="394.000000" y2="64.000000"  transform="rotate(0.000000,394.000000,64.000000)" style="stroke: black; stroke-width:0.25;"/>
<line x1="391.000000" y1="65.000000" x2="394.000000" y2="64.000000"  transform="rotate(0.000000,394.000000,64.000000)" style="stroke: black; stroke-width:0.25;"/>
<a xlink:href="db2linear-0x7f2e19a9f530.svg">
<rect x="230.000000" y="113.000000" width="129.000000" height="24.000000" rx="0" ry="0" style="stroke:none;fill:#cccccc;"/>
<rect x="229.000000" y="112.000000" width="129.000000" height="24.000000" rx="0" ry="0" style="stroke:none;fill:#003366;"/>
</a>
<a xlink:href="db2linear-0x7f2e19a9f530.svg">
<text x="293.500000" y="126.000000" font-family="Arial" font-size="7" text-anchor="middle" fill="#FFFFFF">db2linear(vgr...,0.999f : *))</text>
</a>
<circle cx="231.000000" cy="114.000000" r="1"/>
<rect x="375.000000" y="109.000000" width="24.000000" height="24.000000" rx="0" ry="0" style="stroke:none;fill:#cccccc;"/>
<rect x="374.000000" y="108.000000" width="24.000000" height="24.000000" rx="0" ry="0" style="stroke:none;fill:#4B71A1;"/>
<text x="386.000000" y="122.000000" font-family="Arial" font-size="7" text-anchor="middle" fill="#FFFFFF">*</text>
<circle cx="376.000000" cy="110.000000" r="1"/>
<line x1="371.000000" y1="115.000000" x2="374.000000" y2="116.000000"  transform="rotate(0.000000,374.000000,116.000000)" style="stroke: black; stroke-width:0.25;"/>
<line x1="371.000000" y1="117.000000" x2="374.000000" y2="116.000000"  transform="rotate(0.000000,374.000000,116.000000)" style="stroke: black; stroke-width:0.25;"/>
<line x1="371.000000" y1="123.000000" x2="374.000000" y2="124.000000"  transform="rotate(0.000000,374.000000,124.000000)" style="stroke: black; stroke-width:0.25;"/>
<line x1="371.000000" y1="125.000000" x2="374.000000" y2="124.000000"  transform="rotate(0.000000,374.000000,124.000000)" style="stroke: black; stroke-width:0.25;"/>
<rect x="435.000000" y="69.000000" width="24.000000" height="24.000000" rx="0" ry="0" style="stroke:none;fill:#cccccc;"/>
<rect x="434.000000" y="68.000000" width="24.000000" height="24.000000" rx="0" ry="0" style="stroke:none;fill:#4B71A1;"/>
<text x="446.000000" y="82.000000" font-family="Arial" font-size="7" text-anchor="middle" fill="#FFFFFF">+</text>
<circle cx="436.000000" cy="70.000000" r="1"/>
<line x1="431.000000" y1="75.000000" x2="434.000000" y2="76.000000"  transform="rotate(0.000000,434.000000,76.000000)" style="stroke: black; stroke-width:0.25;"/>
<line x1="431.000000" y1="77.000000" x2="434.000000" y2="76.000000"  transform="rotate(0.000000,434.000000,76.000000)" style="stroke: black; stroke-width:0.25;"/>
<line x1="431.000000" y1="83.000000" x2="434.000000" y2="84.000000"  transform="rotate(0.000000,434.000000,84.000000)" style="stroke: black; stroke-width:0.25;"/>
<line x1="431.000000" y1="85.000000" x2="434.000000" y2="84.000000"  transform="rotate(0.000000,434.000000,84.000000)" style="stroke: black; stroke-width:0.25;"/>
<a xlink:href="db2linear-0x7f2e19aaab90.svg">
<rect x="250.000000" y="153.000000" width="129.000000" height="24.000000" rx="0" ry="0" style="stroke:none;fill:#cccccc;"/>
<rect x="249.000000" y="152.000000" width="129.000000" height="24.000000" rx="0" ry="0" style="stroke:none;fill:#003366;"/>
</a>
<a xlink:href="db2linear-0x7f2e19aaab90.svg">
<text x="313.500000" y="166.000000" font-family="Arial" font-size="7" text-anchor="middle" fill="#FFFFFF">db2linear(vgr...,0.999f : *))</text>
</a>
<circle cx="251.000000" cy="154.000000" r="1"/>
<rect x="395.000000" y="149.000000" width="24.000000" height="24.000000" rx="0" ry="0" style="stroke:none;fill:#cccccc;"/>
<rect x="394.000000" y="148.000000" width="24.000000" height="24.000000" rx="0" ry="0" style="stroke:none;fill:#4B71A1;"/>
<text x="406.000000" y="162.000000" font-family="Arial" font-size="7" text-anchor="middle" fill="#FFFFFF">*</text>
<circle cx="396.000000" cy="150.000000" r="1"/>
<line x1="391.000000" y1="155.000000" x2="394.000000" y2="156.000000"  transform="rotate(0.000000,394.000000,156.000000)" style="stroke: black; stroke-width:0.25;"/>
<line x1="391.000000" y1="157.000000" x2="394.000000" y2="156.000000"  transform="rotate(0.000000,394.000000,156.000000)" style="stroke: black; stroke-width:0.25;"/>
<line x1="391.000000" y1="163.000000" x2="394.000000" y2="164.000000"  transform="rotate(0.000000,394.000000,164.000000)" style="stroke: black; stroke-width:0.25;"/>
<line x1="391.000000" y1="165.000000" x2="394.000000" y2="164.000000"  transform="rotate(0.000000,394.000000,164.000000)" style="stroke: black; stroke-width:0.25;"/>
<rect x="475.000000" y="89.000000" width="24.000000" height="24.000000" rx="0" ry="0" style="stroke:none;fill:#cccccc;"/>
<rect x="474.000000" y="88.000000" width="24.000000" height="24.000000" rx="0" ry="0" style="stroke:none;fill:#4B71A1;"/>
<text x="486.000000" y="102.000000" font-family="Arial" font-size="7" text-anchor="middle" fill="#FFFFFF">+</text>
<circle cx="476.000000" cy="90.000000" r="1"/>
<line x1="471.000000" y1="95.000000" x2="474.000000" y2="96.000000"  transform="rotate(0.000000,474.000000,96.000000)" style="stroke: black; stroke-width:0.25;"/>
<line x1="471.000000" y1="97.000000" x2="474.000000" y2="96.000000"  transform="rotate(0.000000,474.000000,96.000000)" style="stroke: black; stroke-width:0.25;"/>
<line x1="471.000000" y1="103.000000" x2="474.000000" y2="104.000000"  transform="rotate(0.000000,474.000000,104.000000)" style="stroke: black; stroke-width:0.25;"/>
<line x1="471.000000" y1="105.000000" x2="474.000000" y2="104.000000"  transform="rotate(0.000000,474.000000,104.000000)" style="stroke: black; stroke-width:0.25;"/>
<a xlink:href="db2linear-0x7f2e19ab61f0.svg">
<rect x="270.000000" y="193.000000" width="129.000000" height="24.000000" rx="0" ry="0" style="stroke:none;fill:#cccccc;"/>
<rect x="269.000000" y="192.000000" width="129.000000" height="24.000000" rx="0" ry="0" style="stroke:none;fill:#003366;"/>
</a>
<a xlink:href="db2linear-0x7f2e19ab61f0.svg">
<text x="333.500000" y="206.000000" font-family="Arial" font-size="7" text-anchor="middle" fill="#FFFFFF">db2linear(vgr...,0.999f : *))</text>
</a>
<circle cx="271.000000" cy="194.000000" r="1"/>
<rect x="415.000000" y="189.000000" width="24.000000" height="24.000000" rx="0" ry="0" style="stroke:none;fill:#cccccc;"/>
<rect x="414.000000" y="188.000000" width="24.000000" height="24.000000" rx="0" ry="0" style="stroke:none;fill:#4B71A1;"/>
<text x="426.000000" y="202.000000" font-family="Arial" font-size="7" text-anchor="middle" fill="#FFFFFF">*</text>
<circle cx="416.000000" cy="190.000000" r="1"/>
<line x1="411.000000" y1="195.000000" x2="414.000000" y2="196.000000"  transform="rotate(0.000000,414.000000,196.000000)" style="stroke: black; stroke-width:0.25;"/>
<line x1="411.000000" y1="197.000000" x2="414.000000" y2="196.000000"  transform="rotate(0.000000,414.000000,196.000000)" style="stroke: black; stroke-width:0.25;"/>
<line x1="411.000000" y1="203.000000" x2="414.000000" y2="204.000000"  transform="rotate(0.000000,414.000000,204.000000)" style="stroke: black; stroke-width:0.25;"/>
<line x1="411.000000" y1="205.000000" x2="414.000000" y2="204.000000"  transform="rotate(0.000000,414.000000,204.000000)" style="stroke: black; stroke-width:0.25;"/>
<rect x="515.000000" y="109.000000" width="24.000000" height="24.000000" rx="0" ry="0" style="stroke:none;fill:#cccccc;"/>
<rect x="514.000000" y="108.000000" width="24.000000" height="24.000000" rx="0" ry="0" style="stroke:none;fill:#4B71A1;"/>
<text x="526.000000" y="122.000000" font-family="Arial" font-size="7" text-anchor="middle" fill="#FFFFFF">+</text>
<circle cx="516.000000" cy="110.000000" r="1"/>
<line x1="511.000000" y1="115.000000" x2="514.000000" y2="116.000000"  transform="rotate(0.000000,514.000000,116.000000)" style="stroke: black; stroke-width:0.25;"/>
<line x1="511.000000" y1="117.000000" x2="514.000000" y2="116.000000"  transform="rotate(0.000000,514.000000,116.000000)" style="stroke: black; stroke-width:0.25;"/>
<line x1="511.000000" y1="123.000000" x2="514.000000" y2="124.000000"  transform="rotate(0.000000,514.000000,124.000000)" style="stroke: black; stroke-width:0.25;"/>
<line x1="511.000000" y1="125.000000" x2="514.000000" y2="124.000000"  transform="rotate(0.000000,514.000000,124.000000)" style="stroke: black; stroke-width:0.25;"/>
<a xlink:href="db2linear-0x7f2e19ac18a0.svg">
<rect x="290.000000" y="233.000000" width="129.000000" height="24.000000" rx="0" ry="0" style="stroke:none;fill:#cccccc;"/>
<rect x="289.000000" y="232.000000" width="129.000000" height="24.000000" rx="0" ry="0" style="stroke:none;fill:#003366;"/>
</a>
<a xlink:href="db2linear-0x7f2e19ac18a0.svg">
<text x="353.500000" y="246.000000" font-family="Arial" font-size="7" text-anchor="middle" fill="#FFFFFF">db2linear(vgr...,0.999f : *))</text>
</a>
<circle cx="291.000000" cy="234.000000" r="1"/>
<rect x="435.000000" y="229.000000" width="24.000000" height="24.000000" rx="0" ry="0" style="stroke:none;fill:#cccccc;"/>
<rect x="434.000000" y="228.000000" width="24.000000" height="24.000000" rx="0" ry="0" style="stroke:none;fill:#4B71A1;"/>
<text x="446.000000" y="242.000000" font-family="Arial" font-size="7" text-anchor="middle" fill="#FFFFFF">*</text>
<circle cx="436.000000" cy="230.000000" r="1"/>
<line x1="431.000000" y1="235.000000" x2="434.000000" y2="236.000000"  transform="rotate(0.000000,434.000000,236.000000)" style="stroke: black; stroke-width:0.25;"/>
<line x1="431.000000" y1="237.000000" x2="434.000000" y2="236.000000"  transform="rotate(0.000000,434.000000,236.000000)" style="stroke: black; stroke-width:0.25;"/>
<line x1="431.000000" y1="243.000000" x2="434.000000" y2="244.000000"  transform="rotate(0.000000,434.000000,244.000000)" style="stroke: black; stroke-width:0.25;"/>
<line x1="431.000000" y1="245.000000" x2="434.000000" y2="244.000000"  transform="rotate(0.000000,434.000000,244.000000)" style="stroke: black; stroke-width:0.25;"/>
<rect x="555.000000" y="129.000000" width="24.000000" height="24.000000" rx="0" ry="0" style="stroke:none;fill:#cccccc;"/>
<rect x="554.000000" y="128.000000" width="24.000000" height="24.000000" rx="0" ry="0" style="stroke:none;fill:#4B71A1;"/>
<text x="566.000000" y="142.000000" font-family="Arial" font-size="7" text-anchor="middle" fill="#FFFFFF">+</text>
<circle cx="556.000000" cy="130.000000" r="1"/>
<line x1="551.000000" y1="135.000000" x2="554.000000" y2="136.000000"  transform="rotate(0.000000,554.000000,136.000000)" style="stroke: black; stroke-width:0.25;"/>
<line x1="551.000000" y1="137.000000" x2="554.000000" y2="136.000000"  transform="rotate(0.000000,554.000000,136.000000)" style="stroke: black; stroke-width:0.25;"/>
<line x1="551.000000" y1="143.000000" x2="554.000000" y2="144.000000"  transform="rotate(0.000000,554.000000,144.000000)" style="stroke: black; stroke-width:0.25;"/>
<line x1="551.000000" y1="145.000000" x2="554.000000" y2="144.000000"  transform="rotate(0.000000,554.000000,144.000000)" style="stroke: black; stroke-width:0.25;"/>
<a xlink:href="db2linear-0x7f2e19accf50.svg">
<rect x="310.000000" y="273.000000" width="129.000000" height="24.000000" rx="0" ry="0" style="stroke:none;fill:#cccccc;"/>
<rect x="309.000000" y="272.000000" width="129.000000" height="24.000000" rx="0" ry="0" style="stroke:none;fill:#003366;"/>
</a>
<a xlink:href="db2linear-0x7f2e19accf50.svg">
<text x="373.500000" y="286.000000" font-family="Arial" font-size="7" text-anchor="middle" fill="#FFFFFF">db2linear(vgr...,0.999f : *))</text>
</a>
<circle cx="311.000000" cy="274.000000" r="1"/>
<rect x="455.000000" y="269.000000" width="24.000000" height="24.000000" rx="0" ry="0" style="stroke:none;fill:#cccccc;"/>
<rect x="454.000000" y="268.000000" width="24.000000" height="24.000000" rx="0" ry="0" style="stroke:none;fill:#4B71A1;"/>
<text x="466.000000" y="282.000000" font-family="Arial" font-size="7" text-anchor="middle" fill="#FFFFFF">*</text>
<circle cx="456.000000" cy="270.000000" r="1"/>
<line x1="451.000000" y1="275.000000" x2="454.000000" y2="276.000000"  transform="rotate(0.000000,454.000000,276.000000)" style="stroke: black; stroke-width:0.25;"/>
<line x1="451.000000" y1="277.000000" x2="454.000000" y2="276.000000"  transform="rotate(0.000000,454.000000,276.000000)" style="stroke: black; stroke-width:0.25;"/>
<line x1="451.000000" y1="283.000000" x2="454.000000" y2="284.000000"  transform="rotate(0.000000,454.000000,284.000000)" style="stroke: black; stroke-width:0.25;"/>
<line x1="451.000000" y1="285.000000" x2="454.000000" y2="284.000000"  transform="rotate(0.000000,454.000000,284.000000)" style="stroke: black; stroke-width:0.25;"/>
<rect x="595.000000" y="149.000000" width="24.000000" height="24.000000" rx="0" ry="0" style="stroke:none;fill:#cccccc;"/>
<rect x="594.000000" y="148.000000" width="24.000000" height="24.000000" rx="0" ry="0" style="stroke:none;fill:#4B71A1;"/>
<text x="606.000000" y="162.000000" font-family="Arial" font-size="7" text-anchor="middle" fill="#FFFFFF">+</text>
<circle cx="596.000000" cy="150.000000" r="1"/>
<line x1="591.000000" y1="155.000000" x2="594.000000" y2="156.000000"  transform="rotate(0.000000,594.000000,156.000000)" style="stroke: black; stroke-width:0.25;"/>
<line x1="591.000000" y1="157.000000" x2="594.000000" y2="156.000000"  transform="rotate(0.000000,594.000000,156.000000)" style="stroke: black; stroke-width:0.25;"/>
<line x1="591.000000" y1="163.000000" x2="594.000000" y2="164.000000"  transform="rotate(0.000000,594.000000,164.000000)" style="stroke: black; stroke-width:0.25;"/>
<line x1="591.000000" y1="165.000000" x2="594.000000" y2="164.000000"  transform="rotate(0.000000,594.000000,164.000000)" style="stroke: black; stroke-width:0.25;"/>
<a xlink:href="db2linear-0x7f2e19ad8600.svg">
<rect x="330.000000" y="313.000000" width="129.000000" height="24.000000" rx="0" ry="0" style="stroke:none;fill:#cccccc;"/>
<rect x="329.000000" y="312.000000" width="129.000000" height="24.000000" rx="0" ry="0" style="stroke:none;fill:#003366;"/>
</a>
<a xlink:href="db2linear-0x7f2e19ad8600.svg">
<text x="393.500000" y="326.000000" font-family="Arial" font-size="7" text-anchor="middle" fill="#FFFFFF">db2linear(vgr...,0.999f : *))</text>
</a>
<circle cx="331.000000" cy="314.000000" r="1"/>
<rect x="475.000000" y="309.000000" width="24.000000" height="24.000000" rx="0" ry="0" style="stroke:none;fill:#cccccc;"/>
<rect x="474.000000" y="308.000000" width="24.000000" height="24.000000" rx="0" ry="0" style="stroke:none;fill:#4B71A1;"/>
<text x="486.000000" y="322.000000" font-family="Arial" font-size="7" text-anchor="middle" fill="#FFFFFF">*</text>
<circle cx="476.000000" cy="310.000000" r="1"/>
<line x1="471.000000" y1="315.000000" x2="474.000000" y2="316.000000"  transform="rotate(0.000000,474.000000,316.000000)" style="stroke: black; stroke-width:0.25;"/>
<line x1="471.000000" y1="317.000000" x2="474.000000" y2="316.000000"  transform="rotate(0.000000,474.000000,316.000000)" style="stroke: black; stroke-width:0.25;"/>
<line x1="471.000000" y1="323.000000" x2="474.000000" y2="324.000000"  transform="rotate(0.000000,474.000000,324.000000)" style="stroke: black; stroke-width:0.25;"/>
<line x1="471.000000" y1="325.000000" x2="474.000000" y2="324.000000"  transform="rotate(0.000000,474.000000,324.000000)" style="stroke: black; stroke-width:0.25;"/>
<rect x="635.000000" y="169.000000" width="24.000000" height="24.000000" rx="0" ry="0" style="stroke:none;fill:#cccccc;"/>
<rect x="634.000000" y="168.000000" width="24.000000" height="24.000000" rx="0" ry="0" style="stroke:none;fill:#4B71A1;"/>
<text x="646.000000" y="182.000000" font-family="Arial" font-size="7" text-anchor="middle" fill="#FFFFFF">+</text>
<circle cx="636.000000" cy="170.000000" r="1"/>
<line x1="631.000000" y1="175.000000" x2="634.000000" y2="176.000000"  transform="rotate(0.000000,634.000000,176.000000)" style="stroke: black; stroke-width:0.25;"/>
<line x1="631.000000" y1="177.000000" x2="634.000000" y2="176.000000"  transform="rotate(0.000000,634.000000,176.000000)" style="stroke: black; stroke-width:0.25;"/>
<line x1="631.000000" y1="183.000000" x2="634.000000" y2="184.000000"  transform="rotate(0.000000,634.000000,184.000000)" style="stroke: black; stroke-width:0.25;"/>
<line x1="631.000000" y1="185.000000" x2="634.000000" y2="184.000000"  transform="rotate(0.000000,634.000000,184.000000)" style="stroke: black; stroke-width:0.25;"/>
<a xlink:href="db2linear-0x7f2e19ae3cb0.svg">
<rect x="350.000000" y="353.000000" width="129.000000" height="24.000000" rx="0" ry="0" style="stroke:none;fill:#cccccc;"/>
<rect x="349.000000" y="352.000000" width="129.000000" height="24.000000" rx="0" ry="0" style="stroke:none;fill:#003366;"/>
</a>
<a xlink:href="db2linear-0x7f2e19ae3cb0.svg">
<text x="413.500000" y="366.000000" font-family="Arial" font-size="7" text-anchor="middle" fill="#FFFFFF">db2linear(vgr...,0.999f : *))</text>
</a>
<circle cx="351.000000" cy="354.000000" r="1"/>
<rect x="495.000000" y="349.000000" width="24.000000" height="24.000000" rx="0" ry="0" style="stroke:none;fill:#cccccc;"/>
<rect x="494.000000" y="348.000000" width="24.000000" height="24.000000" rx="0" ry="0" style="stroke:none;fill:#4B71A1;"/>
<text x="506.000000" y="362.000000" font-family="Arial" font-size="7" text-anchor="middle" fill="#FFFFFF">*</text>
<circle cx="496.000000" cy="350.000000" r="1"/>
<line x1="491.000000" y1="355.000000" x2="494.000000" y2="356.000000"  transform="rotate(0.000000,494.000000,356.000000)" style="stroke: black; stroke-width:0.25;"/>
<line x1="491.000000" y1="357.000000" x2="494.000000" y2="356.000000"  transform="rotate(0.000000,494.000000,356.000000)" style="stroke: black; stroke-width:0.25;"/>
<line x1="491.000000" y1="363.000000" x2="494.000000" y2="364.000000"  transform="rotate(0.000000,494.000000,364.000000)" style="stroke: black; stroke-width:0.25;"/>
<line x1="491.000000" y1="365.000000" x2="494.000000" y2="364.000000"  transform="rotate(0.000000,494.000000,364.000000)" style="stroke: black; stroke-width:0.25;"/>
<rect x="675.000000" y="189.000000" width="24.000000" height="24.000000" rx="0" ry="0" style="stroke:none;fill:#cccccc;"/>
<rect x="674.000000" y="188.000000" width="24.000000" height="24.000000" rx="0" ry="0" style="stroke:none;fill:#4B71A1;"/>
<text x="686.000000" y="202.000000" font-family="Arial" font-size="7" text-anchor="middle" fill="#FFFFFF">+</text>
<circle cx="676.000000" cy="190.000000" r="1"/>
<line x1="671.000000" y1="195.000000" x2="674.000000" y2="196.000000"  transform="rotate(0.000000,674.000000,196.000000)" style="stroke: black; stroke-width:0.25;"/>
<line x1="671.000000" y1="197.000000" x2="674.000000" y2="196.000000"  transform="rotate(0.000000,674.000000,196.000000)" style="stroke: black; stroke-width:0.25;"/>
<line x1="671.000000" y1="203.000000" x2="674.000000" y2="204.000000"  transform="rotate(0.000000,674.000000,204.000000)" style="stroke: black; stroke-width:0.25;"/>
<line x1="671.000000" y1="205.000000" x2="674.000000" y2="204.000000"  transform="rotate(0.000000,674.000000,204.000000)" style="stroke: black; stroke-width:0.25;"/>
<a xlink:href="db2linear-0x7f2e19aef360.svg">
<rect x="370.000000" y="393.000000" width="129.000000" height="24.000000" rx="0" ry="0" style="stroke:none;fill:#cccccc;"/>
<rect x="369.000000" y="392.000000" width="129.000000" height="24.000000" rx="0" ry="0" style="stroke:none;fill:#003366;"/>
</a>
<a xlink:href="db2linear-0x7f2e19aef360.svg">
<text x="433.500000" y="406.000000" font-family="Arial" font-size="7" text-anchor="middle" fill="#FFFFFF">db2linear(vgr...,0.999f : *))</text>
</a>
<circle cx="371.000000" cy="394.000000" r="1"/>
<rect x="515.000000" y="389.000000" width="24.000000" height="24.000000" rx="0" ry="0" style="stroke:none;fill:#cccccc;"/>
<rect x="514.000000" y="388.000000" width="24.000000" height="24.000000" rx="0" ry="0" style="stroke:none;fill:#4B71A1;"/>
<text x="526.000000" y="402.000000" font-family="Arial" font-size="7" text-anchor="middle" fill="#FFFFFF">*</text>
<circle cx="516.000000" cy="390.000000" r="1"/>
<line x1="511.000000" y1="395.000000" x2="514.000000" y2="396.000000"  transform="rotate(0.000000,514.000000,396.000000)" style="stroke: black; stroke-width:0.25;"/>
<line x1="511.000000" y1="397.000000" x2="514.000000" y2="396.000000"  transform="rotate(0.000000,514.000000,396.000000)" style="stroke: black; stroke-width:0.25;"/>
<line x1="511.000000" y1="403.000000" x2="514.000000" y2="404.000000"  transform="rotate(0.000000,514.000000,404.000000)" style="stroke: black; stroke-width:0.25;"/>
<line x1="511.000000" y1="405.000000" x2="514.000000" y2="404.000000"  transform="rotate(0.000000,514.000000,404.000000)" style="stroke: black; stroke-width:0.25;"/>
<rect x="715.000000" y="209.000000" width="24.000000" height="24.000000" rx="0" ry="0" style="stroke:none;fill:#cccccc;"/>
<rect x="714.000000" y="208.000000" width="24.000000" height="24.000000" rx="0" ry="0" style="stroke:none;fill:#4B71A1;"/>
<text x="726.000000" y="222.000000" font-family="Arial" font-size="7" text-anchor="middle" fill="#FFFFFF">+</text>
<circle cx="716.000000" cy="210.000000" r="1"/>
<line x1="711.000000" y1="215.000000" x2="714.000000" y2="216.000000"  transform="rotate(0.000000,714.000000,216.000000)" style="stroke: black; stroke-width:0.25;"/>
<line x1="711.000000" y1="217.000000" x2="714.000000" y2="216.000000"  transform="rotate(0.000000,714.000000,216.000000)" style="stroke: black; stroke-width:0.25;"/>
<line x1="711.000000" y1="223.000000" x2="714.000000" y2="224.000000"  transform="rotate(0.000000,714.000000,224.000000)" style="stroke: black; stroke-width:0.25;"/>
<line x1="711.000000" y1="225.000000" x2="714.000000" y2="224.000000"  transform="rotate(0.000000,714.000000,224.000000)" style="stroke: black; stroke-width:0.25;"/>
<line x1="15.000000" y1="15.000000" x2="15.000000" y2="425.000000"  style="stroke: black; stroke-linecap:round; stroke-width:0.25; stroke-dasharray:3,3;"/>
<line x1="15.000000" y1="425.000000" x2="755.000000" y2="425.000000"  style="stroke: black; stroke-linecap:round; stroke-width:0.25; stroke-dasharray:3,3;"/>
<line x1="755.000000" y1="425.000000" x2="755.000000" y2="15.000000"  style="stroke: black; stroke-linecap:round; stroke-width:0.25; stroke-dasharray:3,3;"/>
<line x1="15.000000" y1="15.000000" x2="20.000000" y2="15.000000"  style="stroke: black; stroke-linecap:round; stroke-width:0.25; stroke-dasharray:3,3;"/>
<line x1="100.625000" y1="15.000000" x2="755.000000" y2="15.000000"  style="stroke: black; stroke-linecap:round; stroke-width:0.25; stroke-dasharray:3,3;"/>
<text x="20.000000" y="17.000000" font-family="Arial" font-size="7">mthoctavefilterbankdemo</text>
<line x1="757.000000" y1="219.000000" x2="760.000000" y2="220.000000"  transform="rotate(0.000000,760.000000,220.000000)" style="stroke: black; stroke-width:0.25;"/>
<line x1="757.000000" y1="221.000000" x2="760.000000" y2="220.000000"  transform="rotate(0.000000,760.000000,220.000000)" style="stroke: black; stroke-width:0.25;"/>
<line x1="10.000000" y1="220.000000" x2="20.000000" y2="220.000000"  style="stroke:black; stroke-linecap:round; stroke-width:0.25;"/>
<line x1="20.000000" y1="220.000000" x2="24.000000" y2="220.000000"  style="stroke:black; stroke-linecap:round; stroke-width:0.25;"/>
<line x1="24.000000" y1="220.000000" x2="28.000000" y2="220.000000"  style="stroke:black; stroke-linecap:round; stroke-width:0.25;"/>
<line x1="28.000000" y1="220.000000" x2="28.000000" y2="220.000000"  style="stroke:black; stroke-linecap:round; stroke-width:0.25;"/>
<line x1="28.000000" y1="220.000000" x2="32.000000" y2="220.000000"  style="stroke:black; stroke-linecap:round; stroke-width:0.25;"/>
<line x1="161.000000" y1="184.000000" x2="165.000000" y2="184.000000"  style="stroke:black; stroke-linecap:round; stroke-width:0.25;"/>
<line x1="161.000000" y1="192.000000" x2="165.000000" y2="192.000000"  style="stroke:black; stroke-linecap:round; stroke-width:0.25;"/>
<line x1="161.000000" y1="200.000000" x2="165.000000" y2="200.000000"  style="stroke:black; stroke-linecap:round; stroke-width:0.25;"/>
<line x1="161.000000" y1="208.000000" x2="165.000000" y2="208.000000"  style="stroke:black; stroke-linecap:round; stroke-width:0.25;"/>
<line x1="161.000000" y1="216.000000" x2="165.000000" y2="216.000000"  style="stroke:black; stroke-linecap:round; stroke-width:0.25;"/>
<line x1="161.000000" y1="224.000000" x2="165.000000" y2="224.000000"  style="stroke:black; stroke-linecap:round; stroke-width:0.25;"/>
<line x1="161.000000" y1="232.000000" x2="165.000000" y2="232.000000"  style="stroke:black; stroke-linecap:round; stroke-width:0.25;"/>
<line x1="161.000000" y1="240.000000" x2="165.000000" y2="240.000000"  style="stroke:black; stroke-linecap:round; stroke-width:0.25;"/>
<line x1="161.000000" y1="248.000000" x2="165.000000" y2="248.000000"  style="stroke:black; stroke-linecap:round; stroke-width:0.25;"/>
<line x1="161.000000" y1="256.000000" x2="165.000000" y2="256.000000"  style="stroke:black; stroke-linecap:round; stroke-width:0.25;"/>
<line x1="165.000000" y1="24.000000" x2="205.000000" y2="24.000000"  style="stroke:black; stroke-linecap:round; stroke-width:0.25;"/>
<line x1="165.000000" y1="184.000000" x2="165.000000" y2="24.000000"  style="stroke:black; stroke-linecap:round; stroke-width:0.25;"/>
<line x1="165.000000" y1="184.000000" x2="165.000000" y2="184.000000"  style="stroke:black; stroke-linecap:round; stroke-width:0.25;"/>
<line x1="165.000000" y1="192.000000" x2="173.000000" y2="192.000000"  style="stroke:black; stroke-linecap:round; stroke-width:0.25;"/>
<line x1="165.000000" y1="200.000000" x2="181.000000" y2="200.000000"  style="stroke:black; stroke-linecap:round; stroke-width:0.25;"/>
<line x1="165.000000" y1="208.000000" x2="189.000000" y2="208.000000"  style="stroke:black; stroke-linecap:round; stroke-width:0.25;"/>
<line x1="165.000000" y1="216.000000" x2="197.000000" y2="216.000000"  style="stroke:black; stroke-linecap:round; stroke-width:0.25;"/>
<line x1="165.000000" y1="224.000000" x2="205.000000" y2="224.000000"  style="stroke:black; stroke-linecap:round; stroke-width:0.25;"/>
<line x1="165.000000" y1="232.000000" x2="205.000000" y2="232.000000"  style="stroke:black; stroke-linecap:round; stroke-width:0.25;"/>
<line x1="165.000000" y1="240.000000" x2="197.000000" y2="240.000000"  style="stroke:black; stroke-linecap:round; stroke-width:0.25;"/>
<line x1="165.000000" y1="248.000000" x2="189.000000" y2="248.000000"  style="stroke:black; stroke-linecap:round; stroke-width:0.25;"/>
<line x1="165.000000" y1="256.000000" x2="181.000000" y2="256.000000"  style="stroke:black; stroke-linecap:round; stroke-width:0.25;"/>
<line x1="173.000000" y1="64.000000" x2="205.000000" y2="64.000000"  style="stroke:black; stroke-linecap:round; stroke-width:0.25;"/>
<line x1="173.000000" y1="192.000000" x2="173.000000" y2="64.000000"  style="stroke:black; stroke-linecap:round; stroke-width:0.25;"/>
<line x1="181.000000" y1="104.000000" x2="205.000000" y2="104.000000"  style="stroke:black; stroke-linecap:round; stroke-width:0.25;"/>
<line x1="181.000000" y1="200.000000" x2="181.000000" y2="104.000000"  style="stroke:black; stroke-linecap:round; stroke-width:0.25;"/>
<line x1="181.000000" y1="256.000000" x2="181.000000" y2="384.000000"  style="stroke:black; stroke-linecap:round; stroke-width:0.25;"/>
<line x1="181.000000" y1="384.000000" x2="205.000000" y2="384.000000"  style="stroke:black; stroke-linecap:round; stroke-width:0.25;"/>
<line x1="189.000000" y1="144.000000" x2="205.000000" y2="144.000000"  style="stroke:black; stroke-linecap:round; stroke-width:0.25;"/>
<line x1="189.000000" y1="208.000000" x2="189.000000" y2="144.000000"  style="stroke:black; stroke-linecap:round; stroke-width:0.25;"/>
<line x1="189.000000" y1="248.000000" x2="189.000000" y2="344.000000"  style="stroke:black; stroke-linecap:round; stroke-width:0.25;"/>
<line x1="189.000000" y1="344.000000" x2="205.000000" y2="344.000000"  style="stroke:black; stroke-linecap:round; stroke-width:0.25;"/>
<line x1="197.000000" y1="184.000000" x2="205.000000" y2="184.000000"  style="stroke:black; stroke-linecap:round; stroke-width:0.25;"/>
<line x1="197.000000" y1="216.000000" x2="197.000000" y2="184.000000"  style="stroke:black; stroke-linecap:round; stroke-width:0.25;"/>
<line x1="197.000000" y1="240.000000" x2="197.000000" y2="304.000000"  style="stroke:black; stroke-linecap:round; stroke-width:0.25;"/>
<line x1="197.000000" y1="304.000000" x2="205.000000" y2="304.000000"  style="stroke:black; stroke-linecap:round; stroke-width:0.25;"/>
<line x1="205.000000" y1="24.000000" x2="273.500000" y2="24.000000"  style="stroke:black; stroke-linecap:round; stroke-width:0.25;"/>
<line x1="205.000000" y1="64.000000" x2="273.500000" y2="64.000000"  style="stroke:black; stroke-linecap:round; stroke-width:0.25;"/>
<line x1="205.000000" y1="104.000000" x2="225.000000" y2="104.000000"  style="stroke:black; stroke-linecap:round; stroke-width:0.25;"/>
<line x1="205.000000" y1="144.000000" x2="245.000000" y2="144.000000"  style="stroke:black; stroke-linecap:round; stroke-width:0.25;"/>
<line x1="205.000000" y1="184.000000" x2="265.000000" y2="184.000000"  style="stroke:black; stroke-linecap:round; stroke-width:0.25;"/>
<line x1="205.000000" y1="224.000000" x2="285.000000" y2="224.000000"  style="stroke:black; stroke-linecap:round; stroke-width:0.25;"/>
<line x1="205.000000" y1="232.000000" x2="205.000000" y2="264.000000"  style="stroke:black; stroke-linecap:round; stroke-width:0.25;"/>
<line x1="205.000000" y1="264.000000" x2="205.000000" y2="264.000000"  style="stroke:black; stroke-linecap:round; stroke-width:0.25;"/>
<line x1="205.000000" y1="264.000000" x2="305.000000" y2="264.000000"  style="stroke:black; stroke-linecap:round; stroke-width:0.25;"/>
<line x1="205.000000" y1="304.000000" x2="325.000000" y2="304.000000"  style="stroke:black; stroke-linecap:round; stroke-width:0.25;"/>
<line x1="205.000000" y1="344.000000" x2="345.000000" y2="344.000000"  style="stroke:black; stroke-linecap:round; stroke-width:0.25;"/>
<line x1="205.000000" y1="384.000000" x2="365.000000" y2="384.000000"  style="stroke:black; stroke-linecap:round; stroke-width:0.25;"/>
<line x1="225.000000" y1="104.000000" x2="293.500000" y2="104.000000"  style="stroke:black; stroke-linecap:round; stroke-width:0.25;"/>
<line x1="245.000000" y1="144.000000" x2="313.500000" y2="144.000000"  style="stroke:black; stroke-linecap:round; stroke-width:0.25;"/>
<line x1="265.000000" y1="184.000000" x2="333.500000" y2="184.000000"  style="stroke:black; stroke-linecap:round; stroke-width:0.25;"/>
<line x1="273.500000" y1="24.000000" x2="342.000000" y2="24.000000"  style="stroke:black; stroke-linecap:round; stroke-width:0.25;"/>
<line x1="273.500000" y1="64.000000" x2="342.000000" y2="64.000000"  style="stroke:black; stroke-linecap:round; stroke-width:0.25;"/>
<line x1="285.000000" y1="224.000000" x2="353.500000" y2="224.000000"  style="stroke:black; stroke-linecap:round; stroke-width:0.25;"/>
<line x1="293.500000" y1="104.000000" x2="362.000000" y2="104.000000"  style="stroke:black; stroke-linecap:round; stroke-width:0.25;"/>
<line x1="305.000000" y1="264.000000" x2="373.500000" y2="264.000000"  style="stroke:black; stroke-linecap:round; stroke-width:0.25;"/>
<line x1="313.500000" y1="144.000000" x2="382.000000" y2="144.000000"  style="stroke:black; stroke-linecap:round; stroke-width:0.25;"/>
<line x1="325.000000" y1="304.000000" x2="393.500000" y2="304.000000"  style="stroke:black; stroke-linecap:round; stroke-width:0.25;"/>
<line x1="333.500000" y1="184.000000" x2="402.000000" y2="184.000000"  style="stroke:black; stroke-linecap:round; stroke-width:0.25;"/>
<line x1="338.000000" y1="44.000000" x2="342.000000" y2="44.000000"  style="stroke:black; stroke-linecap:round; stroke-width:0.25;"/>
<line x1="338.000000" y1="84.000000" x2="342.000000" y2="84.000000"  style="stroke:black; stroke-linecap:round; stroke-width:0.25;"/>
<line x1="342.000000" y1="24.000000" x2="350.000000" y2="24.000000"  style="stroke:black; stroke-linecap:round; stroke-width:0.25;"/>
<line x1="342.000000" y1="44.000000" x2="350.000000" y2="44.000000"  style="stroke:black; stroke-linecap:round; stroke-width:0.25;"/>
<line x1="342.000000" y1="64.000000" x2="350.000000" y2="64.000000"  style="stroke:black; stroke-linecap:round; stroke-width:0.25;"/>
<line x1="342.000000" y1="84.000000" x2="350.000000" y2="84.000000"  style="stroke:black; stroke-linecap:round; stroke-width:0.25;"/>
<line x1="345.000000" y1="344.000000" x2="413.500000" y2="344.000000"  style="stroke:black; stroke-linecap:round; stroke-width:0.25;"/>
<line x1="350.000000" y1="24.000000" x2="350.000000" y2="36.000000"  style="stroke:black; stroke-linecap:round; stroke-width:0.25;"/>
<line x1="350.000000" y1="36.000000" x2="350.000000" y2="36.000000"  style="stroke:black; stroke-linecap:round; stroke-width:0.25;"/>
<line x1="350.000000" y1="36.000000" x2="354.000000" y2="36.000000"  style="stroke:black; stroke-linecap:round; stroke-width:0.25;"/>
<line x1="350.000000" y1="44.000000" x2="354.000000" y2="44.000000"  style="stroke:black; stroke-linecap:round; stroke-width:0.25;"/>
<line x1="350.000000" y1="64.000000" x2="350.000000" y2="76.000000"  style="stroke:black; stroke-linecap:round; stroke-width:0.25;"/>
<line x1="350.000000" y1="76.000000" x2="350.000000" y2="76.000000"  style="stroke:black; stroke-linecap:round; stroke-width:0.25;"/>
<line x1="350.000000" y1="76.000000" x2="354.000000" y2="76.000000"  style="stroke:black; stroke-linecap:round; stroke-width:0.25;"/>
<line x1="350.000000" y1="84.000000" x2="354.000000" y2="84.000000"  style="stroke:black; stroke-linecap:round; stroke-width:0.25;"/>
<line x1="353.500000" y1="224.000000" x2="422.000000" y2="224.000000"  style="stroke:black; stroke-linecap:round; stroke-width:0.25;"/>
<line x1="358.000000" y1="124.000000" x2="362.000000" y2="124.000000"  style="stroke:black; stroke-linecap:round; stroke-width:0.25;"/>
<line x1="362.000000" y1="104.000000" x2="370.000000" y2="104.000000"  style="stroke:black; stroke-linecap:round; stroke-width:0.25;"/>
<line x1="362.000000" y1="124.000000" x2="370.000000" y2="124.000000"  style="stroke:black; stroke-linecap:round; stroke-width:0.25;"/>
<line x1="365.000000" y1="384.000000" x2="433.500000" y2="384.000000"  style="stroke:black; stroke-linecap:round; stroke-width:0.25;"/>
<line x1="370.000000" y1="104.000000" x2="370.000000" y2="116.000000"  style="stroke:black; stroke-linecap:round; stroke-width:0.25;"/>
<line x1="370.000000" y1="116.000000" x2="370.000000" y2="116.000000"  style="stroke:black; stroke-linecap:round; stroke-width:0.25;"/>
<line x1="370.000000" y1="116.000000" x2="374.000000" y2="116.000000"  style="stroke:black; stroke-linecap:round; stroke-width:0.25;"/>
<line x1="370.000000" y1="124.000000" x2="374.000000" y2="124.000000"  style="stroke:black; stroke-linecap:round; stroke-width:0.25;"/>
<line x1="373.500000" y1="264.000000" x2="442.000000" y2="264.000000"  style="stroke:black; stroke-linecap:round; stroke-width:0.25;"/>
<line x1="378.000000" y1="40.000000" x2="382.000000" y2="40.000000"  style="stroke:black; stroke-linecap:round; stroke-width:0.25;"/>
<line x1="378.000000" y1="80.000000" x2="382.000000" y2="80.000000"  style="stroke:black; stroke-linecap:round; stroke-width:0.25;"/>
<line x1="378.000000" y1="164.000000" x2="382.000000" y2="164.000000"  style="stroke:black; stroke-linecap:round; stroke-width:0.25;"/>
<line x1="382.000000" y1="40.000000" x2="390.000000" y2="40.000000"  style="stroke:black; stroke-linecap:round; stroke-width:0.25;"/>
<line x1="382.000000" y1="64.000000" x2="390.000000" y2="64.000000"  style="stroke:black; stroke-linecap:round; stroke-width:0.25;"/>
<line x1="382.000000" y1="80.000000" x2="382.000000" y2="64.000000"  style="stroke:black; stroke-linecap:round; stroke-width:0.25;"/>
<line x1="382.000000" y1="80.000000" x2="382.000000" y2="80.000000"  style="stroke:black; stroke-linecap:round; stroke-width:0.25;"/>
<line x1="382.000000" y1="144.000000" x2="390.000000" y2="144.000000"  style="stroke:black; stroke-linecap:round; stroke-width:0.25;"/>
<line x1="382.000000" y1="164.000000" x2="390.000000" y2="164.000000"  style="stroke:black; stroke-linecap:round; stroke-width:0.25;"/>
<line x1="390.000000" y1="40.000000" x2="390.000000" y2="56.000000"  style="stroke:black; stroke-linecap:round; stroke-width:0.25;"/>
<line x1="390.000000" y1="56.000000" x2="390.000000" y2="56.000000"  style="stroke:black; stroke-linecap:round; stroke-width:0.25;"/>
<line x1="390.000000" y1="56.000000" x2="394.000000" y2="56.000000"  style="stroke:black; stroke-linecap:round; stroke-width:0.25;"/>
<line x1="390.000000" y1="64.000000" x2="394.000000" y2="64.000000"  style="stroke:black; stroke-linecap:round; stroke-width:0.25;"/>
<line x1="390.000000" y1="144.000000" x2="390.000000" y2="156.000000"  style="stroke:black; stroke-linecap:round; stroke-width:0.25;"/>
<line x1="390.000000" y1="156.000000" x2="390.000000" y2="156.000000"  style="stroke:black; stroke-linecap:round; stroke-width:0.25;"/>
<line x1="390.000000" y1="156.000000" x2="394.000000" y2="156.000000"  style="stroke:black; stroke-linecap:round; stroke-width:0.25;"/>
<line x1="390.000000" y1="164.000000" x2="394.000000" y2="164.000000"  style="stroke:black; stroke-linecap:round; stroke-width:0.25;"/>
<line x1="393.500000" y1="304.000000" x2="462.000000" y2="304.000000"  style="stroke:black; stroke-linecap:round; stroke-width:0.25;"/>
<line x1="398.000000" y1="120.000000" x2="402.000000" y2="120.000000"  style="stroke:black; stroke-linecap:round; stroke-width:0.25;"/>
<line x1="398.000000" y1="204.000000" x2="402.000000" y2="204.000000"  style="stroke:black; stroke-linecap:round; stroke-width:0.25;"/>
<line x1="402.000000" y1="120.000000" x2="422.000000" y2="120.000000"  style="stroke:black; stroke-linecap:round; stroke-width:0.25;"/>
<line x1="402.000000" y1="184.000000" x2="410.000000" y2="184.000000"  style="stroke:black; stroke-linecap:round; stroke-width:0.25;"/>
<line x1="402.000000" y1="204.000000" x2="410.000000" y2="204.000000"  style="stroke:black; stroke-linecap:round; stroke-width:0.25;"/>
<line x1="410.000000" y1="184.000000" x2="410.000000" y2="196.000000"  style="stroke:black; stroke-linecap:round; stroke-width:0.25;"/>
<line x1="410.000000" y1="196.000000" x2="410.000000" y2="196.000000"  style="stroke:black; stroke-linecap:round; stroke-width:0.25;"/>
<line x1="410.000000" y1="196.000000" x2="414.000000" y2="196.000000"  style="stroke:black; stroke-linecap:round; stroke-width:0.25;"/>
<line x1="410.000000" y1="204.000000" x2="414.000000" y2="204.000000"  style="stroke:black; stroke-linecap:round; stroke-width:0.25;"/>
<line x1="413.500000" y1="344.000000" x2="482.000000" y2="344.000000"  style="stroke:black; stroke-linecap:round; stroke-width:0.25;"/>
<line x1="418.000000" y1="60.000000" x2="422.000000" y2="60.000000"  style="stroke:black; stroke-linecap:round; stroke-width:0.25;"/>
<line x1="418.000000" y1="160.000000" x2="422.000000" y2="160.000000"  style="stroke:black; stroke-linecap:round; stroke-width:0.25;"/>
<line x1="418.000000" y1="244.000000" x2="422.000000" y2="244.000000"  style="stroke:black; stroke-linecap:round; stroke-width:0.25;"/>
<line x1="422.000000" y1="60.000000" x2="430.000000" y2="60.000000"  style="stroke:black; stroke-linecap:round; stroke-width:0.25;"/>
<line x1="422.000000" y1="84.000000" x2="430.000000" y2="84.000000"  style="stroke:black; stroke-linecap:round; stroke-width:0.25;"/>
<line x1="422.000000" y1="120.000000" x2="422.000000" y2="84.000000"  style="stroke:black; stroke-linecap:round; stroke-width:0.25;"/>
<line x1="422.000000" y1="120.000000" x2="422.000000" y2="120.000000"  style="stroke:black; stroke-linecap:round; stroke-width:0.25;"/>
<line x1="422.000000" y1="160.000000" x2="462.000000" y2="160.000000"  style="stroke:black; stroke-linecap:round; stroke-width:0.25;"/>
<line x1="422.000000" y1="224.000000" x2="430.000000" y2="224.000000"  style="stroke:black; stroke-linecap:round; stroke-width:0.25;"/>
<line x1="422.000000" y1="244.000000" x2="430.000000" y2="244.000000"  style="stroke:black; stroke-linecap:round; stroke-width:0.25;"/>
<line x1="430.000000" y1="60.000000" x2="430.000000" y2="76.000000"  style="stroke:black; stroke-linecap:round; stroke-width:0.25;"/>
<line x1="430.000000" y1="76.000000" x2="430.000000" y2="76.000000"  style="stroke:black; stroke-linecap:round; stroke-width:0.25;"/>
<line x1="430.000000" y1="76.000000" x2="434.000000" y2="76.000000"  style="stroke:black; stroke-linecap:round; stroke-width:0.25;"/>
<line x1="430.000000" y1="84.000000" x2="434.000000" y2="84.000000"  style="stroke:black; stroke-linecap:round; stroke-width:0.25;"/>
<line x1="430.000000" y1="224.000000" x2="430.000000" y2="236.000000"  style="stroke:black; stroke-linecap:round; stroke-width:0.25;"/>
<line x1="430.000000" y1="236.000000" x2="430.000000" y2="236.000000"  style="stroke:black; stroke-linecap:round; stroke-width:0.25;"/>
<line x1="430.000000" y1="236.000000" x2="434.000000" y2="236.000000"  style="stroke:black; stroke-linecap:round; stroke-width:0.25;"/>
<line x1="430.000000" y1="244.000000" x2="434.000000" y2="244.000000"  style="stroke:black; stroke-linecap:round; stroke-width:0.25;"/>
<line x1="433.500000" y1="384.000000" x2="502.000000" y2="384.000000"  style="stroke:black; stroke-linecap:round; stroke-width:0.25;"/>
<line x1="438.000000" y1="200.000000" x2="442.000000" y2="200.000000"  style="stroke:black; stroke-linecap:round; stroke-width:0.25;"/>
<line x1="438.000000" y1="284.000000" x2="442.000000" y2="284.000000"  style="stroke:black; stroke-linecap:round; stroke-width:0.25;"/>
<line x1="442.000000" y1="200.000000" x2="502.000000" y2="200.000000"  style="stroke:black; stroke-linecap:round; stroke-width:0.25;"/>
<line x1="442.000000" y1="264.000000" x2="450.000000" y2="264.000000"  style="stroke:black; stroke-linecap:round; stroke-width:0.25;"/>
<line x1="442.000000" y1="284.000000" x2="450.000000" y2="284.000000"  style="stroke:black; stroke-linecap:round; stroke-width:0.25;"/>
<line x1="450.000000" y1="264.000000" x2="450.000000" y2="276.000000"  style="stroke:black; stroke-linecap:round; stroke-width:0.25;"/>
<line x1="450.000000" y1="276.000000" x2="450.000000" y2="276.000000"  style="stroke:black; stroke-linecap:round; stroke-width:0.25;"/>
<line x1="450.000000" y1="276.000000" x2="454.000000" y2="276.000000"  style="stroke:black; stroke-linecap:round; stroke-width:0.25;"/>
<line x1="450.000000" y1="284.000000" x2="454.000000" y2="284.000000"  style="stroke:black; stroke-linecap:round; stroke-width:0.25;"/>
<line x1="458.000000" y1="80.000000" x2="462.000000" y2="80.000000"  style="stroke:black; stroke-linecap:round; stroke-width:0.25;"/>
<line x1="458.000000" y1="240.000000" x2="462.000000" y2="240.000000"  style="stroke:black; stroke-linecap:round; stroke-width:0.25;"/>
<line x1="458.000000" y1="324.000000" x2="462.000000" y2="324.000000"  style="stroke:black; stroke-linecap:round; stroke-width:0.25;"/>
<line x1="462.000000" y1="80.000000" x2="470.000000" y2="80.000000"  style="stroke:black; stroke-linecap:round; stroke-width:0.25;"/>
<line x1="462.000000" y1="104.000000" x2="470.000000" y2="104.000000"  style="stroke:black; stroke-linecap:round; stroke-width:0.25;"/>
<line x1="462.000000" y1="160.000000" x2="462.000000" y2="104.000000"  style="stroke:black; stroke-linecap:round; stroke-width:0.25;"/>
<line x1="462.000000" y1="160.000000" x2="462.000000" y2="160.000000"  style="stroke:black; stroke-linecap:round; stroke-width:0.25;"/>
<line x1="462.000000" y1="240.000000" x2="542.000000" y2="240.000000"  style="stroke:black; stroke-linecap:round; stroke-width:0.25;"/>
<line x1="462.000000" y1="304.000000" x2="470.000000" y2="304.000000"  style="stroke:black; stroke-linecap:round; stroke-width:0.25;"/>
<line x1="462.000000" y1="324.000000" x2="470.000000" y2="324.000000"  style="stroke:black; stroke-linecap:round; stroke-width:0.25;"/>
<line x1="470.000000" y1="80.000000" x2="470.000000" y2="96.000000"  style="stroke:black; stroke-linecap:round; stroke-width:0.25;"/>
<line x1="470.000000" y1="96.000000" x2="470.000000" y2="96.000000"  style="stroke:black; stroke-linecap:round; stroke-width:0.25;"/>
<line x1="470.000000" y1="96.000000" x2="474.000000" y2="96.000000"  style="stroke:black; stroke-linecap:round; stroke-width:0.25;"/>
<line x1="470.000000" y1="104.000000" x2="474.000000" y2="104.000000"  style="stroke:black; stroke-linecap:round; stroke-width:0.25;"/>
<line x1="470.000000" y1="304.000000" x2="470.000000" y2="316.000000"  style="stroke:black; stroke-linecap:round; stroke-width:0.25;"/>
<line x1="470.000000" y1="316.000000" x2="470.000000" y2="316.000000"  style="stroke:black; stroke-linecap:round; stroke-width:0.25;"/>
<line x1="470.000000" y1="316.000000" x2="474.000000" y2="316.000000"  style="stroke:black; stroke-linecap:round; stroke-width:0.25;"/>
<line x1="470.000000" y1="324.000000" x2="474.000000" y2="324.000000"  style="stroke:black; stroke-linecap:round; stroke-width:0.25;"/>
<line x1="478.000000" y1="280.000000" x2="482.000000" y2="280.000000"  style="stroke:black; stroke-linecap:round; stroke-width:0.25;"/>
<line x1="478.000000" y1="364.000000" x2="482.000000" y2="364.000000"  style="stroke:black; stroke-linecap:round; stroke-width:0.25;"/>
<line x1="482.000000" y1="280.000000" x2="582.000000" y2="280.000000"  style="stroke:black; stroke-linecap:round; stroke-width:0.25;"/>
<line x1="482.000000" y1="344.000000" x2="490.000000" y2="344.000000"  style="stroke:black; stroke-linecap:round; stroke-width:0.25;"/>
<line x1="482.000000" y1="364.000000" x2="490.000000" y2="364.000000"  style="stroke:black; stroke-linecap:round; stroke-width:0.25;"/>
<line x1="490.000000" y1="344.000000" x2="490.000000" y2="356.000000"  style="stroke:black; stroke-linecap:round; stroke-width:0.25;"/>
<line x1="490.000000" y1="356.000000" x2="490.000000" y2="356.000000"  style="stroke:black; stroke-linecap:round; stroke-width:0.25;"/>
<line x1="490.000000" y1="356.000000" x2="494.000000" y2="356.000000"  style="stroke:black; stroke-linecap:round; stroke-width:0.25;"/>
<line x1="490.000000" y1="364.000000" x2="494.000000" y2="364.000000"  style="stroke:black; stroke-linecap:round; stroke-width:0.25;"/>
<line x1="498.000000" y1="100.000000" x2="502.000000" y2="100.000000"  style="stroke:black; stroke-linecap:round; stroke-width:0.25;"/>
<line x1="498.000000" y1="320.000000" x2="502.000000" y2="320.000000"  style="stroke:black; stroke-linecap:round; stroke-width:0.25;"/>
<line x1="498.000000" y1="404.000000" x2="502.000000" y2="404.000000"  style="stroke:black; stroke-linecap:round; stroke-width:0.25;"/>
<line x1="502.000000" y1="100.000000" x2="510.000000" y2="100.000000"  style="stroke:black; stroke-linecap:round; stroke-width:0.25;"/>
<line x1="502.000000" y1="124.000000" x2="510.000000" y2="124.000000"  style="stroke:black; stroke-linecap:round; stroke-width:0.25;"/>
<line x1="502.000000" y1="200.000000" x2="502.000000" y2="124.000000"  style="stroke:black; stroke-linecap:round; stroke-width:0.25;"/>
<line x1="502.000000" y1="200.000000" x2="502.000000" y2="200.000000"  style="stroke:black; stroke-linecap:round; stroke-width:0.25;"/>
<line x1="502.000000" y1="320.000000" x2="622.000000" y2="320.000000"  style="stroke:black; stroke-linecap:round; stroke-width:0.25;"/>
<line x1="502.000000" y1="384.000000" x2="510.000000" y2="384.000000"  style="stroke:black; stroke-linecap:round; stroke-width:0.25;"/>
<line x1="502.000000" y1="404.000000" x2="510.000000" y2="404.000000"  style="stroke:black; stroke-linecap:round; stroke-width:0.25;"/>
<line x1="510.000000" y1="100.000000" x2="510.000000" y2="116.000000"  style="stroke:black; stroke-linecap:round; stroke-width:0.25;"/>
<line x1="510.000000" y1="116.000000" x2="510.000000" y2="116.000000"  style="stroke:black; stroke-linecap:round; stroke-width:0.25;"/>
<line x1="510.000000" y1="116.000000" x2="514.000000" y2="116.000000"  style="stroke:black; stroke-linecap:round; stroke-width:0.25;"/>
<line x1="510.000000" y1="124.000000" x2="514.000000" y2="124.000000"  style="stroke:black; stroke-linecap:round; stroke-width:0.25;"/>
<line x1="510.000000" y1="384.000000" x2="510.000000" y2="396.000000"  style="stroke:black; stroke-linecap:round; stroke-width:0.25;"/>
<line x1="510.000000" y1="396.000000" x2="510.000000" y2="396.000000"  style="stroke:black; stroke-linecap:round; stroke-width:0.25;"/>
<line x1="510.000000" y1="396.000000" x2="514.000000" y2="396.000000"  style="stroke:black; stroke-linecap:round; stroke-width:0.25;"/>
<line x1="510.000000" y1="404.000000" x2="514.000000" y2="404.000000"  style="stroke:black; stroke-linecap:round; stroke-width:0.25;"/>
<line x1="518.000000" y1="360.000000" x2="522.000000" y2="360.000000"  style="stroke:black; stroke-linecap:round; stroke-width:0.25;"/>
<line x1="522.000000" y1="360.000000" x2="662.000000" y2="360.000000"  style="stroke:black; stroke-linecap:round; stroke-width:0.25;"/>
<line x1="538.000000" y1="120.000000" x2="542.000000" y2="120.000000"  style="stroke:black; stroke-linecap:round; stroke-width:0.25;"/>
<line x1="538.000000" y1="400.000000" x2="542.000000" y2="400.000000"  style="stroke:black; stroke-linecap:round; stroke-width:0.25;"/>
<line x1="542.000000" y1="120.000000" x2="550.000000" y2="120.000000"  style="stroke:black; stroke-linecap:round; stroke-width:0.25;"/>
<line x1="542.000000" y1="144.000000" x2="550.000000" y2="144.000000"  style="stroke:black; stroke-linecap:round; stroke-width:0.25;"/>
<line x1="542.000000" y1="240.000000" x2="542.000000" y2="144.000000"  style="stroke:black; stroke-linecap:round; stroke-width:0.25;"/>
<line x1="542.000000" y1="240.000000" x2="542.000000" y2="240.000000"  style="stroke:black; stroke-linecap:round; stroke-width:0.25;"/>
<line x1="542.000000" y1="400.000000" x2="702.000000" y2="400.000000"  style="stroke:black; stroke-linecap:round; stroke-width:0.25;"/>
<line x1="550.000000" y1="120.000000" x2="550.000000" y2="136.000000"  style="stroke:black; stroke-linecap:round; stroke-width:0.25;"/>
<line x1="550.000000" y1="136.000000" x2="550.000000" y2="136.000000"  style="stroke:black; stroke-linecap:round; stroke-width:0.25;"/>
<line x1="550.000000" y1="136.000000" x2="554.000000" y2="136.000000"  style="stroke:black; stroke-linecap:round; stroke-width:0.25;"/>
<line x1="550.000000" y1="144.000000" x2="554.000000" y2="144.000000"  style="stroke:black; stroke-linecap:round; stroke-width:0.25;"/>
<line x1="578.000000" y1="140.000000" x2="582.000000" y2="140.000000"  style="stroke:black; stroke-linecap:round; stroke-width:0.25;"/>
<line x1="582.000000" y1="140.000000" x2="590.000000" y2="140.000000"  style="stroke:black; stroke-linecap:round; stroke-width:0.25;"/>
<line x1="582.000000" y1="164.000000" x2="590.000000" y2="164.000000"  style="stroke:black; stroke-linecap:round; stroke-width:0.25;"/>
<line x1="582.000000" y1="280.000000" x2="582.000000" y2="164.000000"  style="stroke:black; stroke-linecap:round; stroke-width:0.25;"/>
<line x1="582.000000" y1="280.000000" x2="582.000000" y2="280.000000"  style="stroke:black; stroke-linecap:round; stroke-width:0.25;"/>
<line x1="590.000000" y1="140.000000" x2="590.000000" y2="156.000000"  style="stroke:black; stroke-linecap:round; stroke-width:0.25;"/>
<line x1="590.000000" y1="156.000000" x2="590.000000" y2="156.000000"  style="stroke:black; stroke-linecap:round; stroke-width:0.25;"/>
<line x1="590.000000" y1="156.000000" x2="594.000000" y2="156.000000"  style="stroke:black; stroke-linecap:round; stroke-width:0.25;"/>
<line x1="590.000000" y1="164.000000" x2="594.000000" y2="164.000000"  style="stroke:black; stroke-linecap:round; stroke-width:0.25;"/>
<line x1="618.000000" y1="160.000000" x2="622.000000" y2="160.000000"  style="stroke:black; stroke-linecap:round; stroke-width:0.25;"/>
<line x1="622.000000" y1="160.000000" x2="630.000000" y2="160.000000"  style="stroke:black; stroke-linecap:round; stroke-width:0.25;"/>
<line x1="622.000000" y1="184.000000" x2="630.000000" y2="184.000000"  style="stroke:black; stroke-linecap:round; stroke-width:0.25;"/>
<line x1="622.000000" y1="320.000000" x2="622.000000" y2="184.000000"  style="stroke:black; stroke-linecap:round; stroke-width:0.25;"/>
<line x1="622.000000" y1="320.000000" x2="622.000000" y2="320.000000"  style="stroke:black; stroke-linecap:round; stroke-width:0.25;"/>
<line x1="630.000000" y1="160.000000" x2="630.000000" y2="176.000000"  style="stroke:black; stroke-linecap:round; stroke-width:0.25;"/>
<line x1="630.000000" y1="176.000000" x2="630.000000" y2="176.000000"  style="stroke:black; stroke-linecap:round; stroke-width:0.25;"/>
<line x1="630.000000" y1="176.000000" x2="634.000000" y2="176.000000"  style="stroke:black; stroke-linecap:round; stroke-width:0.25;"/>
<line x1="630.000000" y1="184.000000" x2="634.000000" y2="184.000000"  style="stroke:black; stroke-linecap:round; stroke-width:0.25;"/>
<line x1="658.000000" y1="180.000000" x2="662.000000" y2="180.000000"  style="stroke:black; stroke-linecap:round; stroke-width:0.25;"/>
<line x1="662.000000" y1="180.000000" x2="670.000000" y2="180.000000"  style="stroke:black; stroke-linecap:round; stroke-width:0.25;"/>
<line x1="662.000000" y1="204.000000" x2="670.000000" y2="204.000000"  style="stroke:black; stroke-linecap:round; stroke-width:0.25;"/>
<line x1="662.000000" y1="360.000000" x2="662.000000" y2="204.000000"  style="stroke:black; stroke-linecap:round; stroke-width:0.25;"/>
<line x1="662.000000" y1="360.000000" x2="662.000000" y2="360.000000"  style="stroke:black; stroke-linecap:round; stroke-width:0.25;"/>
<line x1="670.000000" y1="180.000000" x2="670.000000" y2="196.000000"  style="stroke:black; stroke-linecap:round; stroke-width:0.25;"/>
<line x1="670.000000" y1="196.000000" x2="670.000000" y2="196.000000"  style="stroke:black; stroke-linecap:round; stroke-width:0.25;"/>
<line x1="670.000000" y1="196.000000" x2="674.000000" y2="196.000000"  style="stroke:black; stroke-linecap:round; stroke-width:0.25;"/>
<line x1="670.000000" y1="204.000000" x2="674.000000" y2="204.000000"  style="stroke:black; stroke-linecap:round; stroke-width:0.25;"/>
<line x1="698.000000" y1="200.000000" x2="702.000000" y2="200.000000"  style="stroke:black; stroke-linecap:round; stroke-width:0.25;"/>
<line x1="702.000000" y1="200.000000" x2="710.000000" y2="200.000000"  style="stroke:black; stroke-linecap:round; stroke-width:0.25;"/>
<line x1="702.000000" y1="224.000000" x2="710.000000" y2="224.000000"  style="stroke:black; stroke-linecap:round; stroke-width:0.25;"/>
<line x1="702.000000" y1="400.000000" x2="702.000000" y2="224.000000"  style="stroke:black; stroke-linecap:round; stroke-width:0.25;"/>
<line x1="702.000000" y1="400.000000" x2="702.000000" y2="400.000000"  style="stroke:black; stroke-linecap:round; stroke-width:0.25;"/>
<line x1="710.000000" y1="200.000000" x2="710.000000" y2="216.000000"  style="stroke:black; stroke-linecap:round; stroke-width:0.25;"/>
<line x1="710.000000" y1="216.000000" x2="710.000000" y2="216.000000"  style="stroke:black; stroke-linecap:round; stroke-width:0.25;"/>
<line x1="710.000000" y1="216.000000" x2="714.000000" y2="216.000000"  style="stroke:black; stroke-linecap:round; stroke-width:0.25;"/>
<line x1="710.000000" y1="224.000000" x2="714.000000" y2="224.000000"  style="stroke:black; stroke-linecap:round; stroke-width:0.25;"/>
<line x1="738.000000" y1="220.000000" x2="742.000000" y2="220.000000"  style="stroke:black; stroke-linecap:round; stroke-width:0.25;"/>
<line x1="742.000000" y1="220.000000" x2="742.000000" y2="220.000000"  style="stroke:black; stroke-linecap:round; stroke-width:0.25;"/>
<line x1="742.000000" y1="220.000000" x2="746.000000" y2="220.000000"  style="stroke:black; stroke-linecap:round; stroke-width:0.25;"/>
<line x1="746.000000" y1="220.000000" x2="750.000000" y2="220.000000"  style="stroke:black; stroke-linecap:round; stroke-width:0.25;"/>
<line x1="750.000000" y1="220.000000" x2="760.000000" y2="220.000000"  style="stroke:black; stroke-linecap:round; stroke-width:0.25;"/>
</svg>
