<?xml version="1.0"?>
<svg xmlns="http://www.w3.org/2000/svg" xmlns:xlink="http://www.w3.org/1999/xlink" viewBox="0 0 1362.600000 280.000000" width="681.300000mm" height="140.000000mm" version="1.1">
<rect x="1.000000" y="1.000000" width="1361.600000" height="279.000000" rx="0" ry="0" style="stroke:none;fill:#cccccc;"/>
<rect x="0.000000" y="0.000000" width="1361.600000" height="279.000000" rx="0" ry="0" style="stroke:none;fill:#ffffff;"/>
<text x="10.000000" y="7.000000" font-family="Arial" font-size="7"></text>
<a xlink:href="signal-0x7f6be0848ec0.svg">
<rect x="33.000000" y="101.000000" width="103.200000" height="80.000000" rx="0" ry="0" style="stroke:none;fill:#cccccc;"/>
<rect x="32.000000" y="100.000000" width="103.200000" height="80.000000" rx="0" ry="0" style="stroke:none;fill:#003366;"/>
</a>
<a xlink:href="signal-0x7f6be0848ec0.svg">
<text x="83.600000" y="142.000000" font-family="Arial" font-size="7" text-anchor="middle" fill="#FFFFFF">signal_flow_1a(40)(1000)</text>
</a>
<circle cx="34.000000" cy="102.000000" r="1"/>
<line x1="29.000000" y1="127.000000" x2="32.000000" y2="128.000000"  transform="rotate(0.000000,32.000000,128.000000)" style="stroke: black; stroke-width:0.25;"/>
<line x1="29.000000" y1="129.000000" x2="32.000000" y2="128.000000"  transform="rotate(0.000000,32.000000,128.000000)" style="stroke: black; stroke-width:0.25;"/>
<line x1="29.000000" y1="135.000000" x2="32.000000" y2="136.000000"  transform="rotate(0.000000,32.000000,136.000000)" style="stroke: black; stroke-width:0.25;"/>
<line x1="29.000000" y1="137.000000" x2="32.000000" y2="136.000000"  transform="rotate(0.000000,32.000000,136.000000)" style="stroke: black; stroke-width:0.25;"/>
<line x1="29.000000" y1="143.000000" x2="32.000000" y2="144.000000"  transform="rotate(0.000000,32.000000,144.000000)" style="stroke: black; stroke-width:0.25;"/>
<line x1="29.000000" y1="145.000000" x2="32.000000" y2="144.000000"  transform="rotate(0.000000,32.000000,144.000000)" style="stroke: black; stroke-width:0.25;"/>
<line x1="29.000000" y1="151.000000" x2="32.000000" y2="152.000000"  transform="rotate(0.000000,32.000000,152.000000)" style="stroke: black; stroke-width:0.25;"/>
<line x1="29.000000" y1="153.000000" x2="32.000000" y2="152.000000"  transform="rotate(0.000000,32.000000,152.000000)" style="stroke: black; stroke-width:0.25;"/>
<a xlink:href="signal-0x7f6be0a55f40.svg">
<rect x="562.200000" y="76.880000" width="103.200000" height="64.000000" rx="0" ry="0" style="stroke:none;fill:#cccccc;"/>
<rect x="561.200000" y="75.880000" width="103.200000" height="64.000000" rx="0" ry="0" style="stroke:none;fill:#003366;"/>
</a>
<a xlink:href="signal-0x7f6be0a55f40.svg">
<text x="612.800000" y="109.880000" font-family="Arial" font-size="7" text-anchor="middle" fill="#FFFFFF">signal_flow_1b(40)(1000)</text>
</a>
<circle cx="563.200000" cy="77.880000" r="1"/>
<line x1="558.200000" y1="86.880000" x2="561.200000" y2="87.880000"  transform="rotate(0.000000,561.200000,87.880000)" style="stroke: black; stroke-width:0.25;"/>
<line x1="558.200000" y1="88.880000" x2="561.200000" y2="87.880000"  transform="rotate(0.000000,561.200000,87.880000)" style="stroke: black; stroke-width:0.25;"/>
<line x1="558.200000" y1="94.880000" x2="561.200000" y2="95.880000"  transform="rotate(0.000000,561.200000,95.880000)" style="stroke: black; stroke-width:0.25;"/>
<line x1="558.200000" y1="96.880000" x2="561.200000" y2="95.880000"  transform="rotate(0.000000,561.200000,95.880000)" style="stroke: black; stroke-width:0.25;"/>
<line x1="558.200000" y1="102.880000" x2="561.200000" y2="103.880000"  transform="rotate(0.000000,561.200000,103.880000)" style="stroke: black; stroke-width:0.25;"/>
<line x1="558.200000" y1="104.880000" x2="561.200000" y2="103.880000"  transform="rotate(0.000000,561.200000,103.880000)" style="stroke: black; stroke-width:0.25;"/>
<line x1="558.200000" y1="110.880000" x2="561.200000" y2="111.880000"  transform="rotate(0.000000,561.200000,111.880000)" style="stroke: black; stroke-width:0.25;"/>
<line x1="558.200000" y1="112.880000" x2="561.200000" y2="111.880000"  transform="rotate(0.000000,561.200000,111.880000)" style="stroke: black; stroke-width:0.25;"/>
<line x1="558.200000" y1="118.880000" x2="561.200000" y2="119.880000"  transform="rotate(0.000000,561.200000,119.880000)" style="stroke: black; stroke-width:0.25;"/>
<line x1="558.200000" y1="120.880000" x2="561.200000" y2="119.880000"  transform="rotate(0.000000,561.200000,119.880000)" style="stroke: black; stroke-width:0.25;"/>
<line x1="558.200000" y1="126.880000" x2="561.200000" y2="127.880000"  transform="rotate(0.000000,561.200000,127.880000)" style="stroke: black; stroke-width:0.25;"/>
<line x1="558.200000" y1="128.880000" x2="561.200000" y2="127.880000"  transform="rotate(0.000000,561.200000,127.880000)" style="stroke: black; stroke-width:0.25;"/>
<a xlink:href="signal-0x7f6be12521d0.svg">
<rect x="923.400000" y="89.200000" width="103.200000" height="104.000000" rx="0" ry="0" style="stroke:none;fill:#cccccc;"/>
<rect x="922.400000" y="88.200000" width="103.200000" height="104.000000" rx="0" ry="0" style="stroke:none;fill:#003366;"/>
</a>
<a xlink:href="signal-0x7f6be12521d0.svg">
<text x="974.000000" y="142.200000" font-family="Arial" font-size="7" text-anchor="middle" fill="#FFFFFF">signal_flow_2a(40)(1000)</text>
</a>
<circle cx="924.400000" cy="90.200000" r="1"/>
<line x1="919.400000" y1="91.200000" x2="922.400000" y2="92.200000"  transform="rotate(0.000000,922.400000,92.200000)" style="stroke: black; stroke-width:0.25;"/>
<line x1="919.400000" y1="93.200000" x2="922.400000" y2="92.200000"  transform="rotate(0.000000,922.400000,92.200000)" style="stroke: black; stroke-width:0.25;"/>
<line x1="919.400000" y1="99.200000" x2="922.400000" y2="100.200000"  transform="rotate(0.000000,922.400000,100.200000)" style="stroke: black; stroke-width:0.25;"/>
<line x1="919.400000" y1="101.200000" x2="922.400000" y2="100.200000"  transform="rotate(0.000000,922.400000,100.200000)" style="stroke: black; stroke-width:0.25;"/>
<line x1="919.400000" y1="107.200000" x2="922.400000" y2="108.200000"  transform="rotate(0.000000,922.400000,108.200000)" style="stroke: black; stroke-width:0.25;"/>
<line x1="919.400000" y1="109.200000" x2="922.400000" y2="108.200000"  transform="rotate(0.000000,922.400000,108.200000)" style="stroke: black; stroke-width:0.25;"/>
<line x1="919.400000" y1="115.200000" x2="922.400000" y2="116.200000"  transform="rotate(0.000000,922.400000,116.200000)" style="stroke: black; stroke-width:0.25;"/>
<line x1="919.400000" y1="117.200000" x2="922.400000" y2="116.200000"  transform="rotate(0.000000,922.400000,116.200000)" style="stroke: black; stroke-width:0.25;"/>
<line x1="919.400000" y1="123.200000" x2="922.400000" y2="124.200000"  transform="rotate(0.000000,922.400000,124.200000)" style="stroke: black; stroke-width:0.25;"/>
<line x1="919.400000" y1="125.200000" x2="922.400000" y2="124.200000"  transform="rotate(0.000000,922.400000,124.200000)" style="stroke: black; stroke-width:0.25;"/>
<line x1="919.400000" y1="131.200000" x2="922.400000" y2="132.200000"  transform="rotate(0.000000,922.400000,132.200000)" style="stroke: black; stroke-width:0.25;"/>
<line x1="919.400000" y1="133.200000" x2="922.400000" y2="132.200000"  transform="rotate(0.000000,922.400000,132.200000)" style="stroke: black; stroke-width:0.25;"/>
<line x1="919.400000" y1="139.200000" x2="922.400000" y2="140.200000"  transform="rotate(0.000000,922.400000,140.200000)" style="stroke: black; stroke-width:0.25;"/>
<line x1="919.400000" y1="141.200000" x2="922.400000" y2="140.200000"  transform="rotate(0.000000,922.400000,140.200000)" style="stroke: black; stroke-width:0.25;"/>
<line x1="919.400000" y1="147.200000" x2="922.400000" y2="148.200000"  transform="rotate(0.000000,922.400000,148.200000)" style="stroke: black; stroke-width:0.25;"/>
<line x1="919.400000" y1="149.200000" x2="922.400000" y2="148.200000"  transform="rotate(0.000000,922.400000,148.200000)" style="stroke: black; stroke-width:0.25;"/>
<line x1="919.400000" y1="155.200000" x2="922.400000" y2="156.200000"  transform="rotate(0.000000,922.400000,156.200000)" style="stroke: black; stroke-width:0.25;"/>
<line x1="919.400000" y1="157.200000" x2="922.400000" y2="156.200000"  transform="rotate(0.000000,922.400000,156.200000)" style="stroke: black; stroke-width:0.25;"/>
<line x1="919.400000" y1="163.200000" x2="922.400000" y2="164.200000"  transform="rotate(0.000000,922.400000,164.200000)" style="stroke: black; stroke-width:0.25;"/>
<line x1="919.400000" y1="165.200000" x2="922.400000" y2="164.200000"  transform="rotate(0.000000,922.400000,164.200000)" style="stroke: black; stroke-width:0.25;"/>
<line x1="919.400000" y1="171.200000" x2="922.400000" y2="172.200000"  transform="rotate(0.000000,922.400000,172.200000)" style="stroke: black; stroke-width:0.25;"/>
<line x1="919.400000" y1="173.200000" x2="922.400000" y2="172.200000"  transform="rotate(0.000000,922.400000,172.200000)" style="stroke: black; stroke-width:0.25;"/>
<line x1="919.400000" y1="179.200000" x2="922.400000" y2="180.200000"  transform="rotate(0.000000,922.400000,180.200000)" style="stroke: black; stroke-width:0.25;"/>
<line x1="919.400000" y1="181.200000" x2="922.400000" y2="180.200000"  transform="rotate(0.000000,922.400000,180.200000)" style="stroke: black; stroke-width:0.25;"/>
<line x1="919.400000" y1="187.200000" x2="922.400000" y2="188.200000"  transform="rotate(0.000000,922.400000,188.200000)" style="stroke: black; stroke-width:0.25;"/>
<line x1="919.400000" y1="189.200000" x2="922.400000" y2="188.200000"  transform="rotate(0.000000,922.400000,188.200000)" style="stroke: black; stroke-width:0.25;"/>
<a xlink:href="signal-0x7f6be1286360.svg">
<rect x="1130.600000" y="89.000000" width="64.500000" height="120.000000" rx="0" ry="0" style="stroke:none;fill:#cccccc;"/>
<rect x="1129.600000" y="88.000000" width="64.500000" height="120.000000" rx="0" ry="0" style="stroke:none;fill:#003366;"/>
</a>
<a xlink:href="signal-0x7f6be1286360.svg">
<text x="1161.850000" y="150.000000" font-family="Arial" font-size="7" text-anchor="middle" fill="#FFFFFF">signal_flow_2b</text>
</a>
<circle cx="1131.600000" cy="90.000000" r="1"/>
<line x1="1126.600000" y1="91.000000" x2="1129.600000" y2="92.000000"  transform="rotate(0.000000,1129.600000,92.000000)" style="stroke: black; stroke-width:0.25;"/>
<line x1="1126.600000" y1="93.000000" x2="1129.600000" y2="92.000000"  transform="rotate(0.000000,1129.600000,92.000000)" style="stroke: black; stroke-width:0.25;"/>
<line x1="1126.600000" y1="99.000000" x2="1129.600000" y2="100.000000"  transform="rotate(0.000000,1129.600000,100.000000)" style="stroke: black; stroke-width:0.25;"/>
<line x1="1126.600000" y1="101.000000" x2="1129.600000" y2="100.000000"  transform="rotate(0.000000,1129.600000,100.000000)" style="stroke: black; stroke-width:0.25;"/>
<line x1="1126.600000" y1="107.000000" x2="1129.600000" y2="108.000000"  transform="rotate(0.000000,1129.600000,108.000000)" style="stroke: black; stroke-width:0.25;"/>
<line x1="1126.600000" y1="109.000000" x2="1129.600000" y2="108.000000"  transform="rotate(0.000000,1129.600000,108.000000)" style="stroke: black; stroke-width:0.25;"/>
<line x1="1126.600000" y1="115.000000" x2="1129.600000" y2="116.000000"  transform="rotate(0.000000,1129.600000,116.000000)" style="stroke: black; stroke-width:0.25;"/>
<line x1="1126.600000" y1="117.000000" x2="1129.600000" y2="116.000000"  transform="rotate(0.000000,1129.600000,116.000000)" style="stroke: black; stroke-width:0.25;"/>
<line x1="1126.600000" y1="123.000000" x2="1129.600000" y2="124.000000"  transform="rotate(0.000000,1129.600000,124.000000)" style="stroke: black; stroke-width:0.25;"/>
<line x1="1126.600000" y1="125.000000" x2="1129.600000" y2="124.000000"  transform="rotate(0.000000,1129.600000,124.000000)" style="stroke: black; stroke-width:0.25;"/>
<line x1="1126.600000" y1="131.000000" x2="1129.600000" y2="132.000000"  transform="rotate(0.000000,1129.600000,132.000000)" style="stroke: black; stroke-width:0.25;"/>
<line x1="1126.600000" y1="133.000000" x2="1129.600000" y2="132.000000"  transform="rotate(0.000000,1129.600000,132.000000)" style="stroke: black; stroke-width:0.25;"/>
<line x1="1126.600000" y1="139.000000" x2="1129.600000" y2="140.000000"  transform="rotate(0.000000,1129.600000,140.000000)" style="stroke: black; stroke-width:0.25;"/>
<line x1="1126.600000" y1="141.000000" x2="1129.600000" y2="140.000000"  transform="rotate(0.000000,1129.600000,140.000000)" style="stroke: black; stroke-width:0.25;"/>
<line x1="1126.600000" y1="147.000000" x2="1129.600000" y2="148.000000"  transform="rotate(0.000000,1129.600000,148.000000)" style="stroke: black; stroke-width:0.25;"/>
<line x1="1126.600000" y1="149.000000" x2="1129.600000" y2="148.000000"  transform="rotate(0.000000,1129.600000,148.000000)" style="stroke: black; stroke-width:0.25;"/>
<line x1="1126.600000" y1="155.000000" x2="1129.600000" y2="156.000000"  transform="rotate(0.000000,1129.600000,156.000000)" style="stroke: black; stroke-width:0.25;"/>
<line x1="1126.600000" y1="157.000000" x2="1129.600000" y2="156.000000"  transform="rotate(0.000000,1129.600000,156.000000)" style="stroke: black; stroke-width:0.25;"/>
<line x1="1126.600000" y1="163.000000" x2="1129.600000" y2="164.000000"  transform="rotate(0.000000,1129.600000,164.000000)" style="stroke: black; stroke-width:0.25;"/>
<line x1="1126.600000" y1="165.000000" x2="1129.600000" y2="164.000000"  transform="rotate(0.000000,1129.600000,164.000000)" style="stroke: black; stroke-width:0.25;"/>
<line x1="1126.600000" y1="171.000000" x2="1129.600000" y2="172.000000"  transform="rotate(0.000000,1129.600000,172.000000)" style="stroke: black; stroke-width:0.25;"/>
<line x1="1126.600000" y1="173.000000" x2="1129.600000" y2="172.000000"  transform="rotate(0.000000,1129.600000,172.000000)" style="stroke: black; stroke-width:0.25;"/>
<line x1="1126.600000" y1="179.000000" x2="1129.600000" y2="180.000000"  transform="rotate(0.000000,1129.600000,180.000000)" style="stroke: black; stroke-width:0.25;"/>
<line x1="1126.600000" y1="181.000000" x2="1129.600000" y2="180.000000"  transform="rotate(0.000000,1129.600000,180.000000)" style="stroke: black; stroke-width:0.25;"/>
<line x1="1126.600000" y1="187.000000" x2="1129.600000" y2="188.000000"  transform="rotate(0.000000,1129.600000,188.000000)" style="stroke: black; stroke-width:0.25;"/>
<line x1="1126.600000" y1="189.000000" x2="1129.600000" y2="188.000000"  transform="rotate(0.000000,1129.600000,188.000000)" style="stroke: black; stroke-width:0.25;"/>
<line x1="1126.600000" y1="195.000000" x2="1129.600000" y2="196.000000"  transform="rotate(0.000000,1129.600000,196.000000)" style="stroke: black; stroke-width:0.25;"/>
<line x1="1126.600000" y1="197.000000" x2="1129.600000" y2="196.000000"  transform="rotate(0.000000,1129.600000,196.000000)" style="stroke: black; stroke-width:0.25;"/>
<line x1="1126.600000" y1="203.000000" x2="1129.600000" y2="204.000000"  transform="rotate(0.000000,1129.600000,204.000000)" style="stroke: black; stroke-width:0.25;"/>
<line x1="1126.600000" y1="205.000000" x2="1129.600000" y2="204.000000"  transform="rotate(0.000000,1129.600000,204.000000)" style="stroke: black; stroke-width:0.25;"/>
<line x1="1196.100000" y1="136.000000" x2="1196.100000" y2="132.000000"  style="stroke:black; stroke-linecap:round; stroke-width:0.25;"/>
<line x1="1196.100000" y1="132.000000" x2="1200.100000" y2="132.000000"  style="stroke:black; stroke-linecap:round; stroke-width:0.25;"/>
<line x1="1200.100000" y1="132.000000" x2="1200.100000" y2="136.000000"  style="stroke:black; stroke-linecap:round; stroke-width:0.25;"/>
<line x1="1204.100000" y1="144.000000" x2="1204.100000" y2="140.000000"  style="stroke:black; stroke-linecap:round; stroke-width:0.25;"/>
<line x1="1204.100000" y1="140.000000" x2="1208.100000" y2="140.000000"  style="stroke:black; stroke-linecap:round; stroke-width:0.25;"/>
<line x1="1208.100000" y1="140.000000" x2="1208.100000" y2="144.000000"  style="stroke:black; stroke-linecap:round; stroke-width:0.25;"/>
<a xlink:href="signal-0x7f6be128cc20.svg">
<rect x="1267.100000" y="117.000000" width="64.500000" height="48.000000" rx="0" ry="0" style="stroke:none;fill:#cccccc;"/>
<rect x="1266.100000" y="116.000000" width="64.500000" height="48.000000" rx="0" ry="0" style="stroke:none;fill:#003366;"/>
</a>
<a xlink:href="signal-0x7f6be128cc20.svg">
<text x="1298.350000" y="142.000000" font-family="Arial" font-size="7" text-anchor="middle" fill="#FFFFFF">signal_flow_3</text>
</a>
<circle cx="1268.100000" cy="118.000000" r="1"/>
<line x1="1263.100000" y1="135.000000" x2="1266.100000" y2="136.000000"  transform="rotate(0.000000,1266.100000,136.000000)" style="stroke: black; stroke-width:0.25;"/>
<line x1="1263.100000" y1="137.000000" x2="1266.100000" y2="136.000000"  transform="rotate(0.000000,1266.100000,136.000000)" style="stroke: black; stroke-width:0.25;"/>
<line x1="1263.100000" y1="143.000000" x2="1266.100000" y2="144.000000"  transform="rotate(0.000000,1266.100000,144.000000)" style="stroke: black; stroke-width:0.25;"/>
<line x1="1263.100000" y1="145.000000" x2="1266.100000" y2="144.000000"  transform="rotate(0.000000,1266.100000,144.000000)" style="stroke: black; stroke-width:0.25;"/>
<line x1="15.000000" y1="15.000000" x2="15.000000" y2="265.000000"  style="stroke: black; stroke-linecap:round; stroke-width:0.25; stroke-dasharray:3,3;"/>
<line x1="15.000000" y1="265.000000" x2="1347.600000" y2="265.000000"  style="stroke: black; stroke-linecap:round; stroke-width:0.25; stroke-dasharray:3,3;"/>
<line x1="1347.600000" y1="265.000000" x2="1347.600000" y2="15.000000"  style="stroke: black; stroke-linecap:round; stroke-width:0.25; stroke-dasharray:3,3;"/>
<line x1="15.000000" y1="15.000000" x2="20.000000" y2="15.000000"  style="stroke: black; stroke-linecap:round; stroke-width:0.25; stroke-dasharray:3,3;"/>
<line x1="49.025000" y1="15.000000" x2="1347.600000" y2="15.000000"  style="stroke: black; stroke-linecap:round; stroke-width:0.25; stroke-dasharray:3,3;"/>
<text x="20.000000" y="17.000000" font-family="Arial" font-size="7">process</text>
<line x1="1349.600000" y1="119.000000" x2="1352.600000" y2="120.000000"  transform="rotate(0.000000,1352.600000,120.000000)" style="stroke: black; stroke-width:0.25;"/>
<line x1="1349.600000" y1="121.000000" x2="1352.600000" y2="120.000000"  transform="rotate(0.000000,1352.600000,120.000000)" style="stroke: black; stroke-width:0.25;"/>
<line x1="1349.600000" y1="127.000000" x2="1352.600000" y2="128.000000"  transform="rotate(0.000000,1352.600000,128.000000)" style="stroke: black; stroke-width:0.25;"/>
<line x1="1349.600000" y1="129.000000" x2="1352.600000" y2="128.000000"  transform="rotate(0.000000,1352.600000,128.000000)" style="stroke: black; stroke-width:0.25;"/>
<line x1="1349.600000" y1="135.000000" x2="1352.600000" y2="136.000000"  transform="rotate(0.000000,1352.600000,136.000000)" style="stroke: black; stroke-width:0.25;"/>
<line x1="1349.600000" y1="137.000000" x2="1352.600000" y2="136.000000"  transform="rotate(0.000000,1352.600000,136.000000)" style="stroke: black; stroke-width:0.25;"/>
<line x1="1349.600000" y1="143.000000" x2="1352.600000" y2="144.000000"  transform="rotate(0.000000,1352.600000,144.000000)" style="stroke: black; stroke-width:0.25;"/>
<line x1="1349.600000" y1="145.000000" x2="1352.600000" y2="144.000000"  transform="rotate(0.000000,1352.600000,144.000000)" style="stroke: black; stroke-width:0.25;"/>
<line x1="1349.600000" y1="151.000000" x2="1352.600000" y2="152.000000"  transform="rotate(0.000000,1352.600000,152.000000)" style="stroke: black; stroke-width:0.25;"/>
<line x1="1349.600000" y1="153.000000" x2="1352.600000" y2="152.000000"  transform="rotate(0.000000,1352.600000,152.000000)" style="stroke: black; stroke-width:0.25;"/>
<line x1="1349.600000" y1="159.000000" x2="1352.600000" y2="160.000000"  transform="rotate(0.000000,1352.600000,160.000000)" style="stroke: black; stroke-width:0.25;"/>
<line x1="1349.600000" y1="161.000000" x2="1352.600000" y2="160.000000"  transform="rotate(0.000000,1352.600000,160.000000)" style="stroke: black; stroke-width:0.25;"/>
<line x1="10.000000" y1="128.000000" x2="20.000000" y2="128.000000"  style="stroke:black; stroke-linecap:round; stroke-width:0.25;"/>
<line x1="10.000000" y1="136.000000" x2="20.000000" y2="136.000000"  style="stroke:black; stroke-linecap:round; stroke-width:0.25;"/>
<line x1="10.000000" y1="144.000000" x2="20.000000" y2="144.000000"  style="stroke:black; stroke-linecap:round; stroke-width:0.25;"/>
<line x1="10.000000" y1="152.000000" x2="20.000000" y2="152.000000"  style="stroke:black; stroke-linecap:round; stroke-width:0.25;"/>
<line x1="20.000000" y1="128.000000" x2="24.000000" y2="128.000000"  style="stroke:black; stroke-linecap:round; stroke-width:0.25;"/>
<line x1="20.000000" y1="136.000000" x2="24.000000" y2="136.000000"  style="stroke:black; stroke-linecap:round; stroke-width:0.25;"/>
<line x1="20.000000" y1="144.000000" x2="24.000000" y2="144.000000"  style="stroke:black; stroke-linecap:round; stroke-width:0.25;"/>
<line x1="20.000000" y1="152.000000" x2="24.000000" y2="152.000000"  style="stroke:black; stroke-linecap:round; stroke-width:0.25;"/>
<line x1="24.000000" y1="128.000000" x2="28.000000" y2="128.000000"  style="stroke:black; stroke-linecap:round; stroke-width:0.25;"/>
<line x1="24.000000" y1="136.000000" x2="28.000000" y2="136.000000"  style="stroke:black; stroke-linecap:round; stroke-width:0.25;"/>
<line x1="24.000000" y1="144.000000" x2="28.000000" y2="144.000000"  style="stroke:black; stroke-linecap:round; stroke-width:0.25;"/>
<line x1="24.000000" y1="152.000000" x2="28.000000" y2="152.000000"  style="stroke:black; stroke-linecap:round; stroke-width:0.25;"/>
<line x1="28.000000" y1="128.000000" x2="28.000000" y2="128.000000"  style="stroke:black; stroke-linecap:round; stroke-width:0.25;"/>
<line x1="28.000000" y1="128.000000" x2="32.000000" y2="128.000000"  style="stroke:black; stroke-linecap:round; stroke-width:0.25;"/>
<line x1="28.000000" y1="136.000000" x2="28.000000" y2="136.000000"  style="stroke:black; stroke-linecap:round; stroke-width:0.25;"/>
<line x1="28.000000" y1="136.000000" x2="32.000000" y2="136.000000"  style="stroke:black; stroke-linecap:round; stroke-width:0.25;"/>
<line x1="28.000000" y1="144.000000" x2="28.000000" y2="144.000000"  style="stroke:black; stroke-linecap:round; stroke-width:0.25;"/>
<line x1="28.000000" y1="144.000000" x2="32.000000" y2="144.000000"  style="stroke:black; stroke-linecap:round; stroke-width:0.25;"/>
<line x1="28.000000" y1="152.000000" x2="28.000000" y2="152.000000"  style="stroke:black; stroke-linecap:round; stroke-width:0.25;"/>
<line x1="28.000000" y1="152.000000" x2="32.000000" y2="152.000000"  style="stroke:black; stroke-linecap:round; stroke-width:0.25;"/>
<line x1="135.200000" y1="104.000000" x2="139.200000" y2="104.000000"  style="stroke:black; stroke-linecap:round; stroke-width:0.25;"/>
<line x1="135.200000" y1="112.000000" x2="139.200000" y2="112.000000"  style="stroke:black; stroke-linecap:round; stroke-width:0.25;"/>
<line x1="135.200000" y1="120.000000" x2="139.200000" y2="120.000000"  style="stroke:black; stroke-linecap:round; stroke-width:0.25;"/>
<line x1="135.200000" y1="128.000000" x2="139.200000" y2="128.000000"  style="stroke:black; stroke-linecap:round; stroke-width:0.25;"/>
<line x1="135.200000" y1="136.000000" x2="139.200000" y2="136.000000"  style="stroke:black; stroke-linecap:round; stroke-width:0.25;"/>
<line x1="135.200000" y1="144.000000" x2="139.200000" y2="144.000000"  style="stroke:black; stroke-linecap:round; stroke-width:0.25;"/>
<line x1="135.200000" y1="152.000000" x2="139.200000" y2="152.000000"  style="stroke:black; stroke-linecap:round; stroke-width:0.25;"/>
<line x1="135.200000" y1="160.000000" x2="139.200000" y2="160.000000"  style="stroke:black; stroke-linecap:round; stroke-width:0.25;"/>
<line x1="135.200000" y1="176.000000" x2="139.200000" y2="176.000000"  style="stroke:black; stroke-linecap:round; stroke-width:0.25;"/>
<line x1="139.200000" y1="104.000000" x2="221.200000" y2="24.000000"  style="stroke:black; stroke-linecap:round; stroke-width:0.25;"/>
<line x1="139.200000" y1="104.000000" x2="221.200000" y2="104.000000"  style="stroke:black; stroke-linecap:round; stroke-width:0.25;"/>
<line x1="139.200000" y1="112.000000" x2="221.200000" y2="32.000000"  style="stroke:black; stroke-linecap:round; stroke-width:0.25;"/>
<line x1="139.200000" y1="112.000000" x2="221.200000" y2="112.000000"  style="stroke:black; stroke-linecap:round; stroke-width:0.25;"/>
<line x1="139.200000" y1="120.000000" x2="221.200000" y2="120.000000"  style="stroke:black; stroke-linecap:round; stroke-width:0.25;"/>
<line x1="139.200000" y1="128.000000" x2="221.200000" y2="128.000000"  style="stroke:black; stroke-linecap:round; stroke-width:0.25;"/>
<line x1="139.200000" y1="128.000000" x2="221.200000" y2="208.000000"  style="stroke:black; stroke-linecap:round; stroke-width:0.25;"/>
<line x1="139.200000" y1="136.000000" x2="221.200000" y2="136.000000"  style="stroke:black; stroke-linecap:round; stroke-width:0.25;"/>
<line x1="139.200000" y1="136.000000" x2="221.200000" y2="216.000000"  style="stroke:black; stroke-linecap:round; stroke-width:0.25;"/>
<line x1="139.200000" y1="144.000000" x2="221.200000" y2="64.000000"  style="stroke:black; stroke-linecap:round; stroke-width:0.25;"/>
<line x1="139.200000" y1="144.000000" x2="221.200000" y2="224.000000"  style="stroke:black; stroke-linecap:round; stroke-width:0.25;"/>
<line x1="139.200000" y1="152.000000" x2="221.200000" y2="232.000000"  style="stroke:black; stroke-linecap:round; stroke-width:0.25;"/>
<line x1="139.200000" y1="160.000000" x2="221.200000" y2="240.000000"  style="stroke:black; stroke-linecap:round; stroke-width:0.25;"/>
<line x1="139.200000" y1="176.000000" x2="221.200000" y2="96.000000"  style="stroke:black; stroke-linecap:round; stroke-width:0.25;"/>
<line x1="221.200000" y1="24.000000" x2="389.200000" y2="24.000000"  style="stroke:black; stroke-linecap:round; stroke-width:0.25;"/>
<line x1="221.200000" y1="32.000000" x2="381.200000" y2="32.000000"  style="stroke:black; stroke-linecap:round; stroke-width:0.25;"/>
<line x1="221.200000" y1="64.000000" x2="349.200000" y2="64.000000"  style="stroke:black; stroke-linecap:round; stroke-width:0.25;"/>
<line x1="221.200000" y1="96.000000" x2="317.200000" y2="96.000000"  style="stroke:black; stroke-linecap:round; stroke-width:0.25;"/>
<line x1="221.200000" y1="104.000000" x2="309.200000" y2="104.000000"  style="stroke:black; stroke-linecap:round; stroke-width:0.25;"/>
<line x1="221.200000" y1="112.000000" x2="301.200000" y2="112.000000"  style="stroke:black; stroke-linecap:round; stroke-width:0.25;"/>
<line x1="221.200000" y1="120.000000" x2="293.200000" y2="120.000000"  style="stroke:black; stroke-linecap:round; stroke-width:0.25;"/>
<line x1="221.200000" y1="128.000000" x2="285.200000" y2="128.000000"  style="stroke:black; stroke-linecap:round; stroke-width:0.25;"/>
<line x1="221.200000" y1="136.000000" x2="277.200000" y2="136.000000"  style="stroke:black; stroke-linecap:round; stroke-width:0.25;"/>
<line x1="221.200000" y1="208.000000" x2="237.200000" y2="208.000000"  style="stroke:black; stroke-linecap:round; stroke-width:0.25;"/>
<line x1="221.200000" y1="216.000000" x2="245.200000" y2="216.000000"  style="stroke:black; stroke-linecap:round; stroke-width:0.25;"/>
<line x1="221.200000" y1="224.000000" x2="253.200000" y2="224.000000"  style="stroke:black; stroke-linecap:round; stroke-width:0.25;"/>
<line x1="221.200000" y1="232.000000" x2="261.200000" y2="232.000000"  style="stroke:black; stroke-linecap:round; stroke-width:0.25;"/>
<line x1="221.200000" y1="240.000000" x2="269.200000" y2="240.000000"  style="stroke:black; stroke-linecap:round; stroke-width:0.25;"/>
<line x1="237.200000" y1="188.360000" x2="389.200000" y2="188.360000"  style="stroke:black; stroke-linecap:round; stroke-width:0.25;"/>
<line x1="237.200000" y1="208.000000" x2="237.200000" y2="188.360000"  style="stroke:black; stroke-linecap:round; stroke-width:0.25;"/>
<line x1="245.200000" y1="196.360000" x2="389.200000" y2="196.360000"  style="stroke:black; stroke-linecap:round; stroke-width:0.25;"/>
<line x1="245.200000" y1="216.000000" x2="245.200000" y2="196.360000"  style="stroke:black; stroke-linecap:round; stroke-width:0.25;"/>
<line x1="253.200000" y1="204.360000" x2="389.200000" y2="204.360000"  style="stroke:black; stroke-linecap:round; stroke-width:0.25;"/>
<line x1="253.200000" y1="224.000000" x2="253.200000" y2="204.360000"  style="stroke:black; stroke-linecap:round; stroke-width:0.25;"/>
<line x1="261.200000" y1="212.360000" x2="389.200000" y2="212.360000"  style="stroke:black; stroke-linecap:round; stroke-width:0.25;"/>
<line x1="261.200000" y1="232.000000" x2="261.200000" y2="212.360000"  style="stroke:black; stroke-linecap:round; stroke-width:0.25;"/>
<line x1="269.200000" y1="220.360000" x2="389.200000" y2="220.360000"  style="stroke:black; stroke-linecap:round; stroke-width:0.25;"/>
<line x1="269.200000" y1="240.000000" x2="269.200000" y2="220.360000"  style="stroke:black; stroke-linecap:round; stroke-width:0.25;"/>
<line x1="277.200000" y1="136.000000" x2="277.200000" y2="155.960000"  style="stroke:black; stroke-linecap:round; stroke-width:0.25;"/>
<line x1="277.200000" y1="155.960000" x2="389.200000" y2="155.960000"  style="stroke:black; stroke-linecap:round; stroke-width:0.25;"/>
<line x1="285.200000" y1="128.000000" x2="285.200000" y2="147.960000"  style="stroke:black; stroke-linecap:round; stroke-width:0.25;"/>
<line x1="285.200000" y1="147.960000" x2="389.200000" y2="147.960000"  style="stroke:black; stroke-linecap:round; stroke-width:0.25;"/>
<line x1="293.200000" y1="120.000000" x2="293.200000" y2="139.960000"  style="stroke:black; stroke-linecap:round; stroke-width:0.25;"/>
<line x1="293.200000" y1="139.960000" x2="389.200000" y2="139.960000"  style="stroke:black; stroke-linecap:round; stroke-width:0.25;"/>
<line x1="301.200000" y1="112.000000" x2="301.200000" y2="131.960000"  style="stroke:black; stroke-linecap:round; stroke-width:0.25;"/>
<line x1="301.200000" y1="131.960000" x2="389.200000" y2="131.960000"  style="stroke:black; stroke-linecap:round; stroke-width:0.25;"/>
<line x1="309.200000" y1="104.000000" x2="309.200000" y2="123.960000"  style="stroke:black; stroke-linecap:round; stroke-width:0.25;"/>
<line x1="309.200000" y1="123.960000" x2="389.200000" y2="123.960000"  style="stroke:black; stroke-linecap:round; stroke-width:0.25;"/>
<line x1="317.200000" y1="96.000000" x2="317.200000" y2="115.960000"  style="stroke:black; stroke-linecap:round; stroke-width:0.25;"/>
<line x1="317.200000" y1="115.960000" x2="389.200000" y2="115.960000"  style="stroke:black; stroke-linecap:round; stroke-width:0.25;"/>
<line x1="349.200000" y1="64.000000" x2="349.200000" y2="107.720000"  style="stroke:black; stroke-linecap:round; stroke-width:0.25;"/>
<line x1="349.200000" y1="107.720000" x2="389.200000" y2="107.720000"  style="stroke:black; stroke-linecap:round; stroke-width:0.25;"/>
<line x1="381.200000" y1="32.000000" x2="381.200000" y2="99.480000"  style="stroke:black; stroke-linecap:round; stroke-width:0.25;"/>
<line x1="381.200000" y1="99.480000" x2="389.200000" y2="99.480000"  style="stroke:black; stroke-linecap:round; stroke-width:0.25;"/>
<line x1="389.200000" y1="24.000000" x2="389.200000" y2="91.480000"  style="stroke:black; stroke-linecap:round; stroke-width:0.25;"/>
<line x1="389.200000" y1="91.480000" x2="389.200000" y2="91.480000"  style="stroke:black; stroke-linecap:round; stroke-width:0.25;"/>
<line x1="389.200000" y1="91.480000" x2="405.200000" y2="91.480000"  style="stroke:black; stroke-linecap:round; stroke-width:0.25;"/>
<line x1="389.200000" y1="99.480000" x2="405.200000" y2="99.480000"  style="stroke:black; stroke-linecap:round; stroke-width:0.25;"/>
<line x1="389.200000" y1="107.720000" x2="405.200000" y2="107.720000"  style="stroke:black; stroke-linecap:round; stroke-width:0.25;"/>
<line x1="389.200000" y1="115.960000" x2="405.200000" y2="115.960000"  style="stroke:black; stroke-linecap:round; stroke-width:0.25;"/>
<line x1="389.200000" y1="123.960000" x2="405.200000" y2="123.960000"  style="stroke:black; stroke-linecap:round; stroke-width:0.25;"/>
<line x1="389.200000" y1="131.960000" x2="405.200000" y2="131.960000"  style="stroke:black; stroke-linecap:round; stroke-width:0.25;"/>
<line x1="389.200000" y1="139.960000" x2="405.200000" y2="139.960000"  style="stroke:black; stroke-linecap:round; stroke-width:0.25;"/>
<line x1="389.200000" y1="147.960000" x2="405.200000" y2="147.960000"  style="stroke:black; stroke-linecap:round; stroke-width:0.25;"/>
<line x1="389.200000" y1="155.960000" x2="405.200000" y2="155.960000"  style="stroke:black; stroke-linecap:round; stroke-width:0.25;"/>
<line x1="389.200000" y1="188.360000" x2="405.200000" y2="188.360000"  style="stroke:black; stroke-linecap:round; stroke-width:0.25;"/>
<line x1="389.200000" y1="196.360000" x2="405.200000" y2="196.360000"  style="stroke:black; stroke-linecap:round; stroke-width:0.25;"/>
<line x1="389.200000" y1="204.360000" x2="405.200000" y2="204.360000"  style="stroke:black; stroke-linecap:round; stroke-width:0.25;"/>
<line x1="389.200000" y1="212.360000" x2="405.200000" y2="212.360000"  style="stroke:black; stroke-linecap:round; stroke-width:0.25;"/>
<line x1="389.200000" y1="220.360000" x2="405.200000" y2="220.360000"  style="stroke:black; stroke-linecap:round; stroke-width:0.25;"/>
<line x1="397.200000" y1="31.880000" x2="397.200000" y2="83.480000"  style="stroke:black; stroke-linecap:round; stroke-width:0.25;"/>
<line x1="397.200000" y1="83.480000" x2="405.200000" y2="83.480000"  style="stroke:black; stroke-linecap:round; stroke-width:0.25;"/>
<line x1="405.200000" y1="31.880000" x2="397.200000" y2="31.880000"  style="stroke:black; stroke-linecap:round; stroke-width:0.25;"/>
<line x1="405.200000" y1="39.880000" x2="405.200000" y2="39.880000"  style="stroke:black; stroke-linecap:round; stroke-width:0.25;"/>
<line x1="405.200000" y1="39.880000" x2="405.200000" y2="75.480000"  style="stroke:black; stroke-linecap:round; stroke-width:0.25;"/>
<line x1="405.200000" y1="75.480000" x2="405.200000" y2="75.480000"  style="stroke:black; stroke-linecap:round; stroke-width:0.25;"/>
<line x1="405.200000" y1="75.480000" x2="557.200000" y2="75.480000"  style="stroke:black; stroke-linecap:round; stroke-width:0.25;"/>
<line x1="405.200000" y1="83.480000" x2="549.200000" y2="83.480000"  style="stroke:black; stroke-linecap:round; stroke-width:0.25;"/>
<line x1="405.200000" y1="91.480000" x2="541.200000" y2="91.480000"  style="stroke:black; stroke-linecap:round; stroke-width:0.25;"/>
<line x1="405.200000" y1="99.480000" x2="533.200000" y2="99.480000"  style="stroke:black; stroke-linecap:round; stroke-width:0.25;"/>
<line x1="405.200000" y1="107.720000" x2="525.200000" y2="107.720000"  style="stroke:black; stroke-linecap:round; stroke-width:0.25;"/>
<line x1="405.200000" y1="115.960000" x2="517.200000" y2="115.960000"  style="stroke:black; stroke-linecap:round; stroke-width:0.25;"/>
<line x1="405.200000" y1="123.960000" x2="509.200000" y2="123.960000"  style="stroke:black; stroke-linecap:round; stroke-width:0.25;"/>
<line x1="405.200000" y1="131.960000" x2="501.200000" y2="131.960000"  style="stroke:black; stroke-linecap:round; stroke-width:0.25;"/>
<line x1="405.200000" y1="139.960000" x2="493.200000" y2="139.960000"  style="stroke:black; stroke-linecap:round; stroke-width:0.25;"/>
<line x1="405.200000" y1="147.960000" x2="485.200000" y2="147.960000"  style="stroke:black; stroke-linecap:round; stroke-width:0.25;"/>
<line x1="405.200000" y1="155.960000" x2="477.200000" y2="155.960000"  style="stroke:black; stroke-linecap:round; stroke-width:0.25;"/>
<line x1="405.200000" y1="188.360000" x2="445.200000" y2="188.360000"  style="stroke:black; stroke-linecap:round; stroke-width:0.25;"/>
<line x1="405.200000" y1="196.360000" x2="437.200000" y2="196.360000"  style="stroke:black; stroke-linecap:round; stroke-width:0.25;"/>
<line x1="405.200000" y1="204.360000" x2="429.200000" y2="204.360000"  style="stroke:black; stroke-linecap:round; stroke-width:0.25;"/>
<line x1="405.200000" y1="212.360000" x2="421.200000" y2="212.360000"  style="stroke:black; stroke-linecap:round; stroke-width:0.25;"/>
<line x1="405.200000" y1="220.360000" x2="413.200000" y2="220.360000"  style="stroke:black; stroke-linecap:round; stroke-width:0.25;"/>
<line x1="413.200000" y1="220.360000" x2="413.200000" y2="248.120000"  style="stroke:black; stroke-linecap:round; stroke-width:0.25;"/>
<line x1="413.200000" y1="248.120000" x2="557.200000" y2="248.120000"  style="stroke:black; stroke-linecap:round; stroke-width:0.25;"/>
<line x1="421.200000" y1="212.360000" x2="421.200000" y2="240.120000"  style="stroke:black; stroke-linecap:round; stroke-width:0.25;"/>
<line x1="421.200000" y1="240.120000" x2="557.200000" y2="240.120000"  style="stroke:black; stroke-linecap:round; stroke-width:0.25;"/>
<line x1="429.200000" y1="204.360000" x2="429.200000" y2="232.120000"  style="stroke:black; stroke-linecap:round; stroke-width:0.25;"/>
<line x1="429.200000" y1="232.120000" x2="557.200000" y2="232.120000"  style="stroke:black; stroke-linecap:round; stroke-width:0.25;"/>
<line x1="437.200000" y1="196.360000" x2="437.200000" y2="224.120000"  style="stroke:black; stroke-linecap:round; stroke-width:0.25;"/>
<line x1="437.200000" y1="224.120000" x2="557.200000" y2="224.120000"  style="stroke:black; stroke-linecap:round; stroke-width:0.25;"/>
<line x1="445.200000" y1="188.360000" x2="445.200000" y2="216.120000"  style="stroke:black; stroke-linecap:round; stroke-width:0.25;"/>
<line x1="445.200000" y1="216.120000" x2="557.200000" y2="216.120000"  style="stroke:black; stroke-linecap:round; stroke-width:0.25;"/>
<line x1="477.200000" y1="155.960000" x2="477.200000" y2="207.880000"  style="stroke:black; stroke-linecap:round; stroke-width:0.25;"/>
<line x1="477.200000" y1="207.880000" x2="557.200000" y2="207.880000"  style="stroke:black; stroke-linecap:round; stroke-width:0.25;"/>
<line x1="485.200000" y1="147.960000" x2="485.200000" y2="199.880000"  style="stroke:black; stroke-linecap:round; stroke-width:0.25;"/>
<line x1="485.200000" y1="199.880000" x2="557.200000" y2="199.880000"  style="stroke:black; stroke-linecap:round; stroke-width:0.25;"/>
<line x1="493.200000" y1="139.960000" x2="493.200000" y2="191.880000"  style="stroke:black; stroke-linecap:round; stroke-width:0.25;"/>
<line x1="493.200000" y1="191.880000" x2="557.200000" y2="191.880000"  style="stroke:black; stroke-linecap:round; stroke-width:0.25;"/>
<line x1="501.200000" y1="131.960000" x2="501.200000" y2="183.880000"  style="stroke:black; stroke-linecap:round; stroke-width:0.25;"/>
<line x1="501.200000" y1="183.880000" x2="557.200000" y2="183.880000"  style="stroke:black; stroke-linecap:round; stroke-width:0.25;"/>
<line x1="509.200000" y1="123.960000" x2="509.200000" y2="175.880000"  style="stroke:black; stroke-linecap:round; stroke-width:0.25;"/>
<line x1="509.200000" y1="175.880000" x2="557.200000" y2="175.880000"  style="stroke:black; stroke-linecap:round; stroke-width:0.25;"/>
<line x1="517.200000" y1="115.960000" x2="517.200000" y2="127.880000"  style="stroke:black; stroke-linecap:round; stroke-width:0.25;"/>
<line x1="517.200000" y1="127.880000" x2="557.200000" y2="127.880000"  style="stroke:black; stroke-linecap:round; stroke-width:0.25;"/>
<line x1="525.200000" y1="107.720000" x2="525.200000" y2="119.880000"  style="stroke:black; stroke-linecap:round; stroke-width:0.25;"/>
<line x1="525.200000" y1="119.880000" x2="557.200000" y2="119.880000"  style="stroke:black; stroke-linecap:round; stroke-width:0.25;"/>
<line x1="533.200000" y1="99.480000" x2="533.200000" y2="111.880000"  style="stroke:black; stroke-linecap:round; stroke-width:0.25;"/>
<line x1="533.200000" y1="111.880000" x2="557.200000" y2="111.880000"  style="stroke:black; stroke-linecap:round; stroke-width:0.25;"/>
<line x1="541.200000" y1="91.480000" x2="541.200000" y2="103.880000"  style="stroke:black; stroke-linecap:round; stroke-width:0.25;"/>
<line x1="541.200000" y1="103.880000" x2="557.200000" y2="103.880000"  style="stroke:black; stroke-linecap:round; stroke-width:0.25;"/>
<line x1="549.200000" y1="83.480000" x2="549.200000" y2="95.880000"  style="stroke:black; stroke-linecap:round; stroke-width:0.25;"/>
<line x1="549.200000" y1="95.880000" x2="557.200000" y2="95.880000"  style="stroke:black; stroke-linecap:round; stroke-width:0.25;"/>
<line x1="557.200000" y1="75.480000" x2="557.200000" y2="87.880000"  style="stroke:black; stroke-linecap:round; stroke-width:0.25;"/>
<line x1="557.200000" y1="87.880000" x2="557.200000" y2="87.880000"  style="stroke:black; stroke-linecap:round; stroke-width:0.25;"/>
<line x1="557.200000" y1="87.880000" x2="561.200000" y2="87.880000"  style="stroke:black; stroke-linecap:round; stroke-width:0.25;"/>
<line x1="557.200000" y1="95.880000" x2="561.200000" y2="95.880000"  style="stroke:black; stroke-linecap:round; stroke-width:0.25;"/>
<line x1="557.200000" y1="103.880000" x2="561.200000" y2="103.880000"  style="stroke:black; stroke-linecap:round; stroke-width:0.25;"/>
<line x1="557.200000" y1="111.880000" x2="561.200000" y2="111.880000"  style="stroke:black; stroke-linecap:round; stroke-width:0.25;"/>
<line x1="557.200000" y1="119.880000" x2="561.200000" y2="119.880000"  style="stroke:black; stroke-linecap:round; stroke-width:0.25;"/>
<line x1="557.200000" y1="127.880000" x2="561.200000" y2="127.880000"  style="stroke:black; stroke-linecap:round; stroke-width:0.25;"/>
<line x1="557.200000" y1="175.880000" x2="641.800000" y2="175.880000"  style="stroke:black; stroke-linecap:round; stroke-width:0.25;"/>
<line x1="557.200000" y1="183.880000" x2="641.800000" y2="183.880000"  style="stroke:black; stroke-linecap:round; stroke-width:0.25;"/>
<line x1="557.200000" y1="191.880000" x2="641.800000" y2="191.880000"  style="stroke:black; stroke-linecap:round; stroke-width:0.25;"/>
<line x1="557.200000" y1="199.880000" x2="641.800000" y2="199.880000"  style="stroke:black; stroke-linecap:round; stroke-width:0.25;"/>
<line x1="557.200000" y1="207.880000" x2="641.800000" y2="207.880000"  style="stroke:black; stroke-linecap:round; stroke-width:0.25;"/>
<line x1="557.200000" y1="216.120000" x2="641.800000" y2="216.120000"  style="stroke:black; stroke-linecap:round; stroke-width:0.25;"/>
<line x1="557.200000" y1="224.120000" x2="641.800000" y2="224.120000"  style="stroke:black; stroke-linecap:round; stroke-width:0.25;"/>
<line x1="557.200000" y1="232.120000" x2="641.800000" y2="232.120000"  style="stroke:black; stroke-linecap:round; stroke-width:0.25;"/>
<line x1="557.200000" y1="240.120000" x2="641.800000" y2="240.120000"  style="stroke:black; stroke-linecap:round; stroke-width:0.25;"/>
<line x1="557.200000" y1="248.120000" x2="641.800000" y2="248.120000"  style="stroke:black; stroke-linecap:round; stroke-width:0.25;"/>
<line x1="641.800000" y1="175.880000" x2="726.400000" y2="175.880000"  style="stroke:black; stroke-linecap:round; stroke-width:0.25;"/>
<line x1="641.800000" y1="183.880000" x2="726.400000" y2="183.880000"  style="stroke:black; stroke-linecap:round; stroke-width:0.25;"/>
<line x1="641.800000" y1="191.880000" x2="726.400000" y2="191.880000"  style="stroke:black; stroke-linecap:round; stroke-width:0.25;"/>
<line x1="641.800000" y1="199.880000" x2="726.400000" y2="199.880000"  style="stroke:black; stroke-linecap:round; stroke-width:0.25;"/>
<line x1="641.800000" y1="207.880000" x2="726.400000" y2="207.880000"  style="stroke:black; stroke-linecap:round; stroke-width:0.25;"/>
<line x1="641.800000" y1="216.120000" x2="726.400000" y2="216.120000"  style="stroke:black; stroke-linecap:round; stroke-width:0.25;"/>
<line x1="641.800000" y1="224.120000" x2="726.400000" y2="224.120000"  style="stroke:black; stroke-linecap:round; stroke-width:0.25;"/>
<line x1="641.800000" y1="232.120000" x2="726.400000" y2="232.120000"  style="stroke:black; stroke-linecap:round; stroke-width:0.25;"/>
<line x1="641.800000" y1="240.120000" x2="726.400000" y2="240.120000"  style="stroke:black; stroke-linecap:round; stroke-width:0.25;"/>
<line x1="641.800000" y1="248.120000" x2="726.400000" y2="248.120000"  style="stroke:black; stroke-linecap:round; stroke-width:0.25;"/>
<line x1="664.400000" y1="79.880000" x2="668.400000" y2="79.880000"  style="stroke:black; stroke-linecap:round; stroke-width:0.25;"/>
<line x1="664.400000" y1="87.880000" x2="668.400000" y2="87.880000"  style="stroke:black; stroke-linecap:round; stroke-width:0.25;"/>
<line x1="664.400000" y1="95.880000" x2="668.400000" y2="95.880000"  style="stroke:black; stroke-linecap:round; stroke-width:0.25;"/>
<line x1="664.400000" y1="103.880000" x2="668.400000" y2="103.880000"  style="stroke:black; stroke-linecap:round; stroke-width:0.25;"/>
<line x1="664.400000" y1="111.880000" x2="668.400000" y2="111.880000"  style="stroke:black; stroke-linecap:round; stroke-width:0.25;"/>
<line x1="664.400000" y1="119.880000" x2="668.400000" y2="119.880000"  style="stroke:black; stroke-linecap:round; stroke-width:0.25;"/>
<line x1="664.400000" y1="127.880000" x2="668.400000" y2="127.880000"  style="stroke:black; stroke-linecap:round; stroke-width:0.25;"/>
<line x1="664.400000" y1="135.880000" x2="668.400000" y2="135.880000"  style="stroke:black; stroke-linecap:round; stroke-width:0.25;"/>
<line x1="668.400000" y1="79.880000" x2="718.400000" y2="111.880000"  style="stroke:black; stroke-linecap:round; stroke-width:0.25;"/>
<line x1="668.400000" y1="87.880000" x2="718.400000" y2="119.880000"  style="stroke:black; stroke-linecap:round; stroke-width:0.25;"/>
<line x1="668.400000" y1="95.880000" x2="718.400000" y2="127.880000"  style="stroke:black; stroke-linecap:round; stroke-width:0.25;"/>
<line x1="668.400000" y1="103.880000" x2="718.400000" y2="71.880000"  style="stroke:black; stroke-linecap:round; stroke-width:0.25;"/>
<line x1="668.400000" y1="103.880000" x2="718.400000" y2="135.880000"  style="stroke:black; stroke-linecap:round; stroke-width:0.25;"/>
<line x1="668.400000" y1="111.880000" x2="718.400000" y2="79.880000"  style="stroke:black; stroke-linecap:round; stroke-width:0.25;"/>
<line x1="668.400000" y1="111.880000" x2="718.400000" y2="143.880000"  style="stroke:black; stroke-linecap:round; stroke-width:0.25;"/>
<line x1="668.400000" y1="119.880000" x2="718.400000" y2="151.880000"  style="stroke:black; stroke-linecap:round; stroke-width:0.25;"/>
<line x1="668.400000" y1="127.880000" x2="718.400000" y2="159.880000"  style="stroke:black; stroke-linecap:round; stroke-width:0.25;"/>
<line x1="668.400000" y1="135.880000" x2="718.400000" y2="103.880000"  style="stroke:black; stroke-linecap:round; stroke-width:0.25;"/>
<line x1="668.400000" y1="135.880000" x2="718.400000" y2="167.880000"  style="stroke:black; stroke-linecap:round; stroke-width:0.25;"/>
<line x1="718.400000" y1="71.880000" x2="722.400000" y2="71.880000"  style="stroke:black; stroke-linecap:round; stroke-width:0.25;"/>
<line x1="718.400000" y1="79.880000" x2="722.400000" y2="79.880000"  style="stroke:black; stroke-linecap:round; stroke-width:0.25;"/>
<line x1="718.400000" y1="103.880000" x2="722.400000" y2="103.880000"  style="stroke:black; stroke-linecap:round; stroke-width:0.25;"/>
<line x1="718.400000" y1="111.880000" x2="722.400000" y2="111.880000"  style="stroke:black; stroke-linecap:round; stroke-width:0.25;"/>
<line x1="718.400000" y1="119.880000" x2="722.400000" y2="119.880000"  style="stroke:black; stroke-linecap:round; stroke-width:0.25;"/>
<line x1="718.400000" y1="127.880000" x2="722.400000" y2="127.880000"  style="stroke:black; stroke-linecap:round; stroke-width:0.25;"/>
<line x1="718.400000" y1="135.880000" x2="722.400000" y2="135.880000"  style="stroke:black; stroke-linecap:round; stroke-width:0.25;"/>
<line x1="718.400000" y1="143.880000" x2="722.400000" y2="143.880000"  style="stroke:black; stroke-linecap:round; stroke-width:0.25;"/>
<line x1="718.400000" y1="151.880000" x2="722.400000" y2="151.880000"  style="stroke:black; stroke-linecap:round; stroke-width:0.25;"/>
<line x1="718.400000" y1="159.880000" x2="722.400000" y2="159.880000"  style="stroke:black; stroke-linecap:round; stroke-width:0.25;"/>
<line x1="718.400000" y1="167.880000" x2="722.400000" y2="167.880000"  style="stroke:black; stroke-linecap:round; stroke-width:0.25;"/>
<line x1="722.400000" y1="71.880000" x2="726.400000" y2="71.880000"  style="stroke:black; stroke-linecap:round; stroke-width:0.25;"/>
<line x1="722.400000" y1="79.880000" x2="726.400000" y2="79.880000"  style="stroke:black; stroke-linecap:round; stroke-width:0.25;"/>
<line x1="722.400000" y1="103.880000" x2="726.400000" y2="103.880000"  style="stroke:black; stroke-linecap:round; stroke-width:0.25;"/>
<line x1="722.400000" y1="111.880000" x2="726.400000" y2="111.880000"  style="stroke:black; stroke-linecap:round; stroke-width:0.25;"/>
<line x1="722.400000" y1="119.880000" x2="726.400000" y2="119.880000"  style="stroke:black; stroke-linecap:round; stroke-width:0.25;"/>
<line x1="722.400000" y1="127.880000" x2="726.400000" y2="127.880000"  style="stroke:black; stroke-linecap:round; stroke-width:0.25;"/>
<line x1="722.400000" y1="135.880000" x2="726.400000" y2="135.880000"  style="stroke:black; stroke-linecap:round; stroke-width:0.25;"/>
<line x1="722.400000" y1="143.880000" x2="726.400000" y2="143.880000"  style="stroke:black; stroke-linecap:round; stroke-width:0.25;"/>
<line x1="722.400000" y1="151.880000" x2="726.400000" y2="151.880000"  style="stroke:black; stroke-linecap:round; stroke-width:0.25;"/>
<line x1="722.400000" y1="159.880000" x2="726.400000" y2="159.880000"  style="stroke:black; stroke-linecap:round; stroke-width:0.25;"/>
<line x1="722.400000" y1="167.880000" x2="726.400000" y2="167.880000"  style="stroke:black; stroke-linecap:round; stroke-width:0.25;"/>
<line x1="726.400000" y1="71.880000" x2="734.400000" y2="71.880000"  style="stroke:black; stroke-linecap:round; stroke-width:0.25;"/>
<line x1="726.400000" y1="79.880000" x2="742.400000" y2="79.880000"  style="stroke:black; stroke-linecap:round; stroke-width:0.25;"/>
<line x1="726.400000" y1="103.880000" x2="766.400000" y2="103.880000"  style="stroke:black; stroke-linecap:round; stroke-width:0.25;"/>
<line x1="726.400000" y1="111.880000" x2="774.400000" y2="111.880000"  style="stroke:black; stroke-linecap:round; stroke-width:0.25;"/>
<line x1="726.400000" y1="119.880000" x2="782.400000" y2="119.880000"  style="stroke:black; stroke-linecap:round; stroke-width:0.25;"/>
<line x1="726.400000" y1="127.880000" x2="790.400000" y2="127.880000"  style="stroke:black; stroke-linecap:round; stroke-width:0.25;"/>
<line x1="726.400000" y1="135.880000" x2="798.400000" y2="135.880000"  style="stroke:black; stroke-linecap:round; stroke-width:0.25;"/>
<line x1="726.400000" y1="143.880000" x2="806.400000" y2="143.880000"  style="stroke:black; stroke-linecap:round; stroke-width:0.25;"/>
<line x1="726.400000" y1="151.880000" x2="814.400000" y2="151.880000"  style="stroke:black; stroke-linecap:round; stroke-width:0.25;"/>
<line x1="726.400000" y1="159.880000" x2="822.400000" y2="159.880000"  style="stroke:black; stroke-linecap:round; stroke-width:0.25;"/>
<line x1="726.400000" y1="167.880000" x2="830.400000" y2="167.880000"  style="stroke:black; stroke-linecap:round; stroke-width:0.25;"/>
<line x1="726.400000" y1="175.880000" x2="838.400000" y2="175.880000"  style="stroke:black; stroke-linecap:round; stroke-width:0.25;"/>
<line x1="726.400000" y1="183.880000" x2="846.400000" y2="183.880000"  style="stroke:black; stroke-linecap:round; stroke-width:0.25;"/>
<line x1="726.400000" y1="191.880000" x2="854.400000" y2="191.880000"  style="stroke:black; stroke-linecap:round; stroke-width:0.25;"/>
<line x1="726.400000" y1="199.880000" x2="862.400000" y2="199.880000"  style="stroke:black; stroke-linecap:round; stroke-width:0.25;"/>
<line x1="726.400000" y1="207.880000" x2="870.400000" y2="207.880000"  style="stroke:black; stroke-linecap:round; stroke-width:0.25;"/>
<line x1="726.400000" y1="216.120000" x2="878.400000" y2="216.120000"  style="stroke:black; stroke-linecap:round; stroke-width:0.25;"/>
<line x1="726.400000" y1="224.120000" x2="886.400000" y2="224.120000"  style="stroke:black; stroke-linecap:round; stroke-width:0.25;"/>
<line x1="726.400000" y1="232.120000" x2="894.400000" y2="232.120000"  style="stroke:black; stroke-linecap:round; stroke-width:0.25;"/>
<line x1="726.400000" y1="240.120000" x2="902.400000" y2="240.120000"  style="stroke:black; stroke-linecap:round; stroke-width:0.25;"/>
<line x1="726.400000" y1="248.120000" x2="910.400000" y2="248.120000"  style="stroke:black; stroke-linecap:round; stroke-width:0.25;"/>
<line x1="734.400000" y1="64.040000" x2="918.400000" y2="64.040000"  style="stroke:black; stroke-linecap:round; stroke-width:0.25;"/>
<line x1="734.400000" y1="71.880000" x2="734.400000" y2="64.040000"  style="stroke:black; stroke-linecap:round; stroke-width:0.25;"/>
<line x1="742.400000" y1="72.040000" x2="918.400000" y2="72.040000"  style="stroke:black; stroke-linecap:round; stroke-width:0.25;"/>
<line x1="742.400000" y1="79.880000" x2="742.400000" y2="72.040000"  style="stroke:black; stroke-linecap:round; stroke-width:0.25;"/>
<line x1="766.400000" y1="80.200000" x2="918.400000" y2="80.200000"  style="stroke:black; stroke-linecap:round; stroke-width:0.25;"/>
<line x1="766.400000" y1="103.880000" x2="766.400000" y2="80.200000"  style="stroke:black; stroke-linecap:round; stroke-width:0.25;"/>
<line x1="774.400000" y1="92.200000" x2="918.400000" y2="92.200000"  style="stroke:black; stroke-linecap:round; stroke-width:0.25;"/>
<line x1="774.400000" y1="111.880000" x2="774.400000" y2="92.200000"  style="stroke:black; stroke-linecap:round; stroke-width:0.25;"/>
<line x1="782.400000" y1="100.200000" x2="918.400000" y2="100.200000"  style="stroke:black; stroke-linecap:round; stroke-width:0.25;"/>
<line x1="782.400000" y1="119.880000" x2="782.400000" y2="100.200000"  style="stroke:black; stroke-linecap:round; stroke-width:0.25;"/>
<line x1="790.400000" y1="108.200000" x2="918.400000" y2="108.200000"  style="stroke:black; stroke-linecap:round; stroke-width:0.25;"/>
<line x1="790.400000" y1="127.880000" x2="790.400000" y2="108.200000"  style="stroke:black; stroke-linecap:round; stroke-width:0.25;"/>
<line x1="798.400000" y1="116.200000" x2="918.400000" y2="116.200000"  style="stroke:black; stroke-linecap:round; stroke-width:0.25;"/>
<line x1="798.400000" y1="135.880000" x2="798.400000" y2="116.200000"  style="stroke:black; stroke-linecap:round; stroke-width:0.25;"/>
<line x1="801.650000" y1="31.880000" x2="405.200000" y2="31.880000"  style="stroke:black; stroke-linecap:round; stroke-width:0.25;"/>
<line x1="801.650000" y1="39.880000" x2="405.200000" y2="39.880000"  style="stroke:black; stroke-linecap:round; stroke-width:0.25;"/>
<line x1="806.400000" y1="124.200000" x2="918.400000" y2="124.200000"  style="stroke:black; stroke-linecap:round; stroke-width:0.25;"/>
<line x1="806.400000" y1="143.880000" x2="806.400000" y2="124.200000"  style="stroke:black; stroke-linecap:round; stroke-width:0.25;"/>
<line x1="814.400000" y1="132.200000" x2="918.400000" y2="132.200000"  style="stroke:black; stroke-linecap:round; stroke-width:0.25;"/>
<line x1="814.400000" y1="151.880000" x2="814.400000" y2="132.200000"  style="stroke:black; stroke-linecap:round; stroke-width:0.25;"/>
<line x1="822.400000" y1="140.200000" x2="918.400000" y2="140.200000"  style="stroke:black; stroke-linecap:round; stroke-width:0.25;"/>
<line x1="822.400000" y1="159.880000" x2="822.400000" y2="140.200000"  style="stroke:black; stroke-linecap:round; stroke-width:0.25;"/>
<line x1="830.400000" y1="148.200000" x2="918.400000" y2="148.200000"  style="stroke:black; stroke-linecap:round; stroke-width:0.25;"/>
<line x1="830.400000" y1="167.880000" x2="830.400000" y2="148.200000"  style="stroke:black; stroke-linecap:round; stroke-width:0.25;"/>
<line x1="838.400000" y1="156.200000" x2="918.400000" y2="156.200000"  style="stroke:black; stroke-linecap:round; stroke-width:0.25;"/>
<line x1="838.400000" y1="175.880000" x2="838.400000" y2="156.200000"  style="stroke:black; stroke-linecap:round; stroke-width:0.25;"/>
<line x1="846.400000" y1="164.200000" x2="918.400000" y2="164.200000"  style="stroke:black; stroke-linecap:round; stroke-width:0.25;"/>
<line x1="846.400000" y1="183.880000" x2="846.400000" y2="164.200000"  style="stroke:black; stroke-linecap:round; stroke-width:0.25;"/>
<line x1="854.400000" y1="172.200000" x2="918.400000" y2="172.200000"  style="stroke:black; stroke-linecap:round; stroke-width:0.25;"/>
<line x1="854.400000" y1="191.880000" x2="854.400000" y2="172.200000"  style="stroke:black; stroke-linecap:round; stroke-width:0.25;"/>
<line x1="862.400000" y1="180.200000" x2="918.400000" y2="180.200000"  style="stroke:black; stroke-linecap:round; stroke-width:0.25;"/>
<line x1="862.400000" y1="199.880000" x2="862.400000" y2="180.200000"  style="stroke:black; stroke-linecap:round; stroke-width:0.25;"/>
<line x1="870.400000" y1="188.200000" x2="918.400000" y2="188.200000"  style="stroke:black; stroke-linecap:round; stroke-width:0.25;"/>
<line x1="870.400000" y1="207.880000" x2="870.400000" y2="188.200000"  style="stroke:black; stroke-linecap:round; stroke-width:0.25;"/>
<line x1="878.400000" y1="200.200000" x2="918.400000" y2="200.200000"  style="stroke:black; stroke-linecap:round; stroke-width:0.25;"/>
<line x1="878.400000" y1="216.120000" x2="878.400000" y2="200.200000"  style="stroke:black; stroke-linecap:round; stroke-width:0.25;"/>
<line x1="886.400000" y1="208.200000" x2="918.400000" y2="208.200000"  style="stroke:black; stroke-linecap:round; stroke-width:0.25;"/>
<line x1="886.400000" y1="224.120000" x2="886.400000" y2="208.200000"  style="stroke:black; stroke-linecap:round; stroke-width:0.25;"/>
<line x1="894.400000" y1="216.200000" x2="918.400000" y2="216.200000"  style="stroke:black; stroke-linecap:round; stroke-width:0.25;"/>
<line x1="894.400000" y1="232.120000" x2="894.400000" y2="216.200000"  style="stroke:black; stroke-linecap:round; stroke-width:0.25;"/>
<line x1="902.400000" y1="224.200000" x2="918.400000" y2="224.200000"  style="stroke:black; stroke-linecap:round; stroke-width:0.25;"/>
<line x1="902.400000" y1="240.120000" x2="902.400000" y2="224.200000"  style="stroke:black; stroke-linecap:round; stroke-width:0.25;"/>
<line x1="910.400000" y1="232.200000" x2="918.400000" y2="232.200000"  style="stroke:black; stroke-linecap:round; stroke-width:0.25;"/>
<line x1="910.400000" y1="248.120000" x2="910.400000" y2="232.200000"  style="stroke:black; stroke-linecap:round; stroke-width:0.25;"/>
<line x1="918.400000" y1="64.040000" x2="974.000000" y2="64.040000"  style="stroke:black; stroke-linecap:round; stroke-width:0.25;"/>
<line x1="918.400000" y1="72.040000" x2="974.000000" y2="72.040000"  style="stroke:black; stroke-linecap:round; stroke-width:0.25;"/>
<line x1="918.400000" y1="80.200000" x2="974.000000" y2="80.200000"  style="stroke:black; stroke-linecap:round; stroke-width:0.25;"/>
<line x1="918.400000" y1="92.200000" x2="922.400000" y2="92.200000"  style="stroke:black; stroke-linecap:round; stroke-width:0.25;"/>
<line x1="918.400000" y1="100.200000" x2="922.400000" y2="100.200000"  style="stroke:black; stroke-linecap:round; stroke-width:0.25;"/>
<line x1="918.400000" y1="108.200000" x2="922.400000" y2="108.200000"  style="stroke:black; stroke-linecap:round; stroke-width:0.25;"/>
<line x1="918.400000" y1="116.200000" x2="922.400000" y2="116.200000"  style="stroke:black; stroke-linecap:round; stroke-width:0.25;"/>
<line x1="918.400000" y1="124.200000" x2="922.400000" y2="124.200000"  style="stroke:black; stroke-linecap:round; stroke-width:0.25;"/>
<line x1="918.400000" y1="132.200000" x2="922.400000" y2="132.200000"  style="stroke:black; stroke-linecap:round; stroke-width:0.25;"/>
<line x1="918.400000" y1="140.200000" x2="922.400000" y2="140.200000"  style="stroke:black; stroke-linecap:round; stroke-width:0.25;"/>
<line x1="918.400000" y1="148.200000" x2="922.400000" y2="148.200000"  style="stroke:black; stroke-linecap:round; stroke-width:0.25;"/>
<line x1="918.400000" y1="156.200000" x2="922.400000" y2="156.200000"  style="stroke:black; stroke-linecap:round; stroke-width:0.25;"/>
<line x1="918.400000" y1="164.200000" x2="922.400000" y2="164.200000"  style="stroke:black; stroke-linecap:round; stroke-width:0.25;"/>
<line x1="918.400000" y1="172.200000" x2="922.400000" y2="172.200000"  style="stroke:black; stroke-linecap:round; stroke-width:0.25;"/>
<line x1="918.400000" y1="180.200000" x2="922.400000" y2="180.200000"  style="stroke:black; stroke-linecap:round; stroke-width:0.25;"/>
<line x1="918.400000" y1="188.200000" x2="922.400000" y2="188.200000"  style="stroke:black; stroke-linecap:round; stroke-width:0.25;"/>
<line x1="918.400000" y1="200.200000" x2="974.000000" y2="200.200000"  style="stroke:black; stroke-linecap:round; stroke-width:0.25;"/>
<line x1="918.400000" y1="208.200000" x2="974.000000" y2="208.200000"  style="stroke:black; stroke-linecap:round; stroke-width:0.25;"/>
<line x1="918.400000" y1="216.200000" x2="974.000000" y2="216.200000"  style="stroke:black; stroke-linecap:round; stroke-width:0.25;"/>
<line x1="918.400000" y1="224.200000" x2="974.000000" y2="224.200000"  style="stroke:black; stroke-linecap:round; stroke-width:0.25;"/>
<line x1="918.400000" y1="232.200000" x2="974.000000" y2="232.200000"  style="stroke:black; stroke-linecap:round; stroke-width:0.25;"/>
<line x1="974.000000" y1="64.040000" x2="1029.600000" y2="64.040000"  style="stroke:black; stroke-linecap:round; stroke-width:0.25;"/>
<line x1="974.000000" y1="72.040000" x2="1029.600000" y2="72.040000"  style="stroke:black; stroke-linecap:round; stroke-width:0.25;"/>
<line x1="974.000000" y1="80.200000" x2="1029.600000" y2="80.200000"  style="stroke:black; stroke-linecap:round; stroke-width:0.25;"/>
<line x1="974.000000" y1="200.200000" x2="1029.600000" y2="200.200000"  style="stroke:black; stroke-linecap:round; stroke-width:0.25;"/>
<line x1="974.000000" y1="208.200000" x2="1029.600000" y2="208.200000"  style="stroke:black; stroke-linecap:round; stroke-width:0.25;"/>
<line x1="974.000000" y1="216.200000" x2="1029.600000" y2="216.200000"  style="stroke:black; stroke-linecap:round; stroke-width:0.25;"/>
<line x1="974.000000" y1="224.200000" x2="1029.600000" y2="224.200000"  style="stroke:black; stroke-linecap:round; stroke-width:0.25;"/>
<line x1="974.000000" y1="232.200000" x2="1029.600000" y2="232.200000"  style="stroke:black; stroke-linecap:round; stroke-width:0.25;"/>
<line x1="1025.600000" y1="116.200000" x2="1029.600000" y2="116.200000"  style="stroke:black; stroke-linecap:round; stroke-width:0.25;"/>
<line x1="1025.600000" y1="124.200000" x2="1029.600000" y2="124.200000"  style="stroke:black; stroke-linecap:round; stroke-width:0.25;"/>
<line x1="1025.600000" y1="132.200000" x2="1029.600000" y2="132.200000"  style="stroke:black; stroke-linecap:round; stroke-width:0.25;"/>
<line x1="1025.600000" y1="140.200000" x2="1029.600000" y2="140.200000"  style="stroke:black; stroke-linecap:round; stroke-width:0.25;"/>
<line x1="1025.600000" y1="148.200000" x2="1029.600000" y2="148.200000"  style="stroke:black; stroke-linecap:round; stroke-width:0.25;"/>
<line x1="1025.600000" y1="156.200000" x2="1029.600000" y2="156.200000"  style="stroke:black; stroke-linecap:round; stroke-width:0.25;"/>
<line x1="1025.600000" y1="164.200000" x2="1029.600000" y2="164.200000"  style="stroke:black; stroke-linecap:round; stroke-width:0.25;"/>
<line x1="1029.600000" y1="64.040000" x2="1125.600000" y2="64.040000"  style="stroke:black; stroke-linecap:round; stroke-width:0.25;"/>
<line x1="1029.600000" y1="72.040000" x2="1117.600000" y2="72.040000"  style="stroke:black; stroke-linecap:round; stroke-width:0.25;"/>
<line x1="1029.600000" y1="80.200000" x2="1109.600000" y2="80.200000"  style="stroke:black; stroke-linecap:round; stroke-width:0.25;"/>
<line x1="1029.600000" y1="116.000000" x2="1125.600000" y2="116.000000"  style="stroke:black; stroke-linecap:round; stroke-width:0.25;"/>
<line x1="1029.600000" y1="116.200000" x2="1029.600000" y2="116.000000"  style="stroke:black; stroke-linecap:round; stroke-width:0.25;"/>
<line x1="1029.600000" y1="116.200000" x2="1029.600000" y2="116.200000"  style="stroke:black; stroke-linecap:round; stroke-width:0.25;"/>
<line x1="1029.600000" y1="124.200000" x2="1037.600000" y2="124.200000"  style="stroke:black; stroke-linecap:round; stroke-width:0.25;"/>
<line x1="1029.600000" y1="132.200000" x2="1045.600000" y2="132.200000"  style="stroke:black; stroke-linecap:round; stroke-width:0.25;"/>
<line x1="1029.600000" y1="140.200000" x2="1053.600000" y2="140.200000"  style="stroke:black; stroke-linecap:round; stroke-width:0.25;"/>
<line x1="1029.600000" y1="148.200000" x2="1061.600000" y2="148.200000"  style="stroke:black; stroke-linecap:round; stroke-width:0.25;"/>
<line x1="1029.600000" y1="156.200000" x2="1069.600000" y2="156.200000"  style="stroke:black; stroke-linecap:round; stroke-width:0.25;"/>
<line x1="1029.600000" y1="164.200000" x2="1077.600000" y2="164.200000"  style="stroke:black; stroke-linecap:round; stroke-width:0.25;"/>
<line x1="1029.600000" y1="200.200000" x2="1085.600000" y2="200.200000"  style="stroke:black; stroke-linecap:round; stroke-width:0.25;"/>
<line x1="1029.600000" y1="208.200000" x2="1093.600000" y2="208.200000"  style="stroke:black; stroke-linecap:round; stroke-width:0.25;"/>
<line x1="1029.600000" y1="216.200000" x2="1101.600000" y2="216.200000"  style="stroke:black; stroke-linecap:round; stroke-width:0.25;"/>
<line x1="1029.600000" y1="224.200000" x2="1109.600000" y2="224.200000"  style="stroke:black; stroke-linecap:round; stroke-width:0.25;"/>
<line x1="1029.600000" y1="232.200000" x2="1117.600000" y2="232.200000"  style="stroke:black; stroke-linecap:round; stroke-width:0.25;"/>
<line x1="1037.600000" y1="124.000000" x2="1125.600000" y2="124.000000"  style="stroke:black; stroke-linecap:round; stroke-width:0.25;"/>
<line x1="1037.600000" y1="124.200000" x2="1037.600000" y2="124.000000"  style="stroke:black; stroke-linecap:round; stroke-width:0.25;"/>
<line x1="1045.600000" y1="132.000000" x2="1125.600000" y2="132.000000"  style="stroke:black; stroke-linecap:round; stroke-width:0.25;"/>
<line x1="1045.600000" y1="132.200000" x2="1045.600000" y2="132.000000"  style="stroke:black; stroke-linecap:round; stroke-width:0.25;"/>
<line x1="1053.600000" y1="140.000000" x2="1125.600000" y2="140.000000"  style="stroke:black; stroke-linecap:round; stroke-width:0.25;"/>
<line x1="1053.600000" y1="140.200000" x2="1053.600000" y2="140.000000"  style="stroke:black; stroke-linecap:round; stroke-width:0.25;"/>
<line x1="1061.600000" y1="148.000000" x2="1125.600000" y2="148.000000"  style="stroke:black; stroke-linecap:round; stroke-width:0.25;"/>
<line x1="1061.600000" y1="148.200000" x2="1061.600000" y2="148.000000"  style="stroke:black; stroke-linecap:round; stroke-width:0.25;"/>
<line x1="1069.600000" y1="156.000000" x2="1125.600000" y2="156.000000"  style="stroke:black; stroke-linecap:round; stroke-width:0.25;"/>
<line x1="1069.600000" y1="156.200000" x2="1069.600000" y2="156.000000"  style="stroke:black; stroke-linecap:round; stroke-width:0.25;"/>
<line x1="1077.600000" y1="164.000000" x2="1125.600000" y2="164.000000"  style="stroke:black; stroke-linecap:round; stroke-width:0.25;"/>
<line x1="1077.600000" y1="164.200000" x2="1077.600000" y2="164.000000"  style="stroke:black; stroke-linecap:round; stroke-width:0.25;"/>
<line x1="1085.600000" y1="172.000000" x2="1125.600000" y2="172.000000"  style="stroke:black; stroke-linecap:round; stroke-width:0.25;"/>
<line x1="1085.600000" y1="200.200000" x2="1085.600000" y2="172.000000"  style="stroke:black; stroke-linecap:round; stroke-width:0.25;"/>
<line x1="1093.600000" y1="180.000000" x2="1125.600000" y2="180.000000"  style="stroke:black; stroke-linecap:round; stroke-width:0.25;"/>
<line x1="1093.600000" y1="208.200000" x2="1093.600000" y2="180.000000"  style="stroke:black; stroke-linecap:round; stroke-width:0.25;"/>
<line x1="1101.600000" y1="188.000000" x2="1125.600000" y2="188.000000"  style="stroke:black; stroke-linecap:round; stroke-width:0.25;"/>
<line x1="1101.600000" y1="216.200000" x2="1101.600000" y2="188.000000"  style="stroke:black; stroke-linecap:round; stroke-width:0.25;"/>
<line x1="1109.600000" y1="80.200000" x2="1109.600000" y2="108.000000"  style="stroke:black; stroke-linecap:round; stroke-width:0.25;"/>
<line x1="1109.600000" y1="108.000000" x2="1125.600000" y2="108.000000"  style="stroke:black; stroke-linecap:round; stroke-width:0.25;"/>
<line x1="1109.600000" y1="196.000000" x2="1125.600000" y2="196.000000"  style="stroke:black; stroke-linecap:round; stroke-width:0.25;"/>
<line x1="1109.600000" y1="224.200000" x2="1109.600000" y2="196.000000"  style="stroke:black; stroke-linecap:round; stroke-width:0.25;"/>
<line x1="1117.600000" y1="72.040000" x2="1117.600000" y2="100.000000"  style="stroke:black; stroke-linecap:round; stroke-width:0.25;"/>
<line x1="1117.600000" y1="100.000000" x2="1125.600000" y2="100.000000"  style="stroke:black; stroke-linecap:round; stroke-width:0.25;"/>
<line x1="1117.600000" y1="204.000000" x2="1125.600000" y2="204.000000"  style="stroke:black; stroke-linecap:round; stroke-width:0.25;"/>
<line x1="1117.600000" y1="232.200000" x2="1117.600000" y2="204.000000"  style="stroke:black; stroke-linecap:round; stroke-width:0.25;"/>
<line x1="1125.600000" y1="64.040000" x2="1125.600000" y2="92.000000"  style="stroke:black; stroke-linecap:round; stroke-width:0.25;"/>
<line x1="1125.600000" y1="92.000000" x2="1125.600000" y2="92.000000"  style="stroke:black; stroke-linecap:round; stroke-width:0.25;"/>
<line x1="1125.600000" y1="92.000000" x2="1129.600000" y2="92.000000"  style="stroke:black; stroke-linecap:round; stroke-width:0.25;"/>
<line x1="1125.600000" y1="100.000000" x2="1129.600000" y2="100.000000"  style="stroke:black; stroke-linecap:round; stroke-width:0.25;"/>
<line x1="1125.600000" y1="108.000000" x2="1129.600000" y2="108.000000"  style="stroke:black; stroke-linecap:round; stroke-width:0.25;"/>
<line x1="1125.600000" y1="116.000000" x2="1129.600000" y2="116.000000"  style="stroke:black; stroke-linecap:round; stroke-width:0.25;"/>
<line x1="1125.600000" y1="124.000000" x2="1129.600000" y2="124.000000"  style="stroke:black; stroke-linecap:round; stroke-width:0.25;"/>
<line x1="1125.600000" y1="132.000000" x2="1129.600000" y2="132.000000"  style="stroke:black; stroke-linecap:round; stroke-width:0.25;"/>
<line x1="1125.600000" y1="140.000000" x2="1129.600000" y2="140.000000"  style="stroke:black; stroke-linecap:round; stroke-width:0.25;"/>
<line x1="1125.600000" y1="148.000000" x2="1129.600000" y2="148.000000"  style="stroke:black; stroke-linecap:round; stroke-width:0.25;"/>
<line x1="1125.600000" y1="156.000000" x2="1129.600000" y2="156.000000"  style="stroke:black; stroke-linecap:round; stroke-width:0.25;"/>
<line x1="1125.600000" y1="164.000000" x2="1129.600000" y2="164.000000"  style="stroke:black; stroke-linecap:round; stroke-width:0.25;"/>
<line x1="1125.600000" y1="172.000000" x2="1129.600000" y2="172.000000"  style="stroke:black; stroke-linecap:round; stroke-width:0.25;"/>
<line x1="1125.600000" y1="180.000000" x2="1129.600000" y2="180.000000"  style="stroke:black; stroke-linecap:round; stroke-width:0.25;"/>
<line x1="1125.600000" y1="188.000000" x2="1129.600000" y2="188.000000"  style="stroke:black; stroke-linecap:round; stroke-width:0.25;"/>
<line x1="1125.600000" y1="196.000000" x2="1129.600000" y2="196.000000"  style="stroke:black; stroke-linecap:round; stroke-width:0.25;"/>
<line x1="1125.600000" y1="204.000000" x2="1129.600000" y2="204.000000"  style="stroke:black; stroke-linecap:round; stroke-width:0.25;"/>
<line x1="1194.100000" y1="136.000000" x2="1198.100000" y2="136.000000"  style="stroke:black; stroke-linecap:round; stroke-width:0.25;"/>
<line x1="1194.100000" y1="144.000000" x2="1198.100000" y2="144.000000"  style="stroke:black; stroke-linecap:round; stroke-width:0.25;"/>
<line x1="1194.100000" y1="152.000000" x2="1198.100000" y2="152.000000"  style="stroke:black; stroke-linecap:round; stroke-width:0.25;"/>
<line x1="1194.100000" y1="160.000000" x2="1198.100000" y2="160.000000"  style="stroke:black; stroke-linecap:round; stroke-width:0.25;"/>
<line x1="1198.100000" y1="31.880000" x2="801.650000" y2="31.880000"  style="stroke:black; stroke-linecap:round; stroke-width:0.25;"/>
<line x1="1198.100000" y1="39.880000" x2="801.650000" y2="39.880000"  style="stroke:black; stroke-linecap:round; stroke-width:0.25;"/>
<line x1="1198.100000" y1="39.880000" x2="1198.100000" y2="39.880000"  style="stroke:black; stroke-linecap:round; stroke-width:0.25;"/>
<line x1="1198.100000" y1="132.000000" x2="1198.100000" y2="39.880000"  style="stroke:black; stroke-linecap:round; stroke-width:0.25;"/>
<line x1="1198.100000" y1="136.000000" x2="1200.100000" y2="136.000000"  style="stroke:black; stroke-linecap:round; stroke-width:0.25;"/>
<line x1="1198.100000" y1="144.000000" x2="1208.100000" y2="144.000000"  style="stroke:black; stroke-linecap:round; stroke-width:0.25;"/>
<line x1="1198.100000" y1="152.000000" x2="1214.100000" y2="152.000000"  style="stroke:black; stroke-linecap:round; stroke-width:0.25;"/>
<line x1="1198.100000" y1="160.000000" x2="1214.100000" y2="160.000000"  style="stroke:black; stroke-linecap:round; stroke-width:0.25;"/>
<line x1="1206.100000" y1="31.880000" x2="1198.100000" y2="31.880000"  style="stroke:black; stroke-linecap:round; stroke-width:0.25;"/>
<line x1="1206.100000" y1="140.000000" x2="1206.100000" y2="31.880000"  style="stroke:black; stroke-linecap:round; stroke-width:0.25;"/>
<line x1="1214.100000" y1="152.000000" x2="1230.100000" y2="152.000000"  style="stroke:black; stroke-linecap:round; stroke-width:0.25;"/>
<line x1="1214.100000" y1="160.000000" x2="1238.100000" y2="160.000000"  style="stroke:black; stroke-linecap:round; stroke-width:0.25;"/>
<line x1="1230.100000" y1="136.080000" x2="1246.100000" y2="136.080000"  style="stroke:black; stroke-linecap:round; stroke-width:0.25;"/>
<line x1="1230.100000" y1="152.000000" x2="1230.100000" y2="136.080000"  style="stroke:black; stroke-linecap:round; stroke-width:0.25;"/>
<line x1="1238.100000" y1="144.080000" x2="1246.100000" y2="144.080000"  style="stroke:black; stroke-linecap:round; stroke-width:0.25;"/>
<line x1="1238.100000" y1="160.000000" x2="1238.100000" y2="144.080000"  style="stroke:black; stroke-linecap:round; stroke-width:0.25;"/>
<line x1="1246.100000" y1="136.000000" x2="1262.100000" y2="136.000000"  style="stroke:black; stroke-linecap:round; stroke-width:0.25;"/>
<line x1="1246.100000" y1="136.080000" x2="1246.100000" y2="136.000000"  style="stroke:black; stroke-linecap:round; stroke-width:0.25;"/>
<line x1="1246.100000" y1="136.080000" x2="1246.100000" y2="136.080000"  style="stroke:black; stroke-linecap:round; stroke-width:0.25;"/>
<line x1="1246.100000" y1="144.080000" x2="1254.100000" y2="144.080000"  style="stroke:black; stroke-linecap:round; stroke-width:0.25;"/>
<line x1="1254.100000" y1="144.000000" x2="1262.100000" y2="144.000000"  style="stroke:black; stroke-linecap:round; stroke-width:0.25;"/>
<line x1="1254.100000" y1="144.080000" x2="1254.100000" y2="144.000000"  style="stroke:black; stroke-linecap:round; stroke-width:0.25;"/>
<line x1="1262.100000" y1="136.000000" x2="1266.100000" y2="136.000000"  style="stroke:black; stroke-linecap:round; stroke-width:0.25;"/>
<line x1="1262.100000" y1="144.000000" x2="1266.100000" y2="144.000000"  style="stroke:black; stroke-linecap:round; stroke-width:0.25;"/>
<line x1="1330.600000" y1="120.000000" x2="1334.600000" y2="120.000000"  style="stroke:black; stroke-linecap:round; stroke-width:0.25;"/>
<line x1="1330.600000" y1="128.000000" x2="1334.600000" y2="128.000000"  style="stroke:black; stroke-linecap:round; stroke-width:0.25;"/>
<line x1="1330.600000" y1="136.000000" x2="1334.600000" y2="136.000000"  style="stroke:black; stroke-linecap:round; stroke-width:0.25;"/>
<line x1="1330.600000" y1="144.000000" x2="1334.600000" y2="144.000000"  style="stroke:black; stroke-linecap:round; stroke-width:0.25;"/>
<line x1="1330.600000" y1="152.000000" x2="1334.600000" y2="152.000000"  style="stroke:black; stroke-linecap:round; stroke-width:0.25;"/>
<line x1="1330.600000" y1="160.000000" x2="1334.600000" y2="160.000000"  style="stroke:black; stroke-linecap:round; stroke-width:0.25;"/>
<line x1="1334.600000" y1="120.000000" x2="1334.600000" y2="120.000000"  style="stroke:black; stroke-linecap:round; stroke-width:0.25;"/>
<line x1="1334.600000" y1="128.000000" x2="1334.600000" y2="128.000000"  style="stroke:black; stroke-linecap:round; stroke-width:0.25;"/>
<line x1="1334.600000" y1="136.000000" x2="1334.600000" y2="136.000000"  style="stroke:black; stroke-linecap:round; stroke-width:0.25;"/>
<line x1="1334.600000" y1="144.000000" x2="1334.600000" y2="144.000000"  style="stroke:black; stroke-linecap:round; stroke-width:0.25;"/>
<line x1="1334.600000" y1="152.000000" x2="1334.600000" y2="152.000000"  style="stroke:black; stroke-linecap:round; stroke-width:0.25;"/>
<line x1="1334.600000" y1="160.000000" x2="1334.600000" y2="160.000000"  style="stroke:black; stroke-linecap:round; stroke-width:0.25;"/>
<line x1="1334.600000" y1="120.000000" x2="1338.600000" y2="120.000000"  style="stroke:black; stroke-linecap:round; stroke-width:0.25;"/>
<line x1="1334.600000" y1="128.000000" x2="1338.600000" y2="128.000000"  style="stroke:black; stroke-linecap:round; stroke-width:0.25;"/>
<line x1="1334.600000" y1="136.000000" x2="1338.600000" y2="136.000000"  style="stroke:black; stroke-linecap:round; stroke-width:0.25;"/>
<line x1="1334.600000" y1="144.000000" x2="1338.600000" y2="144.000000"  style="stroke:black; stroke-linecap:round; stroke-width:0.25;"/>
<line x1="1334.600000" y1="152.000000" x2="1338.600000" y2="152.000000"  style="stroke:black; stroke-linecap:round; stroke-width:0.25;"/>
<line x1="1334.600000" y1="160.000000" x2="1338.600000" y2="160.000000"  style="stroke:black; stroke-linecap:round; stroke-width:0.25;"/>
<line x1="1338.600000" y1="120.000000" x2="1342.600000" y2="120.000000"  style="stroke:black; stroke-linecap:round; stroke-width:0.25;"/>
<line x1="1338.600000" y1="128.000000" x2="1342.600000" y2="128.000000"  style="stroke:black; stroke-linecap:round; stroke-width:0.25;"/>
<line x1="1338.600000" y1="136.000000" x2="1342.600000" y2="136.000000"  style="stroke:black; stroke-linecap:round; stroke-width:0.25;"/>
<line x1="1338.600000" y1="144.000000" x2="1342.600000" y2="144.000000"  style="stroke:black; stroke-linecap:round; stroke-width:0.25;"/>
<line x1="1338.600000" y1="152.000000" x2="1342.600000" y2="152.000000"  style="stroke:black; stroke-linecap:round; stroke-width:0.25;"/>
<line x1="1338.600000" y1="160.000000" x2="1342.600000" y2="160.000000"  style="stroke:black; stroke-linecap:round; stroke-width:0.25;"/>
<line x1="1342.600000" y1="120.000000" x2="1352.600000" y2="120.000000"  style="stroke:black; stroke-linecap:round; stroke-width:0.25;"/>
<line x1="1342.600000" y1="128.000000" x2="1352.600000" y2="128.000000"  style="stroke:black; stroke-linecap:round; stroke-width:0.25;"/>
<line x1="1342.600000" y1="136.000000" x2="1352.600000" y2="136.000000"  style="stroke:black; stroke-linecap:round; stroke-width:0.25;"/>
<line x1="1342.600000" y1="144.000000" x2="1352.600000" y2="144.000000"  style="stroke:black; stroke-linecap:round; stroke-width:0.25;"/>
<line x1="1342.600000" y1="152.000000" x2="1352.600000" y2="152.000000"  style="stroke:black; stroke-linecap:round; stroke-width:0.25;"/>
<line x1="1342.600000" y1="160.000000" x2="1352.600000" y2="160.000000"  style="stroke:black; stroke-linecap:round; stroke-width:0.25;"/>
</svg>
