$ 1 0.000005 5.459815003314424 82 5 50 5e-11
w 2240 -352 2240 -288 0
w 2112 -288 2240 -288 0
w 2208 -352 2208 -320 0
w 2112 -320 2208 -320 0
w 2112 -352 2176 -352 0
157 2112 -480 2208 -480 0 7 0 0
w 1680 -384 1984 -384 0
w 1808 -416 1984 -416 0
w 1936 -448 1984 -448 0
197 1984 -480 2000 -480 0
w 1424 -288 1520 -288 0
M 1680 -384 1968 -384 2 2.5
M 1808 -416 1968 -416 2 2.5
M 1936 -448 1968 -448 2 2.5
w 1648 -320 1648 -384 0
w 1808 -320 1808 -416 0
w 1936 -320 1936 -448 0
R 1504 -208 1472 -208 0 0 40 5 0 0 0.5
w 1536 -208 1664 -208 0
w 1504 -256 1504 -208 0
w 1504 -256 1520 -256 0
w 1504 -320 1504 -256 0
w 1520 -320 1504 -320 0
w 1696 -208 1824 -208 0
w 1664 -256 1664 -208 0
w 1664 -256 1680 -256 0
w 1664 -320 1664 -256 0
w 1680 -320 1664 -320 0
w 1824 -320 1840 -320 0
w 1824 -256 1824 -320 0
w 1824 -256 1840 -256 0
w 1824 -208 1824 -256 0
w 1808 -288 1840 -288 0
w 1808 -320 1808 -288 0
w 1648 -288 1680 -288 0
w 1648 -320 1648 -288 0
156 1840 -320 1872 -320 2 0
156 1680 -320 1712 -320 2 0
156 1520 -320 1568 -320 2 0
w 1616 -320 1648 -320 0
w 1536 -208 1504 -208 0
w 1776 -320 1808 -320 0
w 1696 -208 1664 -208 0
w 1648 -384 1680 -384 0
150 1936 -640 2080 -640 0 2 0 5
w 1936 -448 1936 -624 0
w 1808 -416 1808 -656 0
w 1808 -656 1936 -656 0
w 2080 -640 2304 -640 0
w 2304 -640 2304 -128 0
w 2304 -128 1952 -128 0
w 1936 -288 1952 -288 0
w 1952 -288 1952 -128 0
w 1952 -128 1792 -128 0
w 1792 -128 1776 -128 0
w 1792 -288 1792 -128 0
w 1776 -128 1632 -128 0
w 1632 -288 1632 -128 0
w 1488 368 1488 528 0
w 1632 528 1488 528 0
w 1648 368 1648 528 0
w 1648 528 1632 528 0
w 1808 528 1648 528 0
w 1808 368 1808 528 0
w 1792 368 1808 368 0
w 1504 272 1536 272 0
w 1552 448 1520 448 0
w 1632 336 1664 336 0
w 1392 448 1360 448 0
w 1472 336 1504 336 0
156 1376 336 1424 336 2 0
156 1536 336 1568 336 2 5
156 1696 336 1728 336 2 5
w 1504 336 1504 368 0
w 1504 368 1536 368 0
w 1664 336 1664 368 0
w 1664 368 1696 368 0
w 1680 448 1680 400 0
w 1680 400 1696 400 0
w 1680 400 1680 336 0
w 1680 336 1696 336 0
w 1536 336 1520 336 0
w 1520 336 1520 400 0
w 1520 400 1536 400 0
w 1520 400 1520 448 0
w 1552 448 1680 448 0
w 1376 336 1360 336 0
w 1360 336 1360 400 0
w 1360 400 1376 400 0
w 1360 400 1360 448 0
w 1392 448 1520 448 0
R 1360 448 1328 448 0 0 40 5 0 0 0.5
w 1792 336 1792 208 0
w 1664 336 1664 240 0
w 1504 336 1504 272 0
M 1952 176 1984 176 2 2.5
s 1280 368 1280 400 0 1 true
w 1280 368 1376 368 0
197 2000 176 2016 176 0
w 1664 240 1840 240 0
w 1536 272 1840 272 0
157 2128 176 2224 176 0 7 0 0
w 2128 304 2192 304 0
w 2128 336 2224 336 0
w 2224 304 2224 336 0
w 2128 368 2256 368 0
w 2256 304 2256 368 0
156 1856 336 1888 336 2 0
w 1856 336 1840 336 0
w 1840 336 1840 400 0
w 1840 400 1856 400 0
w 1840 400 1840 448 0
w 1680 448 1840 448 0
w 1952 368 1984 368 0
w 1808 528 1984 528 0
w 1984 368 1984 528 0
w 1984 528 2240 528 0
w 2000 272 1840 272 0
w 2000 240 1840 240 0
w 2000 208 1840 208 0
w 1952 336 1952 176 0
w 1952 176 2000 176 0
w 1856 368 1824 368 0
w 1840 208 1824 208 0
w 1824 208 1824 368 0
w 1824 208 1792 208 0
M 1840 208 1984 208 2 2.5
M 1840 240 1984 240 2 2.5
M 1840 272 1984 272 2 2.5
150 1952 -16 2096 -16 0 2 0 5
w 1952 0 1952 176 0
w 1952 -32 1856 -32 0
w 1856 -32 1840 -32 0
w 2096 -16 2304 -16 0
w 2304 -16 2304 528 0
w 1840 -32 1664 -32 0
w 1664 -32 1664 240 0
w 2240 528 2304 528 0
w 1424 -288 1424 144 0
w 1424 144 1424 160 0
w 1424 176 1952 176 0
w 1424 160 1424 176 0
w 256 160 256 176 0
w 256 176 784 176 0
w 256 144 256 160 0
w 256 -288 256 144 0
w 1072 528 1136 528 0
w 496 -32 496 240 0
w 672 -32 496 -32 0
w 1136 -16 1136 528 0
w 928 -16 1136 -16 0
w 688 -32 672 -32 0
w 784 -32 688 -32 0
w 784 0 784 176 0
150 784 -16 928 -16 0 2 0 5
M 672 272 816 272 2 2.5
M 672 240 816 240 2 2.5
M 672 208 816 208 2 2.5
w 656 208 624 208 0
w 656 208 656 368 0
w 672 208 656 208 0
w 688 368 656 368 0
w 784 176 832 176 0
w 784 336 784 176 0
w 832 208 672 208 0
w 832 240 672 240 0
w 832 272 672 272 0
w 816 528 1072 528 0
w 816 368 816 528 0
w 640 528 816 528 0
w 784 368 816 368 0
w 512 448 672 448 0
w 672 400 672 448 0
w 672 400 688 400 0
w 672 336 672 400 0
w 688 336 672 336 0
156 688 336 720 336 2 0
w 1088 304 1088 368 0
w 960 368 1088 368 0
w 1056 304 1056 336 0
w 960 336 1056 336 0
w 960 304 1024 304 0
157 960 176 1056 176 0 7 0 0
w 368 272 672 272 0
w 496 240 672 240 0
197 832 176 848 176 0
w 112 368 208 368 0
M 784 176 816 176 2 2.5
w 336 336 336 272 0
w 496 336 496 240 0
w 624 336 624 208 0
R 192 448 160 448 0 0 40 5 0 0 0.5
w 224 448 352 448 0
w 192 400 192 448 0
w 192 400 208 400 0
w 192 336 192 400 0
w 208 336 192 336 0
w 384 448 512 448 0
w 352 400 352 448 0
w 352 400 368 400 0
w 352 336 352 400 0
w 368 336 352 336 0
w 512 336 528 336 0
w 512 400 512 336 0
w 512 400 528 400 0
w 512 448 512 400 0
w 496 368 528 368 0
w 496 336 496 368 0
w 336 368 368 368 0
w 336 336 336 368 0
156 528 336 560 336 2 0
156 368 336 400 336 2 0
156 208 336 256 336 2 5
w 304 336 336 336 0
w 224 448 192 448 0
w 464 336 496 336 0
w 384 448 352 448 0
w 336 272 368 272 0
w 624 368 640 368 0
w 640 368 640 528 0
w 640 528 480 528 0
w 480 528 464 528 0
w 480 368 480 528 0
w 464 528 320 528 0
w 320 368 320 528 0
w 464 -288 464 -128 0
w 608 -128 464 -128 0
w 624 -288 624 -128 0
w 624 -128 608 -128 0
w 784 -128 624 -128 0
w 784 -288 784 -128 0
w 768 -288 784 -288 0
w 1136 -128 784 -128 0
w 1136 -640 1136 -128 0
w 912 -640 1136 -640 0
w 640 -656 768 -656 0
w 640 -416 640 -656 0
w 768 -448 768 -624 0
150 768 -640 912 -640 0 2 0 5
w 480 -384 512 -384 0
w 528 -208 496 -208 0
w 608 -320 640 -320 0
w 368 -208 336 -208 0
w 448 -320 480 -320 0
156 352 -320 400 -320 2 0
156 512 -320 544 -320 2 0
156 672 -320 704 -320 2 0
w 480 -320 480 -288 0
w 480 -288 512 -288 0
w 640 -320 640 -288 0
w 640 -288 672 -288 0
w 656 -208 656 -256 0
w 656 -256 672 -256 0
w 656 -256 656 -320 0
w 656 -320 672 -320 0
w 512 -320 496 -320 0
w 496 -320 496 -256 0
w 496 -256 512 -256 0
w 496 -256 496 -208 0
w 528 -208 656 -208 0
w 352 -320 336 -320 0
w 336 -320 336 -256 0
w 336 -256 352 -256 0
w 336 -256 336 -208 0
w 368 -208 496 -208 0
R 336 -208 304 -208 0 0 40 5 0 0 0.5
w 768 -320 768 -448 0
w 640 -320 640 -416 0
w 480 -320 480 -384 0
M 768 -448 800 -448 2 2.5
M 640 -416 800 -416 2 2.5
M 512 -384 800 -384 2 2.5
w 256 -288 352 -288 0
197 816 -480 832 -480 0
w 768 -448 816 -448 0
w 640 -416 816 -416 0
w 512 -384 816 -384 0
157 944 -480 1040 -480 0 7 0 0
w 944 -352 1008 -352 0
w 944 -320 1040 -320 0
w 1040 -352 1040 -320 0
w 944 -288 1072 -288 0
w 1072 -352 1072 -288 0
w 1936 -624 1232 -624 0
w 1232 -720 160 -720 0
w 160 -720 96 -720 0
w 96 -720 96 368 0
w 112 368 96 368 0
w 1232 -720 1232 -624 0
R 1280 224 1200 224 1 2 200 2.5 2.5 0 0.5
w -144 -128 -144 -80 0
w -384 -128 -144 -128 0
w -144 -80 -128 320 0
w -208 0 -160 320 0
152 -144 320 -144 464 0 2 0 5
w -144 464 -208 464 0
w -208 0 -224 0 0
w -384 0 -224 0 0
w -736 -112 -736 144 0
w -720 -224 -896 -224 0
w -720 -352 -720 -224 0
w -736 -112 -560 -112 0
w -864 -16 -560 -16 0
w -864 176 -864 -16 0
w -576 16 -560 16 0
w -576 112 -576 16 0
150 -560 0 -384 0 0 2 0 5
w -208 464 -544 464 0
w -384 -224 -384 -128 0
w -400 -224 -384 -224 0
w -896 -224 -400 -224 0
w -752 -352 -720 -352 0
w -896 -352 -896 -224 0
w -608 -144 -560 -144 0
w -608 -480 -608 -144 0
w -720 -480 -608 -480 0
150 -560 -128 -384 -128 0 2 0 5
w -1104 96 -1104 -352 0
w -1200 -352 -1104 -352 0
w -1040 304 -1056 304 0
w -896 -352 -912 -352 0
w -880 304 -896 304 0
w -1104 96 -1104 112 0
w -1104 112 -576 112 0
M -688 208 -544 208 2 2.5
M -688 176 -544 176 2 2.5
M -688 144 -544 144 2 2.5
w -704 144 -736 144 0
w -704 144 -704 304 0
w -688 144 -704 144 0
w -672 304 -704 304 0
w -576 112 -528 112 0
w -576 272 -576 112 0
w -528 144 -688 144 0
w -528 176 -688 176 0
w -528 208 -688 208 0
w -544 304 -544 464 0
w -720 464 -544 464 0
w -576 304 -544 304 0
w -848 384 -688 384 0
w -688 336 -688 384 0
w -688 336 -672 336 0
w -688 272 -688 336 0
w -672 272 -688 272 0
156 -672 272 -640 272 2 0
w -272 240 -272 304 0
w -400 304 -272 304 0
w -304 240 -304 272 0
w -400 272 -304 272 0
w -400 240 -336 240 0
157 -400 112 -304 112 0 7 0 0
w -992 208 -688 208 0
w -864 176 -688 176 0
197 -528 112 -512 112 0
w -1248 304 -1152 304 0
M -576 112 -544 112 2 2.5
w -1024 272 -1024 208 0
w -864 272 -864 176 0
w -736 272 -736 144 0
R -1168 384 -1200 384 0 0 40 5 0 0 0.5
w -1136 384 -1008 384 0
w -1168 336 -1168 384 0
w -1168 336 -1152 336 0
w -1168 272 -1168 336 0
w -1152 272 -1168 272 0
w -976 384 -848 384 0
w -1008 336 -1008 384 0
w -1008 336 -992 336 0
w -1008 272 -1008 336 0
w -992 272 -1008 272 0
w -848 272 -832 272 0
w -848 336 -848 272 0
w -848 336 -832 336 0
w -848 384 -848 336 0
w -864 304 -832 304 0
w -864 272 -864 304 0
w -1024 304 -992 304 0
w -1024 272 -1024 304 0
156 -832 272 -800 272 2 0
156 -992 272 -960 272 2 0
156 -1152 272 -1104 272 2 5
w -1056 272 -1024 272 0
w -1136 384 -1168 384 0
w -896 272 -864 272 0
w -976 384 -1008 384 0
w -1024 208 -992 208 0
w -736 304 -720 304 0
w -720 304 -720 464 0
w -720 464 -880 464 0
w -880 464 -896 464 0
w -880 304 -880 464 0
w -896 464 -1040 464 0
w -1040 304 -1040 464 0
w -880 -448 -848 -448 0
w -752 -384 -720 -384 0
w -992 -272 -1024 -272 0
w -912 -384 -880 -384 0
156 -1008 -384 -960 -384 2 5
156 -848 -384 -816 -384 2 0
w -880 -384 -880 -352 0
w -880 -352 -848 -352 0
w -848 -384 -864 -384 0
w -864 -384 -864 -320 0
w -864 -320 -848 -320 0
w -864 -320 -864 -272 0
w -1008 -384 -1024 -384 0
w -1024 -384 -1024 -320 0
w -1024 -320 -1008 -320 0
w -1024 -320 -1024 -272 0
w -992 -272 -864 -272 0
R -1024 -272 -1056 -272 0 0 40 5 0 0 0.5
w -720 -384 -720 -480 0
w -880 -384 -880 -448 0
M -720 -480 -560 -480 2 2.5
M -848 -448 -560 -448 2 2.5
w -1104 -352 -1008 -352 0
197 -544 -544 -528 -544 0
w -720 -480 -544 -480 0
w -848 -448 -544 -448 0
157 -416 -544 -320 -544 0 7 0 0
w -416 -416 -352 -416 0
w -416 -384 -320 -384 0
w -320 -416 -320 -384 0
w -416 -352 -288 -352 0
w -288 -416 -288 -352 0
w -1248 304 -1264 304 0
w 768 -320 768 -848 0
w 768 -848 -1296 -832 0
w -1296 -832 -1296 -352 0
w -1200 -352 -1296 -352 0
w 1280 416 1280 448 0
w 1280 448 1360 448 0
w 1472 368 1488 368 0
w 1632 368 1648 368 0
w 1616 -288 1632 -288 0
w 1776 -288 1792 -288 0
w 304 368 320 368 0
w 464 368 480 368 0
w 448 -288 464 -288 0
w 608 -288 624 -288 0
s 112 368 112 400 0 1 true
w 192 448 112 448 0
w 112 448 112 400 0
s -1264 336 -1264 368 0 1 true
w -1168 384 -1264 384 0
w -1264 304 -1264 336 0
w -1264 368 -1264 384 0
s 1280 224 1280 368 0 0 false
