<?xml version="1.0"?>
<svg xmlns="http://www.w3.org/2000/svg" xmlns:xlink="http://www.w3.org/1999/xlink" viewBox="0 0 975.660000 208.240000" width="487.830000mm" height="104.120000mm" version="1.1">
<rect x="1.000000" y="1.000000" width="974.660000" height="207.240000" rx="0" ry="0" style="stroke:none;fill:#cccccc;"/>
<rect x="0.000000" y="0.000000" width="974.660000" height="207.240000" rx="0" ry="0" style="stroke:none;fill:#ffffff;"/>
<text x="10.000000" y="7.000000" font-family="Arial" font-size="7"></text>
<a xlink:href="signal-0x7f0f9483e430.svg">
<rect x="33.000000" y="65.120000" width="103.200000" height="80.000000" rx="0" ry="0" style="stroke:none;fill:#cccccc;"/>
<rect x="32.000000" y="64.120000" width="103.200000" height="80.000000" rx="0" ry="0" style="stroke:none;fill:#003366;"/>
</a>
<a xlink:href="signal-0x7f0f9483e430.svg">
<text x="83.600000" y="106.120000" font-family="Arial" font-size="7" text-anchor="middle" fill="#FFFFFF">signal_flow_1a(40)(1000)</text>
</a>
<circle cx="34.000000" cy="66.120000" r="1"/>
<line x1="29.000000" y1="91.120000" x2="32.000000" y2="92.120000"  transform="rotate(0.000000,32.000000,92.120000)" style="stroke: black; stroke-width:0.25;"/>
<line x1="29.000000" y1="93.120000" x2="32.000000" y2="92.120000"  transform="rotate(0.000000,32.000000,92.120000)" style="stroke: black; stroke-width:0.25;"/>
<line x1="29.000000" y1="99.120000" x2="32.000000" y2="100.120000"  transform="rotate(0.000000,32.000000,100.120000)" style="stroke: black; stroke-width:0.25;"/>
<line x1="29.000000" y1="101.120000" x2="32.000000" y2="100.120000"  transform="rotate(0.000000,32.000000,100.120000)" style="stroke: black; stroke-width:0.25;"/>
<line x1="29.000000" y1="107.120000" x2="32.000000" y2="108.120000"  transform="rotate(0.000000,32.000000,108.120000)" style="stroke: black; stroke-width:0.25;"/>
<line x1="29.000000" y1="109.120000" x2="32.000000" y2="108.120000"  transform="rotate(0.000000,32.000000,108.120000)" style="stroke: black; stroke-width:0.25;"/>
<line x1="29.000000" y1="115.120000" x2="32.000000" y2="116.120000"  transform="rotate(0.000000,32.000000,116.120000)" style="stroke: black; stroke-width:0.25;"/>
<line x1="29.000000" y1="117.120000" x2="32.000000" y2="116.120000"  transform="rotate(0.000000,32.000000,116.120000)" style="stroke: black; stroke-width:0.25;"/>
<rect x="368.260000" y="28.800000" width="24.000000" height="24.000000" rx="0" ry="0" style="stroke:none;fill:#cccccc;"/>
<rect x="367.260000" y="27.800000" width="24.000000" height="24.000000" rx="0" ry="0" style="stroke:none;fill:#f44800;"/>
<text x="379.260000" y="41.800000" font-family="Arial" font-size="7" text-anchor="middle" fill="#FFFFFF">23</text>
<circle cx="369.260000" cy="29.800000" r="1"/>
<rect x="368.260000" y="60.800000" width="24.000000" height="24.000000" rx="0" ry="0" style="stroke:none;fill:#cccccc;"/>
<rect x="367.260000" y="59.800000" width="24.000000" height="24.000000" rx="0" ry="0" style="stroke:none;fill:#f44800;"/>
<text x="379.260000" y="73.800000" font-family="Arial" font-size="7" text-anchor="middle" fill="#FFFFFF">42</text>
<circle cx="369.260000" cy="61.800000" r="1"/>
<a xlink:href="signal-0x7f0f94a4b730.svg">
<rect x="464.260000" y="53.000000" width="103.200000" height="64.000000" rx="0" ry="0" style="stroke:none;fill:#cccccc;"/>
<rect x="463.260000" y="52.000000" width="103.200000" height="64.000000" rx="0" ry="0" style="stroke:none;fill:#003366;"/>
</a>
<a xlink:href="signal-0x7f0f94a4b730.svg">
<text x="514.860000" y="86.000000" font-family="Arial" font-size="7" text-anchor="middle" fill="#FFFFFF">signal_flow_1b(40)(1000)</text>
</a>
<circle cx="465.260000" cy="54.000000" r="1"/>
<line x1="460.260000" y1="63.000000" x2="463.260000" y2="64.000000"  transform="rotate(0.000000,463.260000,64.000000)" style="stroke: black; stroke-width:0.25;"/>
<line x1="460.260000" y1="65.000000" x2="463.260000" y2="64.000000"  transform="rotate(0.000000,463.260000,64.000000)" style="stroke: black; stroke-width:0.25;"/>
<line x1="460.260000" y1="71.000000" x2="463.260000" y2="72.000000"  transform="rotate(0.000000,463.260000,72.000000)" style="stroke: black; stroke-width:0.25;"/>
<line x1="460.260000" y1="73.000000" x2="463.260000" y2="72.000000"  transform="rotate(0.000000,463.260000,72.000000)" style="stroke: black; stroke-width:0.25;"/>
<line x1="460.260000" y1="79.000000" x2="463.260000" y2="80.000000"  transform="rotate(0.000000,463.260000,80.000000)" style="stroke: black; stroke-width:0.25;"/>
<line x1="460.260000" y1="81.000000" x2="463.260000" y2="80.000000"  transform="rotate(0.000000,463.260000,80.000000)" style="stroke: black; stroke-width:0.25;"/>
<line x1="460.260000" y1="87.000000" x2="463.260000" y2="88.000000"  transform="rotate(0.000000,463.260000,88.000000)" style="stroke: black; stroke-width:0.25;"/>
<line x1="460.260000" y1="89.000000" x2="463.260000" y2="88.000000"  transform="rotate(0.000000,463.260000,88.000000)" style="stroke: black; stroke-width:0.25;"/>
<line x1="460.260000" y1="95.000000" x2="463.260000" y2="96.000000"  transform="rotate(0.000000,463.260000,96.000000)" style="stroke: black; stroke-width:0.25;"/>
<line x1="460.260000" y1="97.000000" x2="463.260000" y2="96.000000"  transform="rotate(0.000000,463.260000,96.000000)" style="stroke: black; stroke-width:0.25;"/>
<line x1="460.260000" y1="103.000000" x2="463.260000" y2="104.000000"  transform="rotate(0.000000,463.260000,104.000000)" style="stroke: black; stroke-width:0.25;"/>
<line x1="460.260000" y1="105.000000" x2="463.260000" y2="104.000000"  transform="rotate(0.000000,463.260000,104.000000)" style="stroke: black; stroke-width:0.25;"/>
<a xlink:href="signal-0x7f0f9524ddd0.svg">
<rect x="785.460000" y="65.320000" width="103.200000" height="104.000000" rx="0" ry="0" style="stroke:none;fill:#cccccc;"/>
<rect x="784.460000" y="64.320000" width="103.200000" height="104.000000" rx="0" ry="0" style="stroke:none;fill:#003366;"/>
</a>
<a xlink:href="signal-0x7f0f9524ddd0.svg">
<text x="836.060000" y="118.320000" font-family="Arial" font-size="7" text-anchor="middle" fill="#FFFFFF">signal_flow_2a(40)(1000)</text>
</a>
<circle cx="786.460000" cy="66.320000" r="1"/>
<line x1="781.460000" y1="67.320000" x2="784.460000" y2="68.320000"  transform="rotate(0.000000,784.460000,68.320000)" style="stroke: black; stroke-width:0.25;"/>
<line x1="781.460000" y1="69.320000" x2="784.460000" y2="68.320000"  transform="rotate(0.000000,784.460000,68.320000)" style="stroke: black; stroke-width:0.25;"/>
<line x1="781.460000" y1="75.320000" x2="784.460000" y2="76.320000"  transform="rotate(0.000000,784.460000,76.320000)" style="stroke: black; stroke-width:0.25;"/>
<line x1="781.460000" y1="77.320000" x2="784.460000" y2="76.320000"  transform="rotate(0.000000,784.460000,76.320000)" style="stroke: black; stroke-width:0.25;"/>
<line x1="781.460000" y1="83.320000" x2="784.460000" y2="84.320000"  transform="rotate(0.000000,784.460000,84.320000)" style="stroke: black; stroke-width:0.25;"/>
<line x1="781.460000" y1="85.320000" x2="784.460000" y2="84.320000"  transform="rotate(0.000000,784.460000,84.320000)" style="stroke: black; stroke-width:0.25;"/>
<line x1="781.460000" y1="91.320000" x2="784.460000" y2="92.320000"  transform="rotate(0.000000,784.460000,92.320000)" style="stroke: black; stroke-width:0.25;"/>
<line x1="781.460000" y1="93.320000" x2="784.460000" y2="92.320000"  transform="rotate(0.000000,784.460000,92.320000)" style="stroke: black; stroke-width:0.25;"/>
<line x1="781.460000" y1="99.320000" x2="784.460000" y2="100.320000"  transform="rotate(0.000000,784.460000,100.320000)" style="stroke: black; stroke-width:0.25;"/>
<line x1="781.460000" y1="101.320000" x2="784.460000" y2="100.320000"  transform="rotate(0.000000,784.460000,100.320000)" style="stroke: black; stroke-width:0.25;"/>
<line x1="781.460000" y1="107.320000" x2="784.460000" y2="108.320000"  transform="rotate(0.000000,784.460000,108.320000)" style="stroke: black; stroke-width:0.25;"/>
<line x1="781.460000" y1="109.320000" x2="784.460000" y2="108.320000"  transform="rotate(0.000000,784.460000,108.320000)" style="stroke: black; stroke-width:0.25;"/>
<line x1="781.460000" y1="115.320000" x2="784.460000" y2="116.320000"  transform="rotate(0.000000,784.460000,116.320000)" style="stroke: black; stroke-width:0.25;"/>
<line x1="781.460000" y1="117.320000" x2="784.460000" y2="116.320000"  transform="rotate(0.000000,784.460000,116.320000)" style="stroke: black; stroke-width:0.25;"/>
<line x1="781.460000" y1="123.320000" x2="784.460000" y2="124.320000"  transform="rotate(0.000000,784.460000,124.320000)" style="stroke: black; stroke-width:0.25;"/>
<line x1="781.460000" y1="125.320000" x2="784.460000" y2="124.320000"  transform="rotate(0.000000,784.460000,124.320000)" style="stroke: black; stroke-width:0.25;"/>
<line x1="781.460000" y1="131.320000" x2="784.460000" y2="132.320000"  transform="rotate(0.000000,784.460000,132.320000)" style="stroke: black; stroke-width:0.25;"/>
<line x1="781.460000" y1="133.320000" x2="784.460000" y2="132.320000"  transform="rotate(0.000000,784.460000,132.320000)" style="stroke: black; stroke-width:0.25;"/>
<line x1="781.460000" y1="139.320000" x2="784.460000" y2="140.320000"  transform="rotate(0.000000,784.460000,140.320000)" style="stroke: black; stroke-width:0.25;"/>
<line x1="781.460000" y1="141.320000" x2="784.460000" y2="140.320000"  transform="rotate(0.000000,784.460000,140.320000)" style="stroke: black; stroke-width:0.25;"/>
<line x1="781.460000" y1="147.320000" x2="784.460000" y2="148.320000"  transform="rotate(0.000000,784.460000,148.320000)" style="stroke: black; stroke-width:0.25;"/>
<line x1="781.460000" y1="149.320000" x2="784.460000" y2="148.320000"  transform="rotate(0.000000,784.460000,148.320000)" style="stroke: black; stroke-width:0.25;"/>
<line x1="781.460000" y1="155.320000" x2="784.460000" y2="156.320000"  transform="rotate(0.000000,784.460000,156.320000)" style="stroke: black; stroke-width:0.25;"/>
<line x1="781.460000" y1="157.320000" x2="784.460000" y2="156.320000"  transform="rotate(0.000000,784.460000,156.320000)" style="stroke: black; stroke-width:0.25;"/>
<line x1="781.460000" y1="163.320000" x2="784.460000" y2="164.320000"  transform="rotate(0.000000,784.460000,164.320000)" style="stroke: black; stroke-width:0.25;"/>
<line x1="781.460000" y1="165.320000" x2="784.460000" y2="164.320000"  transform="rotate(0.000000,784.460000,164.320000)" style="stroke: black; stroke-width:0.25;"/>
<line x1="15.000000" y1="15.000000" x2="15.000000" y2="193.240000"  style="stroke: black; stroke-linecap:round; stroke-width:0.25; stroke-dasharray:3,3;"/>
<line x1="15.000000" y1="193.240000" x2="960.660000" y2="193.240000"  style="stroke: black; stroke-linecap:round; stroke-width:0.25; stroke-dasharray:3,3;"/>
<line x1="960.660000" y1="193.240000" x2="960.660000" y2="15.000000"  style="stroke: black; stroke-linecap:round; stroke-width:0.25; stroke-dasharray:3,3;"/>
<line x1="15.000000" y1="15.000000" x2="20.000000" y2="15.000000"  style="stroke: black; stroke-linecap:round; stroke-width:0.25; stroke-dasharray:3,3;"/>
<line x1="49.025000" y1="15.000000" x2="960.660000" y2="15.000000"  style="stroke: black; stroke-linecap:round; stroke-width:0.25; stroke-dasharray:3,3;"/>
<text x="20.000000" y="17.000000" font-family="Arial" font-size="7">process</text>
<line x1="962.660000" y1="67.120000" x2="965.660000" y2="68.120000"  transform="rotate(0.000000,965.660000,68.120000)" style="stroke: black; stroke-width:0.25;"/>
<line x1="962.660000" y1="69.120000" x2="965.660000" y2="68.120000"  transform="rotate(0.000000,965.660000,68.120000)" style="stroke: black; stroke-width:0.25;"/>
<line x1="962.660000" y1="75.120000" x2="965.660000" y2="76.120000"  transform="rotate(0.000000,965.660000,76.120000)" style="stroke: black; stroke-width:0.25;"/>
<line x1="962.660000" y1="77.120000" x2="965.660000" y2="76.120000"  transform="rotate(0.000000,965.660000,76.120000)" style="stroke: black; stroke-width:0.25;"/>
<line x1="962.660000" y1="83.120000" x2="965.660000" y2="84.120000"  transform="rotate(0.000000,965.660000,84.120000)" style="stroke: black; stroke-width:0.25;"/>
<line x1="962.660000" y1="85.120000" x2="965.660000" y2="84.120000"  transform="rotate(0.000000,965.660000,84.120000)" style="stroke: black; stroke-width:0.25;"/>
<line x1="962.660000" y1="91.120000" x2="965.660000" y2="92.120000"  transform="rotate(0.000000,965.660000,92.120000)" style="stroke: black; stroke-width:0.25;"/>
<line x1="962.660000" y1="93.120000" x2="965.660000" y2="92.120000"  transform="rotate(0.000000,965.660000,92.120000)" style="stroke: black; stroke-width:0.25;"/>
<line x1="962.660000" y1="99.120000" x2="965.660000" y2="100.120000"  transform="rotate(0.000000,965.660000,100.120000)" style="stroke: black; stroke-width:0.25;"/>
<line x1="962.660000" y1="101.120000" x2="965.660000" y2="100.120000"  transform="rotate(0.000000,965.660000,100.120000)" style="stroke: black; stroke-width:0.25;"/>
<line x1="962.660000" y1="107.120000" x2="965.660000" y2="108.120000"  transform="rotate(0.000000,965.660000,108.120000)" style="stroke: black; stroke-width:0.25;"/>
<line x1="962.660000" y1="109.120000" x2="965.660000" y2="108.120000"  transform="rotate(0.000000,965.660000,108.120000)" style="stroke: black; stroke-width:0.25;"/>
<line x1="962.660000" y1="115.120000" x2="965.660000" y2="116.120000"  transform="rotate(0.000000,965.660000,116.120000)" style="stroke: black; stroke-width:0.25;"/>
<line x1="962.660000" y1="117.120000" x2="965.660000" y2="116.120000"  transform="rotate(0.000000,965.660000,116.120000)" style="stroke: black; stroke-width:0.25;"/>
<line x1="962.660000" y1="123.120000" x2="965.660000" y2="124.120000"  transform="rotate(0.000000,965.660000,124.120000)" style="stroke: black; stroke-width:0.25;"/>
<line x1="962.660000" y1="125.120000" x2="965.660000" y2="124.120000"  transform="rotate(0.000000,965.660000,124.120000)" style="stroke: black; stroke-width:0.25;"/>
<line x1="962.660000" y1="131.120000" x2="965.660000" y2="132.120000"  transform="rotate(0.000000,965.660000,132.120000)" style="stroke: black; stroke-width:0.25;"/>
<line x1="962.660000" y1="133.120000" x2="965.660000" y2="132.120000"  transform="rotate(0.000000,965.660000,132.120000)" style="stroke: black; stroke-width:0.25;"/>
<line x1="962.660000" y1="139.120000" x2="965.660000" y2="140.120000"  transform="rotate(0.000000,965.660000,140.120000)" style="stroke: black; stroke-width:0.25;"/>
<line x1="962.660000" y1="141.120000" x2="965.660000" y2="140.120000"  transform="rotate(0.000000,965.660000,140.120000)" style="stroke: black; stroke-width:0.25;"/>
<line x1="10.000000" y1="92.120000" x2="20.000000" y2="92.120000"  style="stroke:black; stroke-linecap:round; stroke-width:0.25;"/>
<line x1="10.000000" y1="100.120000" x2="20.000000" y2="100.120000"  style="stroke:black; stroke-linecap:round; stroke-width:0.25;"/>
<line x1="10.000000" y1="108.120000" x2="20.000000" y2="108.120000"  style="stroke:black; stroke-linecap:round; stroke-width:0.25;"/>
<line x1="10.000000" y1="116.120000" x2="20.000000" y2="116.120000"  style="stroke:black; stroke-linecap:round; stroke-width:0.25;"/>
<line x1="20.000000" y1="92.120000" x2="24.000000" y2="92.120000"  style="stroke:black; stroke-linecap:round; stroke-width:0.25;"/>
<line x1="20.000000" y1="100.120000" x2="24.000000" y2="100.120000"  style="stroke:black; stroke-linecap:round; stroke-width:0.25;"/>
<line x1="20.000000" y1="108.120000" x2="24.000000" y2="108.120000"  style="stroke:black; stroke-linecap:round; stroke-width:0.25;"/>
<line x1="20.000000" y1="116.120000" x2="24.000000" y2="116.120000"  style="stroke:black; stroke-linecap:round; stroke-width:0.25;"/>
<line x1="24.000000" y1="92.120000" x2="28.000000" y2="92.120000"  style="stroke:black; stroke-linecap:round; stroke-width:0.25;"/>
<line x1="24.000000" y1="100.120000" x2="28.000000" y2="100.120000"  style="stroke:black; stroke-linecap:round; stroke-width:0.25;"/>
<line x1="24.000000" y1="108.120000" x2="28.000000" y2="108.120000"  style="stroke:black; stroke-linecap:round; stroke-width:0.25;"/>
<line x1="24.000000" y1="116.120000" x2="28.000000" y2="116.120000"  style="stroke:black; stroke-linecap:round; stroke-width:0.25;"/>
<line x1="28.000000" y1="92.120000" x2="28.000000" y2="92.120000"  style="stroke:black; stroke-linecap:round; stroke-width:0.25;"/>
<line x1="28.000000" y1="92.120000" x2="32.000000" y2="92.120000"  style="stroke:black; stroke-linecap:round; stroke-width:0.25;"/>
<line x1="28.000000" y1="100.120000" x2="28.000000" y2="100.120000"  style="stroke:black; stroke-linecap:round; stroke-width:0.25;"/>
<line x1="28.000000" y1="100.120000" x2="32.000000" y2="100.120000"  style="stroke:black; stroke-linecap:round; stroke-width:0.25;"/>
<line x1="28.000000" y1="108.120000" x2="28.000000" y2="108.120000"  style="stroke:black; stroke-linecap:round; stroke-width:0.25;"/>
<line x1="28.000000" y1="108.120000" x2="32.000000" y2="108.120000"  style="stroke:black; stroke-linecap:round; stroke-width:0.25;"/>
<line x1="28.000000" y1="116.120000" x2="28.000000" y2="116.120000"  style="stroke:black; stroke-linecap:round; stroke-width:0.25;"/>
<line x1="28.000000" y1="116.120000" x2="32.000000" y2="116.120000"  style="stroke:black; stroke-linecap:round; stroke-width:0.25;"/>
<line x1="135.200000" y1="68.120000" x2="139.200000" y2="68.120000"  style="stroke:black; stroke-linecap:round; stroke-width:0.25;"/>
<line x1="135.200000" y1="76.120000" x2="139.200000" y2="76.120000"  style="stroke:black; stroke-linecap:round; stroke-width:0.25;"/>
<line x1="135.200000" y1="84.120000" x2="139.200000" y2="84.120000"  style="stroke:black; stroke-linecap:round; stroke-width:0.25;"/>
<line x1="135.200000" y1="92.120000" x2="139.200000" y2="92.120000"  style="stroke:black; stroke-linecap:round; stroke-width:0.25;"/>
<line x1="135.200000" y1="100.120000" x2="139.200000" y2="100.120000"  style="stroke:black; stroke-linecap:round; stroke-width:0.25;"/>
<line x1="135.200000" y1="108.120000" x2="139.200000" y2="108.120000"  style="stroke:black; stroke-linecap:round; stroke-width:0.25;"/>
<line x1="135.200000" y1="140.120000" x2="139.200000" y2="140.120000"  style="stroke:black; stroke-linecap:round; stroke-width:0.25;"/>
<line x1="139.200000" y1="68.120000" x2="203.260000" y2="28.120000"  style="stroke:black; stroke-linecap:round; stroke-width:0.25;"/>
<line x1="139.200000" y1="68.120000" x2="203.260000" y2="108.120000"  style="stroke:black; stroke-linecap:round; stroke-width:0.25;"/>
<line x1="139.200000" y1="76.120000" x2="203.260000" y2="36.120000"  style="stroke:black; stroke-linecap:round; stroke-width:0.25;"/>
<line x1="139.200000" y1="76.120000" x2="203.260000" y2="116.120000"  style="stroke:black; stroke-linecap:round; stroke-width:0.25;"/>
<line x1="139.200000" y1="84.120000" x2="203.260000" y2="124.120000"  style="stroke:black; stroke-linecap:round; stroke-width:0.25;"/>
<line x1="139.200000" y1="92.120000" x2="203.260000" y2="132.120000"  style="stroke:black; stroke-linecap:round; stroke-width:0.25;"/>
<line x1="139.200000" y1="100.120000" x2="203.260000" y2="140.120000"  style="stroke:black; stroke-linecap:round; stroke-width:0.25;"/>
<line x1="139.200000" y1="108.120000" x2="203.260000" y2="68.120000"  style="stroke:black; stroke-linecap:round; stroke-width:0.25;"/>
<line x1="139.200000" y1="140.120000" x2="203.260000" y2="100.120000"  style="stroke:black; stroke-linecap:round; stroke-width:0.25;"/>
<line x1="203.260000" y1="28.120000" x2="363.260000" y2="28.120000"  style="stroke:black; stroke-linecap:round; stroke-width:0.25;"/>
<line x1="203.260000" y1="36.120000" x2="355.260000" y2="36.120000"  style="stroke:black; stroke-linecap:round; stroke-width:0.25;"/>
<line x1="203.260000" y1="68.120000" x2="323.260000" y2="68.120000"  style="stroke:black; stroke-linecap:round; stroke-width:0.25;"/>
<line x1="203.260000" y1="100.120000" x2="291.260000" y2="100.120000"  style="stroke:black; stroke-linecap:round; stroke-width:0.25;"/>
<line x1="203.260000" y1="108.120000" x2="283.260000" y2="108.120000"  style="stroke:black; stroke-linecap:round; stroke-width:0.25;"/>
<line x1="203.260000" y1="116.120000" x2="275.260000" y2="116.120000"  style="stroke:black; stroke-linecap:round; stroke-width:0.25;"/>
<line x1="203.260000" y1="124.120000" x2="267.260000" y2="124.120000"  style="stroke:black; stroke-linecap:round; stroke-width:0.25;"/>
<line x1="203.260000" y1="132.120000" x2="259.260000" y2="132.120000"  style="stroke:black; stroke-linecap:round; stroke-width:0.25;"/>
<line x1="203.260000" y1="140.120000" x2="251.260000" y2="140.120000"  style="stroke:black; stroke-linecap:round; stroke-width:0.25;"/>
<line x1="251.260000" y1="140.120000" x2="251.260000" y2="156.280000"  style="stroke:black; stroke-linecap:round; stroke-width:0.25;"/>
<line x1="251.260000" y1="156.280000" x2="363.260000" y2="156.280000"  style="stroke:black; stroke-linecap:round; stroke-width:0.25;"/>
<line x1="259.260000" y1="132.120000" x2="259.260000" y2="148.280000"  style="stroke:black; stroke-linecap:round; stroke-width:0.25;"/>
<line x1="259.260000" y1="148.280000" x2="363.260000" y2="148.280000"  style="stroke:black; stroke-linecap:round; stroke-width:0.25;"/>
<line x1="267.260000" y1="124.120000" x2="267.260000" y2="140.280000"  style="stroke:black; stroke-linecap:round; stroke-width:0.25;"/>
<line x1="267.260000" y1="140.280000" x2="363.260000" y2="140.280000"  style="stroke:black; stroke-linecap:round; stroke-width:0.25;"/>
<line x1="275.260000" y1="116.120000" x2="275.260000" y2="132.280000"  style="stroke:black; stroke-linecap:round; stroke-width:0.25;"/>
<line x1="275.260000" y1="132.280000" x2="363.260000" y2="132.280000"  style="stroke:black; stroke-linecap:round; stroke-width:0.25;"/>
<line x1="283.260000" y1="108.120000" x2="283.260000" y2="124.280000"  style="stroke:black; stroke-linecap:round; stroke-width:0.25;"/>
<line x1="283.260000" y1="124.280000" x2="363.260000" y2="124.280000"  style="stroke:black; stroke-linecap:round; stroke-width:0.25;"/>
<line x1="291.260000" y1="100.120000" x2="291.260000" y2="116.280000"  style="stroke:black; stroke-linecap:round; stroke-width:0.25;"/>
<line x1="291.260000" y1="116.280000" x2="363.260000" y2="116.280000"  style="stroke:black; stroke-linecap:round; stroke-width:0.25;"/>
<line x1="323.260000" y1="68.120000" x2="323.260000" y2="108.040000"  style="stroke:black; stroke-linecap:round; stroke-width:0.25;"/>
<line x1="323.260000" y1="108.040000" x2="363.260000" y2="108.040000"  style="stroke:black; stroke-linecap:round; stroke-width:0.25;"/>
<line x1="355.260000" y1="36.120000" x2="355.260000" y2="99.800000"  style="stroke:black; stroke-linecap:round; stroke-width:0.25;"/>
<line x1="355.260000" y1="99.800000" x2="363.260000" y2="99.800000"  style="stroke:black; stroke-linecap:round; stroke-width:0.25;"/>
<line x1="363.260000" y1="28.120000" x2="363.260000" y2="91.800000"  style="stroke:black; stroke-linecap:round; stroke-width:0.25;"/>
<line x1="363.260000" y1="91.800000" x2="363.260000" y2="91.800000"  style="stroke:black; stroke-linecap:round; stroke-width:0.25;"/>
<line x1="363.260000" y1="91.800000" x2="379.260000" y2="91.800000"  style="stroke:black; stroke-linecap:round; stroke-width:0.25;"/>
<line x1="363.260000" y1="99.800000" x2="379.260000" y2="99.800000"  style="stroke:black; stroke-linecap:round; stroke-width:0.25;"/>
<line x1="363.260000" y1="108.040000" x2="379.260000" y2="108.040000"  style="stroke:black; stroke-linecap:round; stroke-width:0.25;"/>
<line x1="363.260000" y1="116.280000" x2="379.260000" y2="116.280000"  style="stroke:black; stroke-linecap:round; stroke-width:0.25;"/>
<line x1="363.260000" y1="124.280000" x2="379.260000" y2="124.280000"  style="stroke:black; stroke-linecap:round; stroke-width:0.25;"/>
<line x1="363.260000" y1="132.280000" x2="379.260000" y2="132.280000"  style="stroke:black; stroke-linecap:round; stroke-width:0.25;"/>
<line x1="363.260000" y1="140.280000" x2="379.260000" y2="140.280000"  style="stroke:black; stroke-linecap:round; stroke-width:0.25;"/>
<line x1="363.260000" y1="148.280000" x2="379.260000" y2="148.280000"  style="stroke:black; stroke-linecap:round; stroke-width:0.25;"/>
<line x1="363.260000" y1="156.280000" x2="379.260000" y2="156.280000"  style="stroke:black; stroke-linecap:round; stroke-width:0.25;"/>
<line x1="379.260000" y1="91.800000" x2="395.260000" y2="91.800000"  style="stroke:black; stroke-linecap:round; stroke-width:0.25;"/>
<line x1="379.260000" y1="99.800000" x2="395.260000" y2="99.800000"  style="stroke:black; stroke-linecap:round; stroke-width:0.25;"/>
<line x1="379.260000" y1="108.040000" x2="395.260000" y2="108.040000"  style="stroke:black; stroke-linecap:round; stroke-width:0.25;"/>
<line x1="379.260000" y1="116.280000" x2="395.260000" y2="116.280000"  style="stroke:black; stroke-linecap:round; stroke-width:0.25;"/>
<line x1="379.260000" y1="124.280000" x2="395.260000" y2="124.280000"  style="stroke:black; stroke-linecap:round; stroke-width:0.25;"/>
<line x1="379.260000" y1="132.280000" x2="395.260000" y2="132.280000"  style="stroke:black; stroke-linecap:round; stroke-width:0.25;"/>
<line x1="379.260000" y1="140.280000" x2="395.260000" y2="140.280000"  style="stroke:black; stroke-linecap:round; stroke-width:0.25;"/>
<line x1="379.260000" y1="148.280000" x2="395.260000" y2="148.280000"  style="stroke:black; stroke-linecap:round; stroke-width:0.25;"/>
<line x1="379.260000" y1="156.280000" x2="395.260000" y2="156.280000"  style="stroke:black; stroke-linecap:round; stroke-width:0.25;"/>
<line x1="391.260000" y1="39.800000" x2="395.260000" y2="39.800000"  style="stroke:black; stroke-linecap:round; stroke-width:0.25;"/>
<line x1="391.260000" y1="71.800000" x2="395.260000" y2="71.800000"  style="stroke:black; stroke-linecap:round; stroke-width:0.25;"/>
<line x1="395.260000" y1="39.800000" x2="459.260000" y2="39.800000"  style="stroke:black; stroke-linecap:round; stroke-width:0.25;"/>
<line x1="395.260000" y1="71.800000" x2="451.260000" y2="71.800000"  style="stroke:black; stroke-linecap:round; stroke-width:0.25;"/>
<line x1="395.260000" y1="80.000000" x2="459.260000" y2="80.000000"  style="stroke:black; stroke-linecap:round; stroke-width:0.25;"/>
<line x1="395.260000" y1="91.800000" x2="395.260000" y2="80.000000"  style="stroke:black; stroke-linecap:round; stroke-width:0.25;"/>
<line x1="395.260000" y1="91.800000" x2="395.260000" y2="91.800000"  style="stroke:black; stroke-linecap:round; stroke-width:0.25;"/>
<line x1="395.260000" y1="99.800000" x2="403.260000" y2="99.800000"  style="stroke:black; stroke-linecap:round; stroke-width:0.25;"/>
<line x1="395.260000" y1="108.040000" x2="411.260000" y2="108.040000"  style="stroke:black; stroke-linecap:round; stroke-width:0.25;"/>
<line x1="395.260000" y1="116.280000" x2="419.260000" y2="116.280000"  style="stroke:black; stroke-linecap:round; stroke-width:0.25;"/>
<line x1="395.260000" y1="124.280000" x2="459.260000" y2="124.280000"  style="stroke:black; stroke-linecap:round; stroke-width:0.25;"/>
<line x1="395.260000" y1="132.280000" x2="451.260000" y2="132.280000"  style="stroke:black; stroke-linecap:round; stroke-width:0.25;"/>
<line x1="395.260000" y1="140.280000" x2="443.260000" y2="140.280000"  style="stroke:black; stroke-linecap:round; stroke-width:0.25;"/>
<line x1="395.260000" y1="148.280000" x2="435.260000" y2="148.280000"  style="stroke:black; stroke-linecap:round; stroke-width:0.25;"/>
<line x1="395.260000" y1="156.280000" x2="427.260000" y2="156.280000"  style="stroke:black; stroke-linecap:round; stroke-width:0.25;"/>
<line x1="403.260000" y1="88.000000" x2="459.260000" y2="88.000000"  style="stroke:black; stroke-linecap:round; stroke-width:0.25;"/>
<line x1="403.260000" y1="99.800000" x2="403.260000" y2="88.000000"  style="stroke:black; stroke-linecap:round; stroke-width:0.25;"/>
<line x1="411.260000" y1="96.000000" x2="459.260000" y2="96.000000"  style="stroke:black; stroke-linecap:round; stroke-width:0.25;"/>
<line x1="411.260000" y1="108.040000" x2="411.260000" y2="96.000000"  style="stroke:black; stroke-linecap:round; stroke-width:0.25;"/>
<line x1="419.260000" y1="104.000000" x2="459.260000" y2="104.000000"  style="stroke:black; stroke-linecap:round; stroke-width:0.25;"/>
<line x1="419.260000" y1="116.280000" x2="419.260000" y2="104.000000"  style="stroke:black; stroke-linecap:round; stroke-width:0.25;"/>
<line x1="427.260000" y1="156.280000" x2="427.260000" y2="184.000000"  style="stroke:black; stroke-linecap:round; stroke-width:0.25;"/>
<line x1="427.260000" y1="184.000000" x2="459.260000" y2="184.000000"  style="stroke:black; stroke-linecap:round; stroke-width:0.25;"/>
<line x1="435.260000" y1="148.280000" x2="435.260000" y2="176.000000"  style="stroke:black; stroke-linecap:round; stroke-width:0.25;"/>
<line x1="435.260000" y1="176.000000" x2="459.260000" y2="176.000000"  style="stroke:black; stroke-linecap:round; stroke-width:0.25;"/>
<line x1="443.260000" y1="140.280000" x2="443.260000" y2="168.000000"  style="stroke:black; stroke-linecap:round; stroke-width:0.25;"/>
<line x1="443.260000" y1="168.000000" x2="459.260000" y2="168.000000"  style="stroke:black; stroke-linecap:round; stroke-width:0.25;"/>
<line x1="451.260000" y1="71.800000" x2="451.260000" y2="72.000000"  style="stroke:black; stroke-linecap:round; stroke-width:0.25;"/>
<line x1="451.260000" y1="72.000000" x2="459.260000" y2="72.000000"  style="stroke:black; stroke-linecap:round; stroke-width:0.25;"/>
<line x1="451.260000" y1="132.280000" x2="451.260000" y2="160.000000"  style="stroke:black; stroke-linecap:round; stroke-width:0.25;"/>
<line x1="451.260000" y1="160.000000" x2="459.260000" y2="160.000000"  style="stroke:black; stroke-linecap:round; stroke-width:0.25;"/>
<line x1="459.260000" y1="39.800000" x2="459.260000" y2="64.000000"  style="stroke:black; stroke-linecap:round; stroke-width:0.25;"/>
<line x1="459.260000" y1="64.000000" x2="459.260000" y2="64.000000"  style="stroke:black; stroke-linecap:round; stroke-width:0.25;"/>
<line x1="459.260000" y1="64.000000" x2="463.260000" y2="64.000000"  style="stroke:black; stroke-linecap:round; stroke-width:0.25;"/>
<line x1="459.260000" y1="72.000000" x2="463.260000" y2="72.000000"  style="stroke:black; stroke-linecap:round; stroke-width:0.25;"/>
<line x1="459.260000" y1="80.000000" x2="463.260000" y2="80.000000"  style="stroke:black; stroke-linecap:round; stroke-width:0.25;"/>
<line x1="459.260000" y1="88.000000" x2="463.260000" y2="88.000000"  style="stroke:black; stroke-linecap:round; stroke-width:0.25;"/>
<line x1="459.260000" y1="96.000000" x2="463.260000" y2="96.000000"  style="stroke:black; stroke-linecap:round; stroke-width:0.25;"/>
<line x1="459.260000" y1="104.000000" x2="463.260000" y2="104.000000"  style="stroke:black; stroke-linecap:round; stroke-width:0.25;"/>
<line x1="459.260000" y1="124.280000" x2="459.260000" y2="152.000000"  style="stroke:black; stroke-linecap:round; stroke-width:0.25;"/>
<line x1="459.260000" y1="152.000000" x2="459.260000" y2="152.000000"  style="stroke:black; stroke-linecap:round; stroke-width:0.25;"/>
<line x1="459.260000" y1="152.000000" x2="543.860000" y2="152.000000"  style="stroke:black; stroke-linecap:round; stroke-width:0.25;"/>
<line x1="459.260000" y1="160.000000" x2="543.860000" y2="160.000000"  style="stroke:black; stroke-linecap:round; stroke-width:0.25;"/>
<line x1="459.260000" y1="168.000000" x2="543.860000" y2="168.000000"  style="stroke:black; stroke-linecap:round; stroke-width:0.25;"/>
<line x1="459.260000" y1="176.000000" x2="543.860000" y2="176.000000"  style="stroke:black; stroke-linecap:round; stroke-width:0.25;"/>
<line x1="459.260000" y1="184.000000" x2="543.860000" y2="184.000000"  style="stroke:black; stroke-linecap:round; stroke-width:0.25;"/>
<line x1="543.860000" y1="152.000000" x2="628.460000" y2="152.000000"  style="stroke:black; stroke-linecap:round; stroke-width:0.25;"/>
<line x1="543.860000" y1="160.000000" x2="628.460000" y2="160.000000"  style="stroke:black; stroke-linecap:round; stroke-width:0.25;"/>
<line x1="543.860000" y1="168.000000" x2="628.460000" y2="168.000000"  style="stroke:black; stroke-linecap:round; stroke-width:0.25;"/>
<line x1="543.860000" y1="176.000000" x2="628.460000" y2="176.000000"  style="stroke:black; stroke-linecap:round; stroke-width:0.25;"/>
<line x1="543.860000" y1="184.000000" x2="628.460000" y2="184.000000"  style="stroke:black; stroke-linecap:round; stroke-width:0.25;"/>
<line x1="566.460000" y1="56.000000" x2="570.460000" y2="56.000000"  style="stroke:black; stroke-linecap:round; stroke-width:0.25;"/>
<line x1="566.460000" y1="64.000000" x2="570.460000" y2="64.000000"  style="stroke:black; stroke-linecap:round; stroke-width:0.25;"/>
<line x1="566.460000" y1="72.000000" x2="570.460000" y2="72.000000"  style="stroke:black; stroke-linecap:round; stroke-width:0.25;"/>
<line x1="566.460000" y1="80.000000" x2="570.460000" y2="80.000000"  style="stroke:black; stroke-linecap:round; stroke-width:0.25;"/>
<line x1="566.460000" y1="88.000000" x2="570.460000" y2="88.000000"  style="stroke:black; stroke-linecap:round; stroke-width:0.25;"/>
<line x1="566.460000" y1="96.000000" x2="570.460000" y2="96.000000"  style="stroke:black; stroke-linecap:round; stroke-width:0.25;"/>
<line x1="566.460000" y1="104.000000" x2="570.460000" y2="104.000000"  style="stroke:black; stroke-linecap:round; stroke-width:0.25;"/>
<line x1="566.460000" y1="112.000000" x2="570.460000" y2="112.000000"  style="stroke:black; stroke-linecap:round; stroke-width:0.25;"/>
<line x1="570.460000" y1="56.000000" x2="620.460000" y2="88.000000"  style="stroke:black; stroke-linecap:round; stroke-width:0.25;"/>
<line x1="570.460000" y1="64.000000" x2="620.460000" y2="96.000000"  style="stroke:black; stroke-linecap:round; stroke-width:0.25;"/>
<line x1="570.460000" y1="72.000000" x2="620.460000" y2="104.000000"  style="stroke:black; stroke-linecap:round; stroke-width:0.25;"/>
<line x1="570.460000" y1="80.000000" x2="620.460000" y2="48.000000"  style="stroke:black; stroke-linecap:round; stroke-width:0.25;"/>
<line x1="570.460000" y1="80.000000" x2="620.460000" y2="112.000000"  style="stroke:black; stroke-linecap:round; stroke-width:0.25;"/>
<line x1="570.460000" y1="88.000000" x2="620.460000" y2="56.000000"  style="stroke:black; stroke-linecap:round; stroke-width:0.25;"/>
<line x1="570.460000" y1="88.000000" x2="620.460000" y2="120.000000"  style="stroke:black; stroke-linecap:round; stroke-width:0.25;"/>
<line x1="570.460000" y1="96.000000" x2="620.460000" y2="128.000000"  style="stroke:black; stroke-linecap:round; stroke-width:0.25;"/>
<line x1="570.460000" y1="104.000000" x2="620.460000" y2="136.000000"  style="stroke:black; stroke-linecap:round; stroke-width:0.25;"/>
<line x1="570.460000" y1="112.000000" x2="620.460000" y2="80.000000"  style="stroke:black; stroke-linecap:round; stroke-width:0.25;"/>
<line x1="570.460000" y1="112.000000" x2="620.460000" y2="144.000000"  style="stroke:black; stroke-linecap:round; stroke-width:0.25;"/>
<line x1="620.460000" y1="48.000000" x2="624.460000" y2="48.000000"  style="stroke:black; stroke-linecap:round; stroke-width:0.25;"/>
<line x1="620.460000" y1="56.000000" x2="624.460000" y2="56.000000"  style="stroke:black; stroke-linecap:round; stroke-width:0.25;"/>
<line x1="620.460000" y1="80.000000" x2="624.460000" y2="80.000000"  style="stroke:black; stroke-linecap:round; stroke-width:0.25;"/>
<line x1="620.460000" y1="88.000000" x2="624.460000" y2="88.000000"  style="stroke:black; stroke-linecap:round; stroke-width:0.25;"/>
<line x1="620.460000" y1="96.000000" x2="624.460000" y2="96.000000"  style="stroke:black; stroke-linecap:round; stroke-width:0.25;"/>
<line x1="620.460000" y1="104.000000" x2="624.460000" y2="104.000000"  style="stroke:black; stroke-linecap:round; stroke-width:0.25;"/>
<line x1="620.460000" y1="112.000000" x2="624.460000" y2="112.000000"  style="stroke:black; stroke-linecap:round; stroke-width:0.25;"/>
<line x1="620.460000" y1="120.000000" x2="624.460000" y2="120.000000"  style="stroke:black; stroke-linecap:round; stroke-width:0.25;"/>
<line x1="620.460000" y1="128.000000" x2="624.460000" y2="128.000000"  style="stroke:black; stroke-linecap:round; stroke-width:0.25;"/>
<line x1="620.460000" y1="136.000000" x2="624.460000" y2="136.000000"  style="stroke:black; stroke-linecap:round; stroke-width:0.25;"/>
<line x1="620.460000" y1="144.000000" x2="624.460000" y2="144.000000"  style="stroke:black; stroke-linecap:round; stroke-width:0.25;"/>
<line x1="624.460000" y1="48.000000" x2="628.460000" y2="48.000000"  style="stroke:black; stroke-linecap:round; stroke-width:0.25;"/>
<line x1="624.460000" y1="56.000000" x2="628.460000" y2="56.000000"  style="stroke:black; stroke-linecap:round; stroke-width:0.25;"/>
<line x1="624.460000" y1="80.000000" x2="628.460000" y2="80.000000"  style="stroke:black; stroke-linecap:round; stroke-width:0.25;"/>
<line x1="624.460000" y1="88.000000" x2="628.460000" y2="88.000000"  style="stroke:black; stroke-linecap:round; stroke-width:0.25;"/>
<line x1="624.460000" y1="96.000000" x2="628.460000" y2="96.000000"  style="stroke:black; stroke-linecap:round; stroke-width:0.25;"/>
<line x1="624.460000" y1="104.000000" x2="628.460000" y2="104.000000"  style="stroke:black; stroke-linecap:round; stroke-width:0.25;"/>
<line x1="624.460000" y1="112.000000" x2="628.460000" y2="112.000000"  style="stroke:black; stroke-linecap:round; stroke-width:0.25;"/>
<line x1="624.460000" y1="120.000000" x2="628.460000" y2="120.000000"  style="stroke:black; stroke-linecap:round; stroke-width:0.25;"/>
<line x1="624.460000" y1="128.000000" x2="628.460000" y2="128.000000"  style="stroke:black; stroke-linecap:round; stroke-width:0.25;"/>
<line x1="624.460000" y1="136.000000" x2="628.460000" y2="136.000000"  style="stroke:black; stroke-linecap:round; stroke-width:0.25;"/>
<line x1="624.460000" y1="144.000000" x2="628.460000" y2="144.000000"  style="stroke:black; stroke-linecap:round; stroke-width:0.25;"/>
<line x1="628.460000" y1="48.000000" x2="636.460000" y2="48.000000"  style="stroke:black; stroke-linecap:round; stroke-width:0.25;"/>
<line x1="628.460000" y1="56.000000" x2="644.460000" y2="56.000000"  style="stroke:black; stroke-linecap:round; stroke-width:0.25;"/>
<line x1="628.460000" y1="80.000000" x2="668.460000" y2="80.000000"  style="stroke:black; stroke-linecap:round; stroke-width:0.25;"/>
<line x1="628.460000" y1="88.000000" x2="676.460000" y2="88.000000"  style="stroke:black; stroke-linecap:round; stroke-width:0.25;"/>
<line x1="628.460000" y1="96.000000" x2="684.460000" y2="96.000000"  style="stroke:black; stroke-linecap:round; stroke-width:0.25;"/>
<line x1="628.460000" y1="104.000000" x2="692.460000" y2="104.000000"  style="stroke:black; stroke-linecap:round; stroke-width:0.25;"/>
<line x1="628.460000" y1="112.000000" x2="700.460000" y2="112.000000"  style="stroke:black; stroke-linecap:round; stroke-width:0.25;"/>
<line x1="628.460000" y1="120.000000" x2="708.460000" y2="120.000000"  style="stroke:black; stroke-linecap:round; stroke-width:0.25;"/>
<line x1="628.460000" y1="128.000000" x2="716.460000" y2="128.000000"  style="stroke:black; stroke-linecap:round; stroke-width:0.25;"/>
<line x1="628.460000" y1="136.000000" x2="724.460000" y2="136.000000"  style="stroke:black; stroke-linecap:round; stroke-width:0.25;"/>
<line x1="628.460000" y1="144.000000" x2="732.460000" y2="144.000000"  style="stroke:black; stroke-linecap:round; stroke-width:0.25;"/>
<line x1="628.460000" y1="152.000000" x2="740.460000" y2="152.000000"  style="stroke:black; stroke-linecap:round; stroke-width:0.25;"/>
<line x1="628.460000" y1="160.000000" x2="748.460000" y2="160.000000"  style="stroke:black; stroke-linecap:round; stroke-width:0.25;"/>
<line x1="628.460000" y1="168.000000" x2="756.460000" y2="168.000000"  style="stroke:black; stroke-linecap:round; stroke-width:0.25;"/>
<line x1="628.460000" y1="176.000000" x2="764.460000" y2="176.000000"  style="stroke:black; stroke-linecap:round; stroke-width:0.25;"/>
<line x1="628.460000" y1="184.000000" x2="772.460000" y2="184.000000"  style="stroke:black; stroke-linecap:round; stroke-width:0.25;"/>
<line x1="636.460000" y1="40.160000" x2="780.460000" y2="40.160000"  style="stroke:black; stroke-linecap:round; stroke-width:0.25;"/>
<line x1="636.460000" y1="48.000000" x2="636.460000" y2="40.160000"  style="stroke:black; stroke-linecap:round; stroke-width:0.25;"/>
<line x1="644.460000" y1="48.160000" x2="780.460000" y2="48.160000"  style="stroke:black; stroke-linecap:round; stroke-width:0.25;"/>
<line x1="644.460000" y1="56.000000" x2="644.460000" y2="48.160000"  style="stroke:black; stroke-linecap:round; stroke-width:0.25;"/>
<line x1="668.460000" y1="56.320000" x2="780.460000" y2="56.320000"  style="stroke:black; stroke-linecap:round; stroke-width:0.25;"/>
<line x1="668.460000" y1="80.000000" x2="668.460000" y2="56.320000"  style="stroke:black; stroke-linecap:round; stroke-width:0.25;"/>
<line x1="676.460000" y1="68.320000" x2="780.460000" y2="68.320000"  style="stroke:black; stroke-linecap:round; stroke-width:0.25;"/>
<line x1="676.460000" y1="88.000000" x2="676.460000" y2="68.320000"  style="stroke:black; stroke-linecap:round; stroke-width:0.25;"/>
<line x1="684.460000" y1="76.320000" x2="780.460000" y2="76.320000"  style="stroke:black; stroke-linecap:round; stroke-width:0.25;"/>
<line x1="684.460000" y1="96.000000" x2="684.460000" y2="76.320000"  style="stroke:black; stroke-linecap:round; stroke-width:0.25;"/>
<line x1="692.460000" y1="84.320000" x2="780.460000" y2="84.320000"  style="stroke:black; stroke-linecap:round; stroke-width:0.25;"/>
<line x1="692.460000" y1="104.000000" x2="692.460000" y2="84.320000"  style="stroke:black; stroke-linecap:round; stroke-width:0.25;"/>
<line x1="700.460000" y1="92.320000" x2="780.460000" y2="92.320000"  style="stroke:black; stroke-linecap:round; stroke-width:0.25;"/>
<line x1="700.460000" y1="112.000000" x2="700.460000" y2="92.320000"  style="stroke:black; stroke-linecap:round; stroke-width:0.25;"/>
<line x1="708.460000" y1="100.320000" x2="780.460000" y2="100.320000"  style="stroke:black; stroke-linecap:round; stroke-width:0.25;"/>
<line x1="708.460000" y1="120.000000" x2="708.460000" y2="100.320000"  style="stroke:black; stroke-linecap:round; stroke-width:0.25;"/>
<line x1="716.460000" y1="108.320000" x2="780.460000" y2="108.320000"  style="stroke:black; stroke-linecap:round; stroke-width:0.25;"/>
<line x1="716.460000" y1="128.000000" x2="716.460000" y2="108.320000"  style="stroke:black; stroke-linecap:round; stroke-width:0.25;"/>
<line x1="724.460000" y1="116.320000" x2="780.460000" y2="116.320000"  style="stroke:black; stroke-linecap:round; stroke-width:0.25;"/>
<line x1="724.460000" y1="136.000000" x2="724.460000" y2="116.320000"  style="stroke:black; stroke-linecap:round; stroke-width:0.25;"/>
<line x1="732.460000" y1="124.320000" x2="780.460000" y2="124.320000"  style="stroke:black; stroke-linecap:round; stroke-width:0.25;"/>
<line x1="732.460000" y1="144.000000" x2="732.460000" y2="124.320000"  style="stroke:black; stroke-linecap:round; stroke-width:0.25;"/>
<line x1="740.460000" y1="132.320000" x2="780.460000" y2="132.320000"  style="stroke:black; stroke-linecap:round; stroke-width:0.25;"/>
<line x1="740.460000" y1="152.000000" x2="740.460000" y2="132.320000"  style="stroke:black; stroke-linecap:round; stroke-width:0.25;"/>
<line x1="748.460000" y1="140.320000" x2="780.460000" y2="140.320000"  style="stroke:black; stroke-linecap:round; stroke-width:0.25;"/>
<line x1="748.460000" y1="160.000000" x2="748.460000" y2="140.320000"  style="stroke:black; stroke-linecap:round; stroke-width:0.25;"/>
<line x1="756.460000" y1="148.320000" x2="780.460000" y2="148.320000"  style="stroke:black; stroke-linecap:round; stroke-width:0.25;"/>
<line x1="756.460000" y1="168.000000" x2="756.460000" y2="148.320000"  style="stroke:black; stroke-linecap:round; stroke-width:0.25;"/>
<line x1="764.460000" y1="156.320000" x2="780.460000" y2="156.320000"  style="stroke:black; stroke-linecap:round; stroke-width:0.25;"/>
<line x1="764.460000" y1="176.000000" x2="764.460000" y2="156.320000"  style="stroke:black; stroke-linecap:round; stroke-width:0.25;"/>
<line x1="772.460000" y1="164.320000" x2="780.460000" y2="164.320000"  style="stroke:black; stroke-linecap:round; stroke-width:0.25;"/>
<line x1="772.460000" y1="184.000000" x2="772.460000" y2="164.320000"  style="stroke:black; stroke-linecap:round; stroke-width:0.25;"/>
<line x1="780.460000" y1="40.160000" x2="836.060000" y2="40.160000"  style="stroke:black; stroke-linecap:round; stroke-width:0.25;"/>
<line x1="780.460000" y1="48.160000" x2="836.060000" y2="48.160000"  style="stroke:black; stroke-linecap:round; stroke-width:0.25;"/>
<line x1="780.460000" y1="56.320000" x2="836.060000" y2="56.320000"  style="stroke:black; stroke-linecap:round; stroke-width:0.25;"/>
<line x1="780.460000" y1="68.320000" x2="784.460000" y2="68.320000"  style="stroke:black; stroke-linecap:round; stroke-width:0.25;"/>
<line x1="780.460000" y1="76.320000" x2="784.460000" y2="76.320000"  style="stroke:black; stroke-linecap:round; stroke-width:0.25;"/>
<line x1="780.460000" y1="84.320000" x2="784.460000" y2="84.320000"  style="stroke:black; stroke-linecap:round; stroke-width:0.25;"/>
<line x1="780.460000" y1="92.320000" x2="784.460000" y2="92.320000"  style="stroke:black; stroke-linecap:round; stroke-width:0.25;"/>
<line x1="780.460000" y1="100.320000" x2="784.460000" y2="100.320000"  style="stroke:black; stroke-linecap:round; stroke-width:0.25;"/>
<line x1="780.460000" y1="108.320000" x2="784.460000" y2="108.320000"  style="stroke:black; stroke-linecap:round; stroke-width:0.25;"/>
<line x1="780.460000" y1="116.320000" x2="784.460000" y2="116.320000"  style="stroke:black; stroke-linecap:round; stroke-width:0.25;"/>
<line x1="780.460000" y1="124.320000" x2="784.460000" y2="124.320000"  style="stroke:black; stroke-linecap:round; stroke-width:0.25;"/>
<line x1="780.460000" y1="132.320000" x2="784.460000" y2="132.320000"  style="stroke:black; stroke-linecap:round; stroke-width:0.25;"/>
<line x1="780.460000" y1="140.320000" x2="784.460000" y2="140.320000"  style="stroke:black; stroke-linecap:round; stroke-width:0.25;"/>
<line x1="780.460000" y1="148.320000" x2="784.460000" y2="148.320000"  style="stroke:black; stroke-linecap:round; stroke-width:0.25;"/>
<line x1="780.460000" y1="156.320000" x2="784.460000" y2="156.320000"  style="stroke:black; stroke-linecap:round; stroke-width:0.25;"/>
<line x1="780.460000" y1="164.320000" x2="784.460000" y2="164.320000"  style="stroke:black; stroke-linecap:round; stroke-width:0.25;"/>
<line x1="836.060000" y1="40.160000" x2="891.660000" y2="40.160000"  style="stroke:black; stroke-linecap:round; stroke-width:0.25;"/>
<line x1="836.060000" y1="48.160000" x2="891.660000" y2="48.160000"  style="stroke:black; stroke-linecap:round; stroke-width:0.25;"/>
<line x1="836.060000" y1="56.320000" x2="891.660000" y2="56.320000"  style="stroke:black; stroke-linecap:round; stroke-width:0.25;"/>
<line x1="887.660000" y1="92.320000" x2="891.660000" y2="92.320000"  style="stroke:black; stroke-linecap:round; stroke-width:0.25;"/>
<line x1="887.660000" y1="100.320000" x2="891.660000" y2="100.320000"  style="stroke:black; stroke-linecap:round; stroke-width:0.25;"/>
<line x1="887.660000" y1="108.320000" x2="891.660000" y2="108.320000"  style="stroke:black; stroke-linecap:round; stroke-width:0.25;"/>
<line x1="887.660000" y1="116.320000" x2="891.660000" y2="116.320000"  style="stroke:black; stroke-linecap:round; stroke-width:0.25;"/>
<line x1="887.660000" y1="124.320000" x2="891.660000" y2="124.320000"  style="stroke:black; stroke-linecap:round; stroke-width:0.25;"/>
<line x1="887.660000" y1="132.320000" x2="891.660000" y2="132.320000"  style="stroke:black; stroke-linecap:round; stroke-width:0.25;"/>
<line x1="887.660000" y1="140.320000" x2="891.660000" y2="140.320000"  style="stroke:black; stroke-linecap:round; stroke-width:0.25;"/>
<line x1="891.660000" y1="40.160000" x2="947.660000" y2="40.160000"  style="stroke:black; stroke-linecap:round; stroke-width:0.25;"/>
<line x1="891.660000" y1="48.160000" x2="939.660000" y2="48.160000"  style="stroke:black; stroke-linecap:round; stroke-width:0.25;"/>
<line x1="891.660000" y1="56.320000" x2="931.660000" y2="56.320000"  style="stroke:black; stroke-linecap:round; stroke-width:0.25;"/>
<line x1="891.660000" y1="92.120000" x2="947.660000" y2="92.120000"  style="stroke:black; stroke-linecap:round; stroke-width:0.25;"/>
<line x1="891.660000" y1="92.320000" x2="891.660000" y2="92.120000"  style="stroke:black; stroke-linecap:round; stroke-width:0.25;"/>
<line x1="891.660000" y1="92.320000" x2="891.660000" y2="92.320000"  style="stroke:black; stroke-linecap:round; stroke-width:0.25;"/>
<line x1="891.660000" y1="100.320000" x2="899.660000" y2="100.320000"  style="stroke:black; stroke-linecap:round; stroke-width:0.25;"/>
<line x1="891.660000" y1="108.320000" x2="907.660000" y2="108.320000"  style="stroke:black; stroke-linecap:round; stroke-width:0.25;"/>
<line x1="891.660000" y1="116.320000" x2="915.660000" y2="116.320000"  style="stroke:black; stroke-linecap:round; stroke-width:0.25;"/>
<line x1="891.660000" y1="124.320000" x2="923.660000" y2="124.320000"  style="stroke:black; stroke-linecap:round; stroke-width:0.25;"/>
<line x1="891.660000" y1="132.320000" x2="931.660000" y2="132.320000"  style="stroke:black; stroke-linecap:round; stroke-width:0.25;"/>
<line x1="891.660000" y1="140.320000" x2="939.660000" y2="140.320000"  style="stroke:black; stroke-linecap:round; stroke-width:0.25;"/>
<line x1="899.660000" y1="100.120000" x2="947.660000" y2="100.120000"  style="stroke:black; stroke-linecap:round; stroke-width:0.25;"/>
<line x1="899.660000" y1="100.320000" x2="899.660000" y2="100.120000"  style="stroke:black; stroke-linecap:round; stroke-width:0.25;"/>
<line x1="907.660000" y1="108.120000" x2="947.660000" y2="108.120000"  style="stroke:black; stroke-linecap:round; stroke-width:0.25;"/>
<line x1="907.660000" y1="108.320000" x2="907.660000" y2="108.120000"  style="stroke:black; stroke-linecap:round; stroke-width:0.25;"/>
<line x1="915.660000" y1="116.120000" x2="947.660000" y2="116.120000"  style="stroke:black; stroke-linecap:round; stroke-width:0.25;"/>
<line x1="915.660000" y1="116.320000" x2="915.660000" y2="116.120000"  style="stroke:black; stroke-linecap:round; stroke-width:0.25;"/>
<line x1="923.660000" y1="124.120000" x2="947.660000" y2="124.120000"  style="stroke:black; stroke-linecap:round; stroke-width:0.25;"/>
<line x1="923.660000" y1="124.320000" x2="923.660000" y2="124.120000"  style="stroke:black; stroke-linecap:round; stroke-width:0.25;"/>
<line x1="931.660000" y1="56.320000" x2="931.660000" y2="84.120000"  style="stroke:black; stroke-linecap:round; stroke-width:0.25;"/>
<line x1="931.660000" y1="84.120000" x2="947.660000" y2="84.120000"  style="stroke:black; stroke-linecap:round; stroke-width:0.25;"/>
<line x1="931.660000" y1="132.120000" x2="947.660000" y2="132.120000"  style="stroke:black; stroke-linecap:round; stroke-width:0.25;"/>
<line x1="931.660000" y1="132.320000" x2="931.660000" y2="132.120000"  style="stroke:black; stroke-linecap:round; stroke-width:0.25;"/>
<line x1="939.660000" y1="48.160000" x2="939.660000" y2="76.120000"  style="stroke:black; stroke-linecap:round; stroke-width:0.25;"/>
<line x1="939.660000" y1="76.120000" x2="947.660000" y2="76.120000"  style="stroke:black; stroke-linecap:round; stroke-width:0.25;"/>
<line x1="939.660000" y1="140.120000" x2="947.660000" y2="140.120000"  style="stroke:black; stroke-linecap:round; stroke-width:0.25;"/>
<line x1="939.660000" y1="140.320000" x2="939.660000" y2="140.120000"  style="stroke:black; stroke-linecap:round; stroke-width:0.25;"/>
<line x1="947.660000" y1="68.120000" x2="951.660000" y2="68.120000"  style="stroke:black; stroke-linecap:round; stroke-width:0.25;"/>
<line x1="947.660000" y1="76.120000" x2="951.660000" y2="76.120000"  style="stroke:black; stroke-linecap:round; stroke-width:0.25;"/>
<line x1="947.660000" y1="84.120000" x2="951.660000" y2="84.120000"  style="stroke:black; stroke-linecap:round; stroke-width:0.25;"/>
<line x1="947.660000" y1="92.120000" x2="951.660000" y2="92.120000"  style="stroke:black; stroke-linecap:round; stroke-width:0.25;"/>
<line x1="947.660000" y1="100.120000" x2="951.660000" y2="100.120000"  style="stroke:black; stroke-linecap:round; stroke-width:0.25;"/>
<line x1="947.660000" y1="108.120000" x2="951.660000" y2="108.120000"  style="stroke:black; stroke-linecap:round; stroke-width:0.25;"/>
<line x1="947.660000" y1="116.120000" x2="951.660000" y2="116.120000"  style="stroke:black; stroke-linecap:round; stroke-width:0.25;"/>
<line x1="947.660000" y1="124.120000" x2="951.660000" y2="124.120000"  style="stroke:black; stroke-linecap:round; stroke-width:0.25;"/>
<line x1="947.660000" y1="132.120000" x2="951.660000" y2="132.120000"  style="stroke:black; stroke-linecap:round; stroke-width:0.25;"/>
<line x1="947.660000" y1="140.120000" x2="951.660000" y2="140.120000"  style="stroke:black; stroke-linecap:round; stroke-width:0.25;"/>
<line x1="947.660000" y1="40.160000" x2="947.660000" y2="68.120000"  style="stroke:black; stroke-linecap:round; stroke-width:0.25;"/>
<line x1="947.660000" y1="68.120000" x2="947.660000" y2="68.120000"  style="stroke:black; stroke-linecap:round; stroke-width:0.25;"/>
<line x1="951.660000" y1="68.120000" x2="955.660000" y2="68.120000"  style="stroke:black; stroke-linecap:round; stroke-width:0.25;"/>
<line x1="951.660000" y1="76.120000" x2="955.660000" y2="76.120000"  style="stroke:black; stroke-linecap:round; stroke-width:0.25;"/>
<line x1="951.660000" y1="84.120000" x2="955.660000" y2="84.120000"  style="stroke:black; stroke-linecap:round; stroke-width:0.25;"/>
<line x1="951.660000" y1="92.120000" x2="955.660000" y2="92.120000"  style="stroke:black; stroke-linecap:round; stroke-width:0.25;"/>
<line x1="951.660000" y1="100.120000" x2="955.660000" y2="100.120000"  style="stroke:black; stroke-linecap:round; stroke-width:0.25;"/>
<line x1="951.660000" y1="108.120000" x2="955.660000" y2="108.120000"  style="stroke:black; stroke-linecap:round; stroke-width:0.25;"/>
<line x1="951.660000" y1="116.120000" x2="955.660000" y2="116.120000"  style="stroke:black; stroke-linecap:round; stroke-width:0.25;"/>
<line x1="951.660000" y1="124.120000" x2="955.660000" y2="124.120000"  style="stroke:black; stroke-linecap:round; stroke-width:0.25;"/>
<line x1="951.660000" y1="132.120000" x2="955.660000" y2="132.120000"  style="stroke:black; stroke-linecap:round; stroke-width:0.25;"/>
<line x1="951.660000" y1="140.120000" x2="955.660000" y2="140.120000"  style="stroke:black; stroke-linecap:round; stroke-width:0.25;"/>
<line x1="955.660000" y1="68.120000" x2="965.660000" y2="68.120000"  style="stroke:black; stroke-linecap:round; stroke-width:0.25;"/>
<line x1="955.660000" y1="76.120000" x2="965.660000" y2="76.120000"  style="stroke:black; stroke-linecap:round; stroke-width:0.25;"/>
<line x1="955.660000" y1="84.120000" x2="965.660000" y2="84.120000"  style="stroke:black; stroke-linecap:round; stroke-width:0.25;"/>
<line x1="955.660000" y1="92.120000" x2="965.660000" y2="92.120000"  style="stroke:black; stroke-linecap:round; stroke-width:0.25;"/>
<line x1="955.660000" y1="100.120000" x2="965.660000" y2="100.120000"  style="stroke:black; stroke-linecap:round; stroke-width:0.25;"/>
<line x1="955.660000" y1="108.120000" x2="965.660000" y2="108.120000"  style="stroke:black; stroke-linecap:round; stroke-width:0.25;"/>
<line x1="955.660000" y1="116.120000" x2="965.660000" y2="116.120000"  style="stroke:black; stroke-linecap:round; stroke-width:0.25;"/>
<line x1="955.660000" y1="124.120000" x2="965.660000" y2="124.120000"  style="stroke:black; stroke-linecap:round; stroke-width:0.25;"/>
<line x1="955.660000" y1="132.120000" x2="965.660000" y2="132.120000"  style="stroke:black; stroke-linecap:round; stroke-width:0.25;"/>
<line x1="955.660000" y1="140.120000" x2="965.660000" y2="140.120000"  style="stroke:black; stroke-linecap:round; stroke-width:0.25;"/>
</svg>
