<?xml version="1.0"?>
<svg xmlns="http://www.w3.org/2000/svg" xmlns:xlink="http://www.w3.org/1999/xlink" viewBox="0 0 558.100000 196.000000" width="279.050000mm" height="98.000000mm" version="1.1">
<a xlink:href="lpcomb-0x7fa4d0960670.svg">
<rect x="1.000000" y="1.000000" width="557.100000" height="195.000000" rx="0" ry="0" style="stroke:none;fill:#cccccc;"/>
<rect x="0.000000" y="0.000000" width="557.100000" height="195.000000" rx="0" ry="0" style="stroke:none;fill:#ffffff;"/>
</a>
<text x="10.000000" y="7.000000" font-family="Arial" font-size="7"></text>
<rect x="45.000000" y="45.000000" width="335.400000" height="24.000000" rx="0" ry="0" style="stroke:none;fill:#cccccc;"/>
<rect x="44.000000" y="44.000000" width="335.400000" height="24.000000" rx="0" ry="0" style="stroke:none;fill:#477881;"/>
<text x="211.700000" y="58.000000" font-family="Arial" font-size="7" text-anchor="middle" fill="#FFFFFF">hslider(Reverb Tail, 0.40000000000000002f, 0.0f, 0.94999999999999996f, 0.01f)</text>
<circle cx="46.000000" cy="46.000000" r="1"/>
<a xlink:href="SR-0x7fa4ce742e10.svg">
<rect x="200.700000" y="77.000000" width="24.000000" height="24.000000" rx="0" ry="0" style="stroke:none;fill:#cccccc;"/>
<rect x="199.700000" y="76.000000" width="24.000000" height="24.000000" rx="0" ry="0" style="stroke:none;fill:#003366;"/>
</a>
<a xlink:href="SR-0x7fa4ce742e10.svg">
<text x="211.700000" y="90.000000" font-family="Arial" font-size="7" text-anchor="middle" fill="#FFFFFF">SR</text>
</a>
<circle cx="201.700000" cy="78.000000" r="1"/>
<rect x="396.400000" y="61.000000" width="24.000000" height="24.000000" rx="0" ry="0" style="stroke:none;fill:#cccccc;"/>
<rect x="395.400000" y="60.000000" width="24.000000" height="24.000000" rx="0" ry="0" style="stroke:none;fill:#4B71A1;"/>
<text x="407.400000" y="74.000000" font-family="Arial" font-size="7" text-anchor="middle" fill="#FFFFFF">*</text>
<circle cx="397.400000" cy="62.000000" r="1"/>
<line x1="392.400000" y1="67.000000" x2="395.400000" y2="68.000000"  transform="rotate(0.000000,395.400000,68.000000)" style="stroke: black; stroke-width:0.25;"/>
<line x1="392.400000" y1="69.000000" x2="395.400000" y2="68.000000"  transform="rotate(0.000000,395.400000,68.000000)" style="stroke: black; stroke-width:0.25;"/>
<line x1="392.400000" y1="75.000000" x2="395.400000" y2="76.000000"  transform="rotate(0.000000,395.400000,76.000000)" style="stroke: black; stroke-width:0.25;"/>
<line x1="392.400000" y1="77.000000" x2="395.400000" y2="76.000000"  transform="rotate(0.000000,395.400000,76.000000)" style="stroke: black; stroke-width:0.25;"/>
<rect x="219.800000" y="119.000000" width="25.800000" height="24.000000" rx="0" ry="0" style="stroke:none;fill:#cccccc;"/>
<rect x="218.800000" y="118.000000" width="25.800000" height="24.000000" rx="0" ry="0" style="stroke:none;fill:#f44800;"/>
<text x="231.700000" y="132.000000" font-family="Arial" font-size="7" text-anchor="middle" fill="#FFFFFF">44100</text>
<circle cx="220.800000" cy="120.000000" r="1"/>
<line x1="209.800000" y1="109.000000" x2="209.800000" y2="151.000000"  style="stroke: black; stroke-linecap:round; stroke-width:0.25; stroke-dasharray:3,3;"/>
<line x1="209.800000" y1="151.000000" x2="253.600000" y2="151.000000"  style="stroke: black; stroke-linecap:round; stroke-width:0.25; stroke-dasharray:3,3;"/>
<line x1="253.600000" y1="151.000000" x2="253.600000" y2="109.000000"  style="stroke: black; stroke-linecap:round; stroke-width:0.25; stroke-dasharray:3,3;"/>
<line x1="209.800000" y1="109.000000" x2="214.800000" y2="109.000000"  style="stroke: black; stroke-linecap:round; stroke-width:0.25; stroke-dasharray:3,3;"/>
<line x1="240.600000" y1="109.000000" x2="253.600000" y2="109.000000"  style="stroke: black; stroke-linecap:round; stroke-width:0.25; stroke-dasharray:3,3;"/>
<text x="214.800000" y="111.000000" font-family="Arial" font-size="7">origSR</text>
<rect x="436.400000" y="87.000000" width="24.000000" height="24.000000" rx="0" ry="0" style="stroke:none;fill:#cccccc;"/>
<rect x="435.400000" y="86.000000" width="24.000000" height="24.000000" rx="0" ry="0" style="stroke:none;fill:#4B71A1;"/>
<text x="447.400000" y="100.000000" font-family="Arial" font-size="7" text-anchor="middle" fill="#FFFFFF">/</text>
<circle cx="437.400000" cy="88.000000" r="1"/>
<line x1="432.400000" y1="93.000000" x2="435.400000" y2="94.000000"  transform="rotate(0.000000,435.400000,94.000000)" style="stroke: black; stroke-width:0.25;"/>
<line x1="432.400000" y1="95.000000" x2="435.400000" y2="94.000000"  transform="rotate(0.000000,435.400000,94.000000)" style="stroke: black; stroke-width:0.25;"/>
<line x1="432.400000" y1="101.000000" x2="435.400000" y2="102.000000"  transform="rotate(0.000000,435.400000,102.000000)" style="stroke: black; stroke-width:0.25;"/>
<line x1="432.400000" y1="103.000000" x2="435.400000" y2="102.000000"  transform="rotate(0.000000,435.400000,102.000000)" style="stroke: black; stroke-width:0.25;"/>
<a xlink:href="bsmooth-0x7fa4ce420c50.svg">
<rect x="468.400000" y="87.000000" width="38.700000" height="24.000000" rx="0" ry="0" style="stroke:none;fill:#cccccc;"/>
<rect x="467.400000" y="86.000000" width="38.700000" height="24.000000" rx="0" ry="0" style="stroke:none;fill:#003366;"/>
</a>
<a xlink:href="bsmooth-0x7fa4ce420c50.svg">
<text x="486.750000" y="100.000000" font-family="Arial" font-size="7" text-anchor="middle" fill="#FFFFFF">bsmooth</text>
</a>
<circle cx="469.400000" cy="88.000000" r="1"/>
<line x1="464.400000" y1="97.000000" x2="467.400000" y2="98.000000"  transform="rotate(0.000000,467.400000,98.000000)" style="stroke: black; stroke-width:0.25;"/>
<line x1="464.400000" y1="99.000000" x2="467.400000" y2="98.000000"  transform="rotate(0.000000,467.400000,98.000000)" style="stroke: black; stroke-width:0.25;"/>
<line x1="35.000000" y1="35.000000" x2="35.000000" y2="161.000000"  style="stroke: black; stroke-linecap:round; stroke-width:0.25; stroke-dasharray:3,3;"/>
<line x1="35.000000" y1="161.000000" x2="515.100000" y2="161.000000"  style="stroke: black; stroke-linecap:round; stroke-width:0.25; stroke-dasharray:3,3;"/>
<line x1="515.100000" y1="161.000000" x2="515.100000" y2="35.000000"  style="stroke: black; stroke-linecap:round; stroke-width:0.25; stroke-dasharray:3,3;"/>
<line x1="35.000000" y1="35.000000" x2="40.000000" y2="35.000000"  style="stroke: black; stroke-linecap:round; stroke-width:0.25; stroke-dasharray:3,3;"/>
<line x1="72.250000" y1="35.000000" x2="515.100000" y2="35.000000"  style="stroke: black; stroke-linecap:round; stroke-width:0.25; stroke-dasharray:3,3;"/>
<text x="40.000000" y="37.000000" font-family="Arial" font-size="7">hgroup()</text>
<line x1="25.000000" y1="25.000000" x2="25.000000" y2="171.000000"  style="stroke: black; stroke-linecap:round; stroke-width:0.25; stroke-dasharray:3,3;"/>
<line x1="25.000000" y1="171.000000" x2="525.100000" y2="171.000000"  style="stroke: black; stroke-linecap:round; stroke-width:0.25; stroke-dasharray:3,3;"/>
<line x1="525.100000" y1="171.000000" x2="525.100000" y2="25.000000"  style="stroke: black; stroke-linecap:round; stroke-width:0.25; stroke-dasharray:3,3;"/>
<line x1="25.000000" y1="25.000000" x2="30.000000" y2="25.000000"  style="stroke: black; stroke-linecap:round; stroke-width:0.25; stroke-dasharray:3,3;"/>
<line x1="110.625000" y1="25.000000" x2="525.100000" y2="25.000000"  style="stroke: black; stroke-linecap:round; stroke-width:0.25; stroke-dasharray:3,3;"/>
<text x="30.000000" y="27.000000" font-family="Arial" font-size="7">vgroup(Reverb controls)</text>
<line x1="15.000000" y1="15.000000" x2="15.000000" y2="181.000000"  style="stroke: black; stroke-linecap:round; stroke-width:0.25; stroke-dasharray:3,3;"/>
<line x1="15.000000" y1="181.000000" x2="543.100000" y2="181.000000"  style="stroke: black; stroke-linecap:round; stroke-width:0.25; stroke-dasharray:3,3;"/>
<line x1="543.100000" y1="181.000000" x2="543.100000" y2="15.000000"  style="stroke: black; stroke-linecap:round; stroke-width:0.25; stroke-dasharray:3,3;"/>
<line x1="15.000000" y1="15.000000" x2="20.000000" y2="15.000000"  style="stroke: black; stroke-linecap:round; stroke-width:0.25; stroke-dasharray:3,3;"/>
<line x1="39.350000" y1="15.000000" x2="543.100000" y2="15.000000"  style="stroke: black; stroke-linecap:round; stroke-width:0.25; stroke-dasharray:3,3;"/>
<text x="20.000000" y="17.000000" font-family="Arial" font-size="7">tail</text>
<line x1="545.100000" y1="97.000000" x2="548.100000" y2="98.000000"  transform="rotate(0.000000,548.100000,98.000000)" style="stroke: black; stroke-width:0.25;"/>
<line x1="545.100000" y1="99.000000" x2="548.100000" y2="98.000000"  transform="rotate(0.000000,548.100000,98.000000)" style="stroke: black; stroke-width:0.25;"/>
<line x1="223.700000" y1="88.000000" x2="227.700000" y2="88.000000"  style="stroke:black; stroke-linecap:round; stroke-width:0.25;"/>
<line x1="227.700000" y1="88.000000" x2="383.400000" y2="88.000000"  style="stroke:black; stroke-linecap:round; stroke-width:0.25;"/>
<line x1="244.600000" y1="130.000000" x2="248.600000" y2="130.000000"  style="stroke:black; stroke-linecap:round; stroke-width:0.25;"/>
<line x1="248.600000" y1="130.000000" x2="258.600000" y2="130.000000"  style="stroke:black; stroke-linecap:round; stroke-width:0.25;"/>
<line x1="258.600000" y1="130.000000" x2="423.400000" y2="130.000000"  style="stroke:black; stroke-linecap:round; stroke-width:0.25;"/>
<line x1="379.400000" y1="56.000000" x2="383.400000" y2="56.000000"  style="stroke:black; stroke-linecap:round; stroke-width:0.25;"/>
<line x1="383.400000" y1="56.000000" x2="391.400000" y2="56.000000"  style="stroke:black; stroke-linecap:round; stroke-width:0.25;"/>
<line x1="383.400000" y1="76.000000" x2="391.400000" y2="76.000000"  style="stroke:black; stroke-linecap:round; stroke-width:0.25;"/>
<line x1="383.400000" y1="88.000000" x2="383.400000" y2="76.000000"  style="stroke:black; stroke-linecap:round; stroke-width:0.25;"/>
<line x1="383.400000" y1="88.000000" x2="383.400000" y2="88.000000"  style="stroke:black; stroke-linecap:round; stroke-width:0.25;"/>
<line x1="391.400000" y1="56.000000" x2="391.400000" y2="68.000000"  style="stroke:black; stroke-linecap:round; stroke-width:0.25;"/>
<line x1="391.400000" y1="68.000000" x2="391.400000" y2="68.000000"  style="stroke:black; stroke-linecap:round; stroke-width:0.25;"/>
<line x1="391.400000" y1="68.000000" x2="395.400000" y2="68.000000"  style="stroke:black; stroke-linecap:round; stroke-width:0.25;"/>
<line x1="391.400000" y1="76.000000" x2="395.400000" y2="76.000000"  style="stroke:black; stroke-linecap:round; stroke-width:0.25;"/>
<line x1="419.400000" y1="72.000000" x2="423.400000" y2="72.000000"  style="stroke:black; stroke-linecap:round; stroke-width:0.25;"/>
<line x1="423.400000" y1="72.000000" x2="431.400000" y2="72.000000"  style="stroke:black; stroke-linecap:round; stroke-width:0.25;"/>
<line x1="423.400000" y1="102.000000" x2="431.400000" y2="102.000000"  style="stroke:black; stroke-linecap:round; stroke-width:0.25;"/>
<line x1="423.400000" y1="130.000000" x2="423.400000" y2="102.000000"  style="stroke:black; stroke-linecap:round; stroke-width:0.25;"/>
<line x1="423.400000" y1="130.000000" x2="423.400000" y2="130.000000"  style="stroke:black; stroke-linecap:round; stroke-width:0.25;"/>
<line x1="431.400000" y1="72.000000" x2="431.400000" y2="94.000000"  style="stroke:black; stroke-linecap:round; stroke-width:0.25;"/>
<line x1="431.400000" y1="94.000000" x2="431.400000" y2="94.000000"  style="stroke:black; stroke-linecap:round; stroke-width:0.25;"/>
<line x1="431.400000" y1="94.000000" x2="435.400000" y2="94.000000"  style="stroke:black; stroke-linecap:round; stroke-width:0.25;"/>
<line x1="431.400000" y1="102.000000" x2="435.400000" y2="102.000000"  style="stroke:black; stroke-linecap:round; stroke-width:0.25;"/>
<line x1="459.400000" y1="98.000000" x2="463.400000" y2="98.000000"  style="stroke:black; stroke-linecap:round; stroke-width:0.25;"/>
<line x1="463.400000" y1="98.000000" x2="463.400000" y2="98.000000"  style="stroke:black; stroke-linecap:round; stroke-width:0.25;"/>
<line x1="463.400000" y1="98.000000" x2="467.400000" y2="98.000000"  style="stroke:black; stroke-linecap:round; stroke-width:0.25;"/>
<line x1="506.100000" y1="98.000000" x2="510.100000" y2="98.000000"  style="stroke:black; stroke-linecap:round; stroke-width:0.25;"/>
<line x1="510.100000" y1="98.000000" x2="520.100000" y2="98.000000"  style="stroke:black; stroke-linecap:round; stroke-width:0.25;"/>
<line x1="520.100000" y1="98.000000" x2="530.100000" y2="98.000000"  style="stroke:black; stroke-linecap:round; stroke-width:0.25;"/>
<line x1="530.100000" y1="98.000000" x2="530.100000" y2="98.000000"  style="stroke:black; stroke-linecap:round; stroke-width:0.25;"/>
<line x1="530.100000" y1="98.000000" x2="534.100000" y2="98.000000"  style="stroke:black; stroke-linecap:round; stroke-width:0.25;"/>
<line x1="534.100000" y1="98.000000" x2="538.100000" y2="98.000000"  style="stroke:black; stroke-linecap:round; stroke-width:0.25;"/>
<line x1="538.100000" y1="98.000000" x2="548.100000" y2="98.000000"  style="stroke:black; stroke-linecap:round; stroke-width:0.25;"/>
</svg>
