<?xml version="1.0"?>
<svg xmlns="http://www.w3.org/2000/svg" xmlns:xlink="http://www.w3.org/1999/xlink" viewBox="0 0 277.800000 400.000000" width="138.900000mm" height="200.000000mm" version="1.1">
<rect x="1.000000" y="1.000000" width="276.800000" height="399.000000" rx="0" ry="0" style="stroke:none;fill:#cccccc;"/>
<rect x="0.000000" y="0.000000" width="276.800000" height="399.000000" rx="0" ry="0" style="stroke:none;fill:#ffffff;"/>
<text x="10.000000" y="7.000000" font-family="Arial" font-size="7"></text>
<rect x="41.000000" y="173.000000" width="24.000000" height="24.000000" rx="0" ry="0" style="stroke:none;fill:#cccccc;"/>
<rect x="40.000000" y="172.000000" width="24.000000" height="24.000000" rx="0" ry="0" style="stroke:none;fill:#47945E;"/>
<text x="52.000000" y="186.000000" font-family="Arial" font-size="7" text-anchor="middle" fill="#FFFFFF">L</text>
<circle cx="42.000000" cy="174.000000" r="1"/>
<line x1="37.000000" y1="183.000000" x2="40.000000" y2="184.000000"  transform="rotate(0.000000,40.000000,184.000000)" style="stroke: black; stroke-width:0.25;"/>
<line x1="37.000000" y1="185.000000" x2="40.000000" y2="184.000000"  transform="rotate(0.000000,40.000000,184.000000)" style="stroke: black; stroke-width:0.25;"/>
<rect x="41.000000" y="205.000000" width="24.000000" height="24.000000" rx="0" ry="0" style="stroke:none;fill:#cccccc;"/>
<rect x="40.000000" y="204.000000" width="24.000000" height="24.000000" rx="0" ry="0" style="stroke:none;fill:#47945E;"/>
<text x="52.000000" y="218.000000" font-family="Arial" font-size="7" text-anchor="middle" fill="#FFFFFF">R</text>
<circle cx="42.000000" cy="206.000000" r="1"/>
<line x1="37.000000" y1="215.000000" x2="40.000000" y2="216.000000"  transform="rotate(0.000000,40.000000,216.000000)" style="stroke: black; stroke-width:0.25;"/>
<line x1="37.000000" y1="217.000000" x2="40.000000" y2="216.000000"  transform="rotate(0.000000,40.000000,216.000000)" style="stroke: black; stroke-width:0.25;"/>
<rect x="99.900000" y="35.000000" width="24.000000" height="24.000000" rx="0" ry="0" style="stroke:none;fill:#cccccc;"/>
<rect x="98.900000" y="34.000000" width="24.000000" height="24.000000" rx="0" ry="0" style="stroke:none;fill:#f44800;"/>
<text x="110.900000" y="48.000000" font-family="Arial" font-size="7" text-anchor="middle" fill="#FFFFFF">1</text>
<circle cx="100.900000" cy="36.000000" r="1"/>
<rect x="83.000000" y="67.000000" width="24.000000" height="24.000000" rx="0" ry="0" style="stroke:none;fill:#cccccc;"/>
<rect x="82.000000" y="66.000000" width="24.000000" height="24.000000" rx="0" ry="0" style="stroke:none;fill:#f44800;"/>
<text x="94.000000" y="80.000000" font-family="Arial" font-size="7" text-anchor="middle" fill="#FFFFFF">2</text>
<circle cx="84.000000" cy="68.000000" r="1"/>
<rect x="115.000000" y="67.000000" width="25.800000" height="24.000000" rx="0" ry="0" style="stroke:none;fill:#cccccc;"/>
<rect x="114.000000" y="66.000000" width="25.800000" height="24.000000" rx="0" ry="0" style="stroke:none;fill:#4B71A1;"/>
<text x="126.900000" y="80.000000" font-family="Arial" font-size="7" text-anchor="middle" fill="#FFFFFF">sqrt</text>
<circle cx="116.000000" cy="68.000000" r="1"/>
<line x1="111.000000" y1="77.000000" x2="114.000000" y2="78.000000"  transform="rotate(0.000000,114.000000,78.000000)" style="stroke: black; stroke-width:0.25;"/>
<line x1="111.000000" y1="79.000000" x2="114.000000" y2="78.000000"  transform="rotate(0.000000,114.000000,78.000000)" style="stroke: black; stroke-width:0.25;"/>
<rect x="156.800000" y="51.000000" width="24.000000" height="24.000000" rx="0" ry="0" style="stroke:none;fill:#cccccc;"/>
<rect x="155.800000" y="50.000000" width="24.000000" height="24.000000" rx="0" ry="0" style="stroke:none;fill:#4B71A1;"/>
<text x="167.800000" y="64.000000" font-family="Arial" font-size="7" text-anchor="middle" fill="#FFFFFF">/</text>
<circle cx="157.800000" cy="52.000000" r="1"/>
<line x1="152.800000" y1="57.000000" x2="155.800000" y2="58.000000"  transform="rotate(0.000000,155.800000,58.000000)" style="stroke: black; stroke-width:0.25;"/>
<line x1="152.800000" y1="59.000000" x2="155.800000" y2="58.000000"  transform="rotate(0.000000,155.800000,58.000000)" style="stroke: black; stroke-width:0.25;"/>
<line x1="152.800000" y1="65.000000" x2="155.800000" y2="66.000000"  transform="rotate(0.000000,155.800000,66.000000)" style="stroke: black; stroke-width:0.25;"/>
<line x1="152.800000" y1="67.000000" x2="155.800000" y2="66.000000"  transform="rotate(0.000000,155.800000,66.000000)" style="stroke: black; stroke-width:0.25;"/>
<rect x="99.900000" y="99.000000" width="24.000000" height="24.000000" rx="0" ry="0" style="stroke:none;fill:#cccccc;"/>
<rect x="98.900000" y="98.000000" width="24.000000" height="24.000000" rx="0" ry="0" style="stroke:none;fill:#47945E;"/>
<text x="110.900000" y="112.000000" font-family="Arial" font-size="7" text-anchor="middle" fill="#FFFFFF">L</text>
<circle cx="100.900000" cy="100.000000" r="1"/>
<rect x="99.900000" y="131.000000" width="24.000000" height="24.000000" rx="0" ry="0" style="stroke:none;fill:#cccccc;"/>
<rect x="98.900000" y="130.000000" width="24.000000" height="24.000000" rx="0" ry="0" style="stroke:none;fill:#47945E;"/>
<text x="110.900000" y="144.000000" font-family="Arial" font-size="7" text-anchor="middle" fill="#FFFFFF">R</text>
<circle cx="100.900000" cy="132.000000" r="1"/>
<rect x="139.900000" y="115.000000" width="24.000000" height="24.000000" rx="0" ry="0" style="stroke:none;fill:#cccccc;"/>
<rect x="138.900000" y="114.000000" width="24.000000" height="24.000000" rx="0" ry="0" style="stroke:none;fill:#4B71A1;"/>
<text x="150.900000" y="128.000000" font-family="Arial" font-size="7" text-anchor="middle" fill="#FFFFFF">+</text>
<circle cx="140.900000" cy="116.000000" r="1"/>
<line x1="135.900000" y1="121.000000" x2="138.900000" y2="122.000000"  transform="rotate(0.000000,138.900000,122.000000)" style="stroke: black; stroke-width:0.25;"/>
<line x1="135.900000" y1="123.000000" x2="138.900000" y2="122.000000"  transform="rotate(0.000000,138.900000,122.000000)" style="stroke: black; stroke-width:0.25;"/>
<line x1="135.900000" y1="129.000000" x2="138.900000" y2="130.000000"  transform="rotate(0.000000,138.900000,130.000000)" style="stroke: black; stroke-width:0.25;"/>
<line x1="135.900000" y1="131.000000" x2="138.900000" y2="130.000000"  transform="rotate(0.000000,138.900000,130.000000)" style="stroke: black; stroke-width:0.25;"/>
<rect x="196.800000" y="83.000000" width="24.000000" height="24.000000" rx="0" ry="0" style="stroke:none;fill:#cccccc;"/>
<rect x="195.800000" y="82.000000" width="24.000000" height="24.000000" rx="0" ry="0" style="stroke:none;fill:#4B71A1;"/>
<text x="207.800000" y="96.000000" font-family="Arial" font-size="7" text-anchor="middle" fill="#FFFFFF">*</text>
<circle cx="197.800000" cy="84.000000" r="1"/>
<line x1="192.800000" y1="89.000000" x2="195.800000" y2="90.000000"  transform="rotate(0.000000,195.800000,90.000000)" style="stroke: black; stroke-width:0.25;"/>
<line x1="192.800000" y1="91.000000" x2="195.800000" y2="90.000000"  transform="rotate(0.000000,195.800000,90.000000)" style="stroke: black; stroke-width:0.25;"/>
<line x1="192.800000" y1="97.000000" x2="195.800000" y2="98.000000"  transform="rotate(0.000000,195.800000,98.000000)" style="stroke: black; stroke-width:0.25;"/>
<line x1="192.800000" y1="99.000000" x2="195.800000" y2="98.000000"  transform="rotate(0.000000,195.800000,98.000000)" style="stroke: black; stroke-width:0.25;"/>
<line x1="73.000000" y1="25.000000" x2="73.000000" y2="163.000000"  style="stroke: black; stroke-linecap:round; stroke-width:0.25; stroke-dasharray:3,3;"/>
<line x1="73.000000" y1="163.000000" x2="228.800000" y2="163.000000"  style="stroke: black; stroke-linecap:round; stroke-width:0.25; stroke-dasharray:3,3;"/>
<line x1="228.800000" y1="163.000000" x2="228.800000" y2="25.000000"  style="stroke: black; stroke-linecap:round; stroke-width:0.25; stroke-dasharray:3,3;"/>
<line x1="73.000000" y1="25.000000" x2="78.000000" y2="25.000000"  style="stroke: black; stroke-linecap:round; stroke-width:0.25; stroke-dasharray:3,3;"/>
<line x1="87.675000" y1="25.000000" x2="228.800000" y2="25.000000"  style="stroke: black; stroke-linecap:round; stroke-width:0.25; stroke-dasharray:3,3;"/>
<text x="78.000000" y="27.000000" font-family="Arial" font-size="7">F</text>
<rect x="139.900000" y="173.000000" width="24.000000" height="24.000000" rx="0" ry="0" style="stroke:none;fill:#cccccc;"/>
<rect x="138.900000" y="172.000000" width="24.000000" height="24.000000" rx="0" ry="0" style="stroke:none;fill:#47945E;"/>
<text x="150.900000" y="186.000000" font-family="Arial" font-size="7" text-anchor="middle" fill="#FFFFFF">L</text>
<circle cx="140.900000" cy="174.000000" r="1"/>
<rect x="99.900000" y="215.000000" width="24.000000" height="24.000000" rx="0" ry="0" style="stroke:none;fill:#cccccc;"/>
<rect x="98.900000" y="214.000000" width="24.000000" height="24.000000" rx="0" ry="0" style="stroke:none;fill:#f44800;"/>
<text x="110.900000" y="228.000000" font-family="Arial" font-size="7" text-anchor="middle" fill="#FFFFFF">1</text>
<circle cx="100.900000" cy="216.000000" r="1"/>
<rect x="83.000000" y="247.000000" width="24.000000" height="24.000000" rx="0" ry="0" style="stroke:none;fill:#cccccc;"/>
<rect x="82.000000" y="246.000000" width="24.000000" height="24.000000" rx="0" ry="0" style="stroke:none;fill:#f44800;"/>
<text x="94.000000" y="260.000000" font-family="Arial" font-size="7" text-anchor="middle" fill="#FFFFFF">2</text>
<circle cx="84.000000" cy="248.000000" r="1"/>
<rect x="115.000000" y="247.000000" width="25.800000" height="24.000000" rx="0" ry="0" style="stroke:none;fill:#cccccc;"/>
<rect x="114.000000" y="246.000000" width="25.800000" height="24.000000" rx="0" ry="0" style="stroke:none;fill:#4B71A1;"/>
<text x="126.900000" y="260.000000" font-family="Arial" font-size="7" text-anchor="middle" fill="#FFFFFF">sqrt</text>
<circle cx="116.000000" cy="248.000000" r="1"/>
<line x1="111.000000" y1="257.000000" x2="114.000000" y2="258.000000"  transform="rotate(0.000000,114.000000,258.000000)" style="stroke: black; stroke-width:0.25;"/>
<line x1="111.000000" y1="259.000000" x2="114.000000" y2="258.000000"  transform="rotate(0.000000,114.000000,258.000000)" style="stroke: black; stroke-width:0.25;"/>
<rect x="156.800000" y="231.000000" width="24.000000" height="24.000000" rx="0" ry="0" style="stroke:none;fill:#cccccc;"/>
<rect x="155.800000" y="230.000000" width="24.000000" height="24.000000" rx="0" ry="0" style="stroke:none;fill:#4B71A1;"/>
<text x="167.800000" y="244.000000" font-family="Arial" font-size="7" text-anchor="middle" fill="#FFFFFF">/</text>
<circle cx="157.800000" cy="232.000000" r="1"/>
<line x1="152.800000" y1="237.000000" x2="155.800000" y2="238.000000"  transform="rotate(0.000000,155.800000,238.000000)" style="stroke: black; stroke-width:0.25;"/>
<line x1="152.800000" y1="239.000000" x2="155.800000" y2="238.000000"  transform="rotate(0.000000,155.800000,238.000000)" style="stroke: black; stroke-width:0.25;"/>
<line x1="152.800000" y1="245.000000" x2="155.800000" y2="246.000000"  transform="rotate(0.000000,155.800000,246.000000)" style="stroke: black; stroke-width:0.25;"/>
<line x1="152.800000" y1="247.000000" x2="155.800000" y2="246.000000"  transform="rotate(0.000000,155.800000,246.000000)" style="stroke: black; stroke-width:0.25;"/>
<rect x="99.900000" y="279.000000" width="24.000000" height="24.000000" rx="0" ry="0" style="stroke:none;fill:#cccccc;"/>
<rect x="98.900000" y="278.000000" width="24.000000" height="24.000000" rx="0" ry="0" style="stroke:none;fill:#47945E;"/>
<text x="110.900000" y="292.000000" font-family="Arial" font-size="7" text-anchor="middle" fill="#FFFFFF">L</text>
<circle cx="100.900000" cy="280.000000" r="1"/>
<rect x="99.900000" y="311.000000" width="24.000000" height="24.000000" rx="0" ry="0" style="stroke:none;fill:#cccccc;"/>
<rect x="98.900000" y="310.000000" width="24.000000" height="24.000000" rx="0" ry="0" style="stroke:none;fill:#47945E;"/>
<text x="110.900000" y="324.000000" font-family="Arial" font-size="7" text-anchor="middle" fill="#FFFFFF">R</text>
<circle cx="100.900000" cy="312.000000" r="1"/>
<rect x="139.900000" y="295.000000" width="24.000000" height="24.000000" rx="0" ry="0" style="stroke:none;fill:#cccccc;"/>
<rect x="138.900000" y="294.000000" width="24.000000" height="24.000000" rx="0" ry="0" style="stroke:none;fill:#4B71A1;"/>
<text x="150.900000" y="308.000000" font-family="Arial" font-size="7" text-anchor="middle" fill="#FFFFFF">-</text>
<circle cx="140.900000" cy="296.000000" r="1"/>
<line x1="135.900000" y1="301.000000" x2="138.900000" y2="302.000000"  transform="rotate(0.000000,138.900000,302.000000)" style="stroke: black; stroke-width:0.25;"/>
<line x1="135.900000" y1="303.000000" x2="138.900000" y2="302.000000"  transform="rotate(0.000000,138.900000,302.000000)" style="stroke: black; stroke-width:0.25;"/>
<line x1="135.900000" y1="309.000000" x2="138.900000" y2="310.000000"  transform="rotate(0.000000,138.900000,310.000000)" style="stroke: black; stroke-width:0.25;"/>
<line x1="135.900000" y1="311.000000" x2="138.900000" y2="310.000000"  transform="rotate(0.000000,138.900000,310.000000)" style="stroke: black; stroke-width:0.25;"/>
<rect x="196.800000" y="263.000000" width="24.000000" height="24.000000" rx="0" ry="0" style="stroke:none;fill:#cccccc;"/>
<rect x="195.800000" y="262.000000" width="24.000000" height="24.000000" rx="0" ry="0" style="stroke:none;fill:#4B71A1;"/>
<text x="207.800000" y="276.000000" font-family="Arial" font-size="7" text-anchor="middle" fill="#FFFFFF">*</text>
<circle cx="197.800000" cy="264.000000" r="1"/>
<line x1="192.800000" y1="269.000000" x2="195.800000" y2="270.000000"  transform="rotate(0.000000,195.800000,270.000000)" style="stroke: black; stroke-width:0.25;"/>
<line x1="192.800000" y1="271.000000" x2="195.800000" y2="270.000000"  transform="rotate(0.000000,195.800000,270.000000)" style="stroke: black; stroke-width:0.25;"/>
<line x1="192.800000" y1="277.000000" x2="195.800000" y2="278.000000"  transform="rotate(0.000000,195.800000,278.000000)" style="stroke: black; stroke-width:0.25;"/>
<line x1="192.800000" y1="279.000000" x2="195.800000" y2="278.000000"  transform="rotate(0.000000,195.800000,278.000000)" style="stroke: black; stroke-width:0.25;"/>
<line x1="73.000000" y1="205.000000" x2="73.000000" y2="343.000000"  style="stroke: black; stroke-linecap:round; stroke-width:0.25; stroke-dasharray:3,3;"/>
<line x1="73.000000" y1="343.000000" x2="228.800000" y2="343.000000"  style="stroke: black; stroke-linecap:round; stroke-width:0.25; stroke-dasharray:3,3;"/>
<line x1="228.800000" y1="343.000000" x2="228.800000" y2="205.000000"  style="stroke: black; stroke-linecap:round; stroke-width:0.25; stroke-dasharray:3,3;"/>
<line x1="73.000000" y1="205.000000" x2="78.000000" y2="205.000000"  style="stroke: black; stroke-linecap:round; stroke-width:0.25; stroke-dasharray:3,3;"/>
<line x1="87.675000" y1="205.000000" x2="228.800000" y2="205.000000"  style="stroke: black; stroke-linecap:round; stroke-width:0.25; stroke-dasharray:3,3;"/>
<text x="78.000000" y="207.000000" font-family="Arial" font-size="7">B</text>
<rect x="139.900000" y="353.000000" width="24.000000" height="24.000000" rx="0" ry="0" style="stroke:none;fill:#cccccc;"/>
<rect x="138.900000" y="352.000000" width="24.000000" height="24.000000" rx="0" ry="0" style="stroke:none;fill:#47945E;"/>
<text x="150.900000" y="366.000000" font-family="Arial" font-size="7" text-anchor="middle" fill="#FFFFFF">R</text>
<circle cx="140.900000" cy="354.000000" r="1"/>
<line x1="15.000000" y1="15.000000" x2="15.000000" y2="385.000000"  style="stroke: black; stroke-linecap:round; stroke-width:0.25; stroke-dasharray:3,3;"/>
<line x1="15.000000" y1="385.000000" x2="262.800000" y2="385.000000"  style="stroke: black; stroke-linecap:round; stroke-width:0.25; stroke-dasharray:3,3;"/>
<line x1="262.800000" y1="385.000000" x2="262.800000" y2="15.000000"  style="stroke: black; stroke-linecap:round; stroke-width:0.25; stroke-dasharray:3,3;"/>
<line x1="15.000000" y1="15.000000" x2="20.000000" y2="15.000000"  style="stroke: black; stroke-linecap:round; stroke-width:0.25; stroke-dasharray:3,3;"/>
<line x1="49.025000" y1="15.000000" x2="262.800000" y2="15.000000"  style="stroke: black; stroke-linecap:round; stroke-width:0.25; stroke-dasharray:3,3;"/>
<text x="20.000000" y="17.000000" font-family="Arial" font-size="7">process</text>
<line x1="264.800000" y1="187.000000" x2="267.800000" y2="188.000000"  transform="rotate(0.000000,267.800000,188.000000)" style="stroke: black; stroke-width:0.25;"/>
<line x1="264.800000" y1="189.000000" x2="267.800000" y2="188.000000"  transform="rotate(0.000000,267.800000,188.000000)" style="stroke: black; stroke-width:0.25;"/>
<line x1="264.800000" y1="195.000000" x2="267.800000" y2="196.000000"  transform="rotate(0.000000,267.800000,196.000000)" style="stroke: black; stroke-width:0.25;"/>
<line x1="264.800000" y1="197.000000" x2="267.800000" y2="196.000000"  transform="rotate(0.000000,267.800000,196.000000)" style="stroke: black; stroke-width:0.25;"/>
<line x1="264.800000" y1="203.000000" x2="267.800000" y2="204.000000"  transform="rotate(0.000000,267.800000,204.000000)" style="stroke: black; stroke-width:0.25;"/>
<line x1="264.800000" y1="205.000000" x2="267.800000" y2="204.000000"  transform="rotate(0.000000,267.800000,204.000000)" style="stroke: black; stroke-width:0.25;"/>
<line x1="264.800000" y1="211.000000" x2="267.800000" y2="212.000000"  transform="rotate(0.000000,267.800000,212.000000)" style="stroke: black; stroke-width:0.25;"/>
<line x1="264.800000" y1="213.000000" x2="267.800000" y2="212.000000"  transform="rotate(0.000000,267.800000,212.000000)" style="stroke: black; stroke-width:0.25;"/>
<line x1="10.000000" y1="196.000000" x2="20.000000" y2="196.000000"  style="stroke:black; stroke-linecap:round; stroke-width:0.25;"/>
<line x1="10.000000" y1="204.000000" x2="20.000000" y2="204.000000"  style="stroke:black; stroke-linecap:round; stroke-width:0.25;"/>
<line x1="20.000000" y1="196.000000" x2="24.000000" y2="196.000000"  style="stroke:black; stroke-linecap:round; stroke-width:0.25;"/>
<line x1="20.000000" y1="204.000000" x2="24.000000" y2="204.000000"  style="stroke:black; stroke-linecap:round; stroke-width:0.25;"/>
<line x1="24.000000" y1="196.000000" x2="28.000000" y2="196.000000"  style="stroke:black; stroke-linecap:round; stroke-width:0.25;"/>
<line x1="24.000000" y1="204.000000" x2="28.000000" y2="204.000000"  style="stroke:black; stroke-linecap:round; stroke-width:0.25;"/>
<line x1="28.000000" y1="184.000000" x2="36.000000" y2="184.000000"  style="stroke:black; stroke-linecap:round; stroke-width:0.25;"/>
<line x1="28.000000" y1="196.000000" x2="28.000000" y2="184.000000"  style="stroke:black; stroke-linecap:round; stroke-width:0.25;"/>
<line x1="28.000000" y1="196.000000" x2="28.000000" y2="196.000000"  style="stroke:black; stroke-linecap:round; stroke-width:0.25;"/>
<line x1="28.000000" y1="204.000000" x2="36.000000" y2="204.000000"  style="stroke:black; stroke-linecap:round; stroke-width:0.25;"/>
<line x1="36.000000" y1="184.000000" x2="40.000000" y2="184.000000"  style="stroke:black; stroke-linecap:round; stroke-width:0.25;"/>
<line x1="36.000000" y1="204.000000" x2="36.000000" y2="216.000000"  style="stroke:black; stroke-linecap:round; stroke-width:0.25;"/>
<line x1="36.000000" y1="216.000000" x2="36.000000" y2="216.000000"  style="stroke:black; stroke-linecap:round; stroke-width:0.25;"/>
<line x1="36.000000" y1="216.000000" x2="40.000000" y2="216.000000"  style="stroke:black; stroke-linecap:round; stroke-width:0.25;"/>
<line x1="106.000000" y1="78.000000" x2="110.000000" y2="78.000000"  style="stroke:black; stroke-linecap:round; stroke-width:0.25;"/>
<line x1="106.000000" y1="258.000000" x2="110.000000" y2="258.000000"  style="stroke:black; stroke-linecap:round; stroke-width:0.25;"/>
<line x1="110.000000" y1="78.000000" x2="110.000000" y2="78.000000"  style="stroke:black; stroke-linecap:round; stroke-width:0.25;"/>
<line x1="110.000000" y1="78.000000" x2="114.000000" y2="78.000000"  style="stroke:black; stroke-linecap:round; stroke-width:0.25;"/>
<line x1="110.000000" y1="258.000000" x2="110.000000" y2="258.000000"  style="stroke:black; stroke-linecap:round; stroke-width:0.25;"/>
<line x1="110.000000" y1="258.000000" x2="114.000000" y2="258.000000"  style="stroke:black; stroke-linecap:round; stroke-width:0.25;"/>
<line x1="122.900000" y1="46.000000" x2="126.900000" y2="46.000000"  style="stroke:black; stroke-linecap:round; stroke-width:0.25;"/>
<line x1="122.900000" y1="110.000000" x2="126.900000" y2="110.000000"  style="stroke:black; stroke-linecap:round; stroke-width:0.25;"/>
<line x1="122.900000" y1="142.000000" x2="126.900000" y2="142.000000"  style="stroke:black; stroke-linecap:round; stroke-width:0.25;"/>
<line x1="122.900000" y1="226.000000" x2="126.900000" y2="226.000000"  style="stroke:black; stroke-linecap:round; stroke-width:0.25;"/>
<line x1="122.900000" y1="290.000000" x2="126.900000" y2="290.000000"  style="stroke:black; stroke-linecap:round; stroke-width:0.25;"/>
<line x1="122.900000" y1="322.000000" x2="126.900000" y2="322.000000"  style="stroke:black; stroke-linecap:round; stroke-width:0.25;"/>
<line x1="126.900000" y1="46.000000" x2="143.800000" y2="46.000000"  style="stroke:black; stroke-linecap:round; stroke-width:0.25;"/>
<line x1="126.900000" y1="110.000000" x2="134.900000" y2="110.000000"  style="stroke:black; stroke-linecap:round; stroke-width:0.25;"/>
<line x1="126.900000" y1="130.000000" x2="134.900000" y2="130.000000"  style="stroke:black; stroke-linecap:round; stroke-width:0.25;"/>
<line x1="126.900000" y1="142.000000" x2="126.900000" y2="130.000000"  style="stroke:black; stroke-linecap:round; stroke-width:0.25;"/>
<line x1="126.900000" y1="142.000000" x2="126.900000" y2="142.000000"  style="stroke:black; stroke-linecap:round; stroke-width:0.25;"/>
<line x1="126.900000" y1="226.000000" x2="143.800000" y2="226.000000"  style="stroke:black; stroke-linecap:round; stroke-width:0.25;"/>
<line x1="126.900000" y1="290.000000" x2="134.900000" y2="290.000000"  style="stroke:black; stroke-linecap:round; stroke-width:0.25;"/>
<line x1="126.900000" y1="310.000000" x2="134.900000" y2="310.000000"  style="stroke:black; stroke-linecap:round; stroke-width:0.25;"/>
<line x1="126.900000" y1="322.000000" x2="126.900000" y2="310.000000"  style="stroke:black; stroke-linecap:round; stroke-width:0.25;"/>
<line x1="126.900000" y1="322.000000" x2="126.900000" y2="322.000000"  style="stroke:black; stroke-linecap:round; stroke-width:0.25;"/>
<line x1="134.900000" y1="110.000000" x2="134.900000" y2="122.000000"  style="stroke:black; stroke-linecap:round; stroke-width:0.25;"/>
<line x1="134.900000" y1="122.000000" x2="134.900000" y2="122.000000"  style="stroke:black; stroke-linecap:round; stroke-width:0.25;"/>
<line x1="134.900000" y1="122.000000" x2="138.900000" y2="122.000000"  style="stroke:black; stroke-linecap:round; stroke-width:0.25;"/>
<line x1="134.900000" y1="130.000000" x2="138.900000" y2="130.000000"  style="stroke:black; stroke-linecap:round; stroke-width:0.25;"/>
<line x1="134.900000" y1="290.000000" x2="134.900000" y2="302.000000"  style="stroke:black; stroke-linecap:round; stroke-width:0.25;"/>
<line x1="134.900000" y1="302.000000" x2="134.900000" y2="302.000000"  style="stroke:black; stroke-linecap:round; stroke-width:0.25;"/>
<line x1="134.900000" y1="302.000000" x2="138.900000" y2="302.000000"  style="stroke:black; stroke-linecap:round; stroke-width:0.25;"/>
<line x1="134.900000" y1="310.000000" x2="138.900000" y2="310.000000"  style="stroke:black; stroke-linecap:round; stroke-width:0.25;"/>
<line x1="139.800000" y1="78.000000" x2="143.800000" y2="78.000000"  style="stroke:black; stroke-linecap:round; stroke-width:0.25;"/>
<line x1="139.800000" y1="258.000000" x2="143.800000" y2="258.000000"  style="stroke:black; stroke-linecap:round; stroke-width:0.25;"/>
<line x1="143.800000" y1="46.000000" x2="151.800000" y2="46.000000"  style="stroke:black; stroke-linecap:round; stroke-width:0.25;"/>
<line x1="143.800000" y1="66.000000" x2="151.800000" y2="66.000000"  style="stroke:black; stroke-linecap:round; stroke-width:0.25;"/>
<line x1="143.800000" y1="78.000000" x2="143.800000" y2="66.000000"  style="stroke:black; stroke-linecap:round; stroke-width:0.25;"/>
<line x1="143.800000" y1="78.000000" x2="143.800000" y2="78.000000"  style="stroke:black; stroke-linecap:round; stroke-width:0.25;"/>
<line x1="143.800000" y1="226.000000" x2="151.800000" y2="226.000000"  style="stroke:black; stroke-linecap:round; stroke-width:0.25;"/>
<line x1="143.800000" y1="246.000000" x2="151.800000" y2="246.000000"  style="stroke:black; stroke-linecap:round; stroke-width:0.25;"/>
<line x1="143.800000" y1="258.000000" x2="143.800000" y2="246.000000"  style="stroke:black; stroke-linecap:round; stroke-width:0.25;"/>
<line x1="143.800000" y1="258.000000" x2="143.800000" y2="258.000000"  style="stroke:black; stroke-linecap:round; stroke-width:0.25;"/>
<line x1="151.800000" y1="46.000000" x2="151.800000" y2="58.000000"  style="stroke:black; stroke-linecap:round; stroke-width:0.25;"/>
<line x1="151.800000" y1="58.000000" x2="151.800000" y2="58.000000"  style="stroke:black; stroke-linecap:round; stroke-width:0.25;"/>
<line x1="151.800000" y1="58.000000" x2="155.800000" y2="58.000000"  style="stroke:black; stroke-linecap:round; stroke-width:0.25;"/>
<line x1="151.800000" y1="66.000000" x2="155.800000" y2="66.000000"  style="stroke:black; stroke-linecap:round; stroke-width:0.25;"/>
<line x1="151.800000" y1="226.000000" x2="151.800000" y2="238.000000"  style="stroke:black; stroke-linecap:round; stroke-width:0.25;"/>
<line x1="151.800000" y1="238.000000" x2="151.800000" y2="238.000000"  style="stroke:black; stroke-linecap:round; stroke-width:0.25;"/>
<line x1="151.800000" y1="238.000000" x2="155.800000" y2="238.000000"  style="stroke:black; stroke-linecap:round; stroke-width:0.25;"/>
<line x1="151.800000" y1="246.000000" x2="155.800000" y2="246.000000"  style="stroke:black; stroke-linecap:round; stroke-width:0.25;"/>
<line x1="162.900000" y1="126.000000" x2="166.900000" y2="126.000000"  style="stroke:black; stroke-linecap:round; stroke-width:0.25;"/>
<line x1="162.900000" y1="184.000000" x2="166.900000" y2="184.000000"  style="stroke:black; stroke-linecap:round; stroke-width:0.25;"/>
<line x1="162.900000" y1="306.000000" x2="166.900000" y2="306.000000"  style="stroke:black; stroke-linecap:round; stroke-width:0.25;"/>
<line x1="162.900000" y1="364.000000" x2="166.900000" y2="364.000000"  style="stroke:black; stroke-linecap:round; stroke-width:0.25;"/>
<line x1="166.900000" y1="126.000000" x2="183.800000" y2="126.000000"  style="stroke:black; stroke-linecap:round; stroke-width:0.25;"/>
<line x1="166.900000" y1="184.000000" x2="233.800000" y2="184.000000"  style="stroke:black; stroke-linecap:round; stroke-width:0.25;"/>
<line x1="166.900000" y1="306.000000" x2="183.800000" y2="306.000000"  style="stroke:black; stroke-linecap:round; stroke-width:0.25;"/>
<line x1="166.900000" y1="364.000000" x2="233.800000" y2="364.000000"  style="stroke:black; stroke-linecap:round; stroke-width:0.25;"/>
<line x1="179.800000" y1="62.000000" x2="183.800000" y2="62.000000"  style="stroke:black; stroke-linecap:round; stroke-width:0.25;"/>
<line x1="179.800000" y1="242.000000" x2="183.800000" y2="242.000000"  style="stroke:black; stroke-linecap:round; stroke-width:0.25;"/>
<line x1="183.800000" y1="62.000000" x2="191.800000" y2="62.000000"  style="stroke:black; stroke-linecap:round; stroke-width:0.25;"/>
<line x1="183.800000" y1="98.000000" x2="191.800000" y2="98.000000"  style="stroke:black; stroke-linecap:round; stroke-width:0.25;"/>
<line x1="183.800000" y1="126.000000" x2="183.800000" y2="98.000000"  style="stroke:black; stroke-linecap:round; stroke-width:0.25;"/>
<line x1="183.800000" y1="126.000000" x2="183.800000" y2="126.000000"  style="stroke:black; stroke-linecap:round; stroke-width:0.25;"/>
<line x1="183.800000" y1="242.000000" x2="191.800000" y2="242.000000"  style="stroke:black; stroke-linecap:round; stroke-width:0.25;"/>
<line x1="183.800000" y1="278.000000" x2="191.800000" y2="278.000000"  style="stroke:black; stroke-linecap:round; stroke-width:0.25;"/>
<line x1="183.800000" y1="306.000000" x2="183.800000" y2="278.000000"  style="stroke:black; stroke-linecap:round; stroke-width:0.25;"/>
<line x1="183.800000" y1="306.000000" x2="183.800000" y2="306.000000"  style="stroke:black; stroke-linecap:round; stroke-width:0.25;"/>
<line x1="191.800000" y1="62.000000" x2="191.800000" y2="90.000000"  style="stroke:black; stroke-linecap:round; stroke-width:0.25;"/>
<line x1="191.800000" y1="90.000000" x2="191.800000" y2="90.000000"  style="stroke:black; stroke-linecap:round; stroke-width:0.25;"/>
<line x1="191.800000" y1="90.000000" x2="195.800000" y2="90.000000"  style="stroke:black; stroke-linecap:round; stroke-width:0.25;"/>
<line x1="191.800000" y1="98.000000" x2="195.800000" y2="98.000000"  style="stroke:black; stroke-linecap:round; stroke-width:0.25;"/>
<line x1="191.800000" y1="242.000000" x2="191.800000" y2="270.000000"  style="stroke:black; stroke-linecap:round; stroke-width:0.25;"/>
<line x1="191.800000" y1="270.000000" x2="191.800000" y2="270.000000"  style="stroke:black; stroke-linecap:round; stroke-width:0.25;"/>
<line x1="191.800000" y1="270.000000" x2="195.800000" y2="270.000000"  style="stroke:black; stroke-linecap:round; stroke-width:0.25;"/>
<line x1="191.800000" y1="278.000000" x2="195.800000" y2="278.000000"  style="stroke:black; stroke-linecap:round; stroke-width:0.25;"/>
<line x1="219.800000" y1="94.000000" x2="223.800000" y2="94.000000"  style="stroke:black; stroke-linecap:round; stroke-width:0.25;"/>
<line x1="219.800000" y1="274.000000" x2="223.800000" y2="274.000000"  style="stroke:black; stroke-linecap:round; stroke-width:0.25;"/>
<line x1="223.800000" y1="94.000000" x2="233.800000" y2="94.000000"  style="stroke:black; stroke-linecap:round; stroke-width:0.25;"/>
<line x1="223.800000" y1="274.000000" x2="233.800000" y2="274.000000"  style="stroke:black; stroke-linecap:round; stroke-width:0.25;"/>
<line x1="233.800000" y1="94.000000" x2="249.800000" y2="94.000000"  style="stroke:black; stroke-linecap:round; stroke-width:0.25;"/>
<line x1="233.800000" y1="184.000000" x2="241.800000" y2="184.000000"  style="stroke:black; stroke-linecap:round; stroke-width:0.25;"/>
<line x1="233.800000" y1="204.000000" x2="249.800000" y2="204.000000"  style="stroke:black; stroke-linecap:round; stroke-width:0.25;"/>
<line x1="233.800000" y1="274.000000" x2="233.800000" y2="204.000000"  style="stroke:black; stroke-linecap:round; stroke-width:0.25;"/>
<line x1="233.800000" y1="274.000000" x2="233.800000" y2="274.000000"  style="stroke:black; stroke-linecap:round; stroke-width:0.25;"/>
<line x1="233.800000" y1="364.000000" x2="241.800000" y2="364.000000"  style="stroke:black; stroke-linecap:round; stroke-width:0.25;"/>
<line x1="241.800000" y1="184.000000" x2="241.800000" y2="196.000000"  style="stroke:black; stroke-linecap:round; stroke-width:0.25;"/>
<line x1="241.800000" y1="196.000000" x2="249.800000" y2="196.000000"  style="stroke:black; stroke-linecap:round; stroke-width:0.25;"/>
<line x1="241.800000" y1="212.000000" x2="249.800000" y2="212.000000"  style="stroke:black; stroke-linecap:round; stroke-width:0.25;"/>
<line x1="241.800000" y1="364.000000" x2="241.800000" y2="212.000000"  style="stroke:black; stroke-linecap:round; stroke-width:0.25;"/>
<line x1="249.800000" y1="94.000000" x2="249.800000" y2="188.000000"  style="stroke:black; stroke-linecap:round; stroke-width:0.25;"/>
<line x1="249.800000" y1="188.000000" x2="249.800000" y2="188.000000"  style="stroke:black; stroke-linecap:round; stroke-width:0.25;"/>
<line x1="249.800000" y1="188.000000" x2="253.800000" y2="188.000000"  style="stroke:black; stroke-linecap:round; stroke-width:0.25;"/>
<line x1="249.800000" y1="196.000000" x2="253.800000" y2="196.000000"  style="stroke:black; stroke-linecap:round; stroke-width:0.25;"/>
<line x1="249.800000" y1="204.000000" x2="253.800000" y2="204.000000"  style="stroke:black; stroke-linecap:round; stroke-width:0.25;"/>
<line x1="249.800000" y1="212.000000" x2="253.800000" y2="212.000000"  style="stroke:black; stroke-linecap:round; stroke-width:0.25;"/>
<line x1="253.800000" y1="188.000000" x2="257.800000" y2="188.000000"  style="stroke:black; stroke-linecap:round; stroke-width:0.25;"/>
<line x1="253.800000" y1="196.000000" x2="257.800000" y2="196.000000"  style="stroke:black; stroke-linecap:round; stroke-width:0.25;"/>
<line x1="253.800000" y1="204.000000" x2="257.800000" y2="204.000000"  style="stroke:black; stroke-linecap:round; stroke-width:0.25;"/>
<line x1="253.800000" y1="212.000000" x2="257.800000" y2="212.000000"  style="stroke:black; stroke-linecap:round; stroke-width:0.25;"/>
<line x1="257.800000" y1="188.000000" x2="267.800000" y2="188.000000"  style="stroke:black; stroke-linecap:round; stroke-width:0.25;"/>
<line x1="257.800000" y1="196.000000" x2="267.800000" y2="196.000000"  style="stroke:black; stroke-linecap:round; stroke-width:0.25;"/>
<line x1="257.800000" y1="204.000000" x2="267.800000" y2="204.000000"  style="stroke:black; stroke-linecap:round; stroke-width:0.25;"/>
<line x1="257.800000" y1="212.000000" x2="267.800000" y2="212.000000"  style="stroke:black; stroke-linecap:round; stroke-width:0.25;"/>
</svg>
