<?xml version="1.0"?>
<svg xmlns="http://www.w3.org/2000/svg" xmlns:xlink="http://www.w3.org/1999/xlink" viewBox="0 0 430.300000 288.000000" width="215.150000mm" height="144.000000mm" version="1.1">
<a xlink:href="oscil-0x7facd4473a40.svg">
<rect x="1.000000" y="1.000000" width="429.300000" height="287.000000" rx="0" ry="0" style="stroke:none;fill:#cccccc;"/>
<rect x="0.000000" y="0.000000" width="429.300000" height="287.000000" rx="0" ry="0" style="stroke:none;fill:#ffffff;"/>
</a>
<text x="10.000000" y="7.000000" font-family="Arial" font-size="7"></text>
<rect x="59.000000" y="133.000000" width="24.000000" height="24.000000" rx="0" ry="0" style="stroke:none;fill:#cccccc;"/>
<rect x="58.000000" y="132.000000" width="24.000000" height="24.000000" rx="0" ry="0" style="stroke:none;fill:#47945E;"/>
<text x="70.000000" y="146.000000" font-family="Arial" font-size="7" text-anchor="middle" fill="#FFFFFF">x</text>
<circle cx="60.000000" cy="134.000000" r="1"/>
<line x1="55.000000" y1="143.000000" x2="58.000000" y2="144.000000"  transform="rotate(0.000000,58.000000,144.000000)" style="stroke: black; stroke-width:0.25;"/>
<line x1="55.000000" y1="145.000000" x2="58.000000" y2="144.000000"  transform="rotate(0.000000,58.000000,144.000000)" style="stroke: black; stroke-width:0.25;"/>
<a xlink:href="A-0x7facd44720f0.svg">
<rect x="164.150000" y="43.000000" width="24.000000" height="24.000000" rx="0" ry="0" style="stroke:none;fill:#cccccc;"/>
<rect x="163.150000" y="42.000000" width="24.000000" height="24.000000" rx="0" ry="0" style="stroke:none;fill:#003366;"/>
</a>
<a xlink:href="A-0x7facd44720f0.svg">
<text x="175.150000" y="56.000000" font-family="Arial" font-size="7" text-anchor="middle" fill="#FFFFFF">A</text>
</a>
<circle cx="165.150000" cy="44.000000" r="1"/>
<rect x="127.900000" y="75.000000" width="24.000000" height="24.000000" rx="0" ry="0" style="stroke:none;fill:#cccccc;"/>
<rect x="126.900000" y="74.000000" width="24.000000" height="24.000000" rx="0" ry="0" style="stroke:none;fill:#47945E;"/>
<text x="138.900000" y="88.000000" font-family="Arial" font-size="7" text-anchor="middle" fill="#FFFFFF">x</text>
<circle cx="128.900000" cy="76.000000" r="1"/>
<a xlink:href="initState-0x7facd445c140.svg">
<rect x="159.900000" y="75.000000" width="64.500000" height="24.000000" rx="0" ry="0" style="stroke:none;fill:#cccccc;"/>
<rect x="158.900000" y="74.000000" width="64.500000" height="24.000000" rx="0" ry="0" style="stroke:none;fill:#003366;"/>
</a>
<a xlink:href="initState-0x7facd445c140.svg">
<text x="191.150000" y="88.000000" font-family="Arial" font-size="7" text-anchor="middle" fill="#FFFFFF">initState(0.0f)</text>
</a>
<circle cx="160.900000" cy="76.000000" r="1"/>
<line x1="155.900000" y1="85.000000" x2="158.900000" y2="86.000000"  transform="rotate(0.000000,158.900000,86.000000)" style="stroke: black; stroke-width:0.25;"/>
<line x1="155.900000" y1="87.000000" x2="158.900000" y2="86.000000"  transform="rotate(0.000000,158.900000,86.000000)" style="stroke: black; stroke-width:0.25;"/>
<rect x="240.400000" y="59.000000" width="24.000000" height="24.000000" rx="0" ry="0" style="stroke:none;fill:#cccccc;"/>
<rect x="239.400000" y="58.000000" width="24.000000" height="24.000000" rx="0" ry="0" style="stroke:none;fill:#4B71A1;"/>
<text x="251.400000" y="72.000000" font-family="Arial" font-size="7" text-anchor="middle" fill="#FFFFFF">*</text>
<circle cx="241.400000" cy="60.000000" r="1"/>
<line x1="236.400000" y1="65.000000" x2="239.400000" y2="66.000000"  transform="rotate(0.000000,239.400000,66.000000)" style="stroke: black; stroke-width:0.25;"/>
<line x1="236.400000" y1="67.000000" x2="239.400000" y2="66.000000"  transform="rotate(0.000000,239.400000,66.000000)" style="stroke: black; stroke-width:0.25;"/>
<line x1="236.400000" y1="73.000000" x2="239.400000" y2="74.000000"  transform="rotate(0.000000,239.400000,74.000000)" style="stroke: black; stroke-width:0.25;"/>
<line x1="236.400000" y1="75.000000" x2="239.400000" y2="74.000000"  transform="rotate(0.000000,239.400000,74.000000)" style="stroke: black; stroke-width:0.25;"/>
<a xlink:href="B-0x7facd4472990.svg">
<rect x="164.150000" y="107.000000" width="24.000000" height="24.000000" rx="0" ry="0" style="stroke:none;fill:#cccccc;"/>
<rect x="163.150000" y="106.000000" width="24.000000" height="24.000000" rx="0" ry="0" style="stroke:none;fill:#003366;"/>
</a>
<a xlink:href="B-0x7facd4472990.svg">
<text x="175.150000" y="120.000000" font-family="Arial" font-size="7" text-anchor="middle" fill="#FFFFFF">B</text>
</a>
<circle cx="165.150000" cy="108.000000" r="1"/>
<rect x="99.000000" y="139.000000" width="24.000000" height="24.000000" rx="0" ry="0" style="stroke:none;fill:#cccccc;"/>
<rect x="98.000000" y="138.000000" width="24.000000" height="24.000000" rx="0" ry="0" style="stroke:none;fill:#47945E;"/>
<text x="110.000000" y="152.000000" font-family="Arial" font-size="7" text-anchor="middle" fill="#FFFFFF">x</text>
<circle cx="100.000000" cy="140.000000" r="1"/>
<rect x="131.000000" y="139.000000" width="24.000000" height="24.000000" rx="0" ry="0" style="stroke:none;fill:#cccccc;"/>
<rect x="130.000000" y="138.000000" width="24.000000" height="24.000000" rx="0" ry="0" style="stroke:none;fill:#4B71A1;"/>
<text x="142.000000" y="152.000000" font-family="Arial" font-size="7" text-anchor="middle" fill="#FFFFFF">mem</text>
<circle cx="132.000000" cy="140.000000" r="1"/>
<line x1="127.000000" y1="149.000000" x2="130.000000" y2="150.000000"  transform="rotate(0.000000,130.000000,150.000000)" style="stroke: black; stroke-width:0.25;"/>
<line x1="127.000000" y1="151.000000" x2="130.000000" y2="150.000000"  transform="rotate(0.000000,130.000000,150.000000)" style="stroke: black; stroke-width:0.25;"/>
<a xlink:href="initState-0x7facd445f7d0.svg">
<rect x="163.000000" y="139.000000" width="90.300000" height="24.000000" rx="0" ry="0" style="stroke:none;fill:#cccccc;"/>
<rect x="162.000000" y="138.000000" width="90.300000" height="24.000000" rx="0" ry="0" style="stroke:none;fill:#003366;"/>
</a>
<a xlink:href="initState-0x7facd445f7d0.svg">
<text x="207.150000" y="152.000000" font-family="Arial" font-size="7" text-anchor="middle" fill="#FFFFFF">initState(0.0f,0.0f)</text>
</a>
<circle cx="164.000000" cy="140.000000" r="1"/>
<line x1="159.000000" y1="149.000000" x2="162.000000" y2="150.000000"  transform="rotate(0.000000,162.000000,150.000000)" style="stroke: black; stroke-width:0.25;"/>
<line x1="159.000000" y1="151.000000" x2="162.000000" y2="150.000000"  transform="rotate(0.000000,162.000000,150.000000)" style="stroke: black; stroke-width:0.25;"/>
<rect x="269.300000" y="123.000000" width="24.000000" height="24.000000" rx="0" ry="0" style="stroke:none;fill:#cccccc;"/>
<rect x="268.300000" y="122.000000" width="24.000000" height="24.000000" rx="0" ry="0" style="stroke:none;fill:#4B71A1;"/>
<text x="280.300000" y="136.000000" font-family="Arial" font-size="7" text-anchor="middle" fill="#FFFFFF">*</text>
<circle cx="270.300000" cy="124.000000" r="1"/>
<line x1="265.300000" y1="129.000000" x2="268.300000" y2="130.000000"  transform="rotate(0.000000,268.300000,130.000000)" style="stroke: black; stroke-width:0.25;"/>
<line x1="265.300000" y1="131.000000" x2="268.300000" y2="130.000000"  transform="rotate(0.000000,268.300000,130.000000)" style="stroke: black; stroke-width:0.25;"/>
<line x1="265.300000" y1="137.000000" x2="268.300000" y2="138.000000"  transform="rotate(0.000000,268.300000,138.000000)" style="stroke: black; stroke-width:0.25;"/>
<line x1="265.300000" y1="139.000000" x2="268.300000" y2="138.000000"  transform="rotate(0.000000,268.300000,138.000000)" style="stroke: black; stroke-width:0.25;"/>
<rect x="309.300000" y="91.000000" width="24.000000" height="24.000000" rx="0" ry="0" style="stroke:none;fill:#cccccc;"/>
<rect x="308.300000" y="90.000000" width="24.000000" height="24.000000" rx="0" ry="0" style="stroke:none;fill:#4B71A1;"/>
<text x="320.300000" y="104.000000" font-family="Arial" font-size="7" text-anchor="middle" fill="#FFFFFF">+</text>
<circle cx="310.300000" cy="92.000000" r="1"/>
<line x1="305.300000" y1="97.000000" x2="308.300000" y2="98.000000"  transform="rotate(0.000000,308.300000,98.000000)" style="stroke: black; stroke-width:0.25;"/>
<line x1="305.300000" y1="99.000000" x2="308.300000" y2="98.000000"  transform="rotate(0.000000,308.300000,98.000000)" style="stroke: black; stroke-width:0.25;"/>
<line x1="305.300000" y1="105.000000" x2="308.300000" y2="106.000000"  transform="rotate(0.000000,308.300000,106.000000)" style="stroke: black; stroke-width:0.25;"/>
<line x1="305.300000" y1="107.000000" x2="308.300000" y2="106.000000"  transform="rotate(0.000000,308.300000,106.000000)" style="stroke: black; stroke-width:0.25;"/>
<rect x="164.150000" y="189.000000" width="24.000000" height="24.000000" rx="0" ry="0" style="stroke:none;fill:#cccccc;"/>
<rect x="163.150000" y="188.000000" width="24.000000" height="24.000000" rx="0" ry="0" style="stroke:none;fill:#f44800;"/>
<text x="175.150000" y="202.000000" font-family="Arial" font-size="7" text-anchor="middle" fill="#FFFFFF">0</text>
<circle cx="165.150000" cy="190.000000" r="1"/>
<line x1="154.150000" y1="179.000000" x2="154.150000" y2="221.000000"  style="stroke: black; stroke-linecap:round; stroke-width:0.25; stroke-dasharray:3,3;"/>
<line x1="154.150000" y1="221.000000" x2="196.150000" y2="221.000000"  style="stroke: black; stroke-linecap:round; stroke-width:0.25; stroke-dasharray:3,3;"/>
<line x1="196.150000" y1="221.000000" x2="196.150000" y2="179.000000"  style="stroke: black; stroke-linecap:round; stroke-width:0.25; stroke-dasharray:3,3;"/>
<line x1="154.150000" y1="179.000000" x2="159.150000" y2="179.000000"  style="stroke: black; stroke-linecap:round; stroke-width:0.25; stroke-dasharray:3,3;"/>
<line x1="168.825000" y1="179.000000" x2="196.150000" y2="179.000000"  style="stroke: black; stroke-linecap:round; stroke-width:0.25; stroke-dasharray:3,3;"/>
<text x="159.150000" y="181.000000" font-family="Arial" font-size="7">C</text>
<rect x="214.150000" y="185.000000" width="24.000000" height="24.000000" rx="0" ry="0" style="stroke:none;fill:#cccccc;"/>
<rect x="213.150000" y="184.000000" width="24.000000" height="24.000000" rx="0" ry="0" style="stroke:none;fill:#4B71A1;"/>
<text x="225.150000" y="198.000000" font-family="Arial" font-size="7" text-anchor="middle" fill="#FFFFFF">-</text>
<circle cx="215.150000" cy="186.000000" r="1"/>
<line x1="210.150000" y1="191.000000" x2="213.150000" y2="192.000000"  transform="rotate(0.000000,213.150000,192.000000)" style="stroke: black; stroke-width:0.25;"/>
<line x1="210.150000" y1="193.000000" x2="213.150000" y2="192.000000"  transform="rotate(0.000000,213.150000,192.000000)" style="stroke: black; stroke-width:0.25;"/>
<line x1="210.150000" y1="199.000000" x2="213.150000" y2="200.000000"  transform="rotate(0.000000,213.150000,200.000000)" style="stroke: black; stroke-width:0.25;"/>
<line x1="210.150000" y1="201.000000" x2="213.150000" y2="200.000000"  transform="rotate(0.000000,213.150000,200.000000)" style="stroke: black; stroke-width:0.25;"/>
<a xlink:href="C-0x7facd4473230.svg">
<rect x="184.150000" y="231.000000" width="24.000000" height="24.000000" rx="0" ry="0" style="stroke:none;fill:#cccccc;"/>
<rect x="183.150000" y="230.000000" width="24.000000" height="24.000000" rx="0" ry="0" style="stroke:none;fill:#003366;"/>
</a>
<a xlink:href="C-0x7facd4473230.svg">
<text x="195.150000" y="244.000000" font-family="Arial" font-size="7" text-anchor="middle" fill="#FFFFFF">C</text>
</a>
<circle cx="185.150000" cy="232.000000" r="1"/>
<rect x="254.150000" y="201.000000" width="24.000000" height="24.000000" rx="0" ry="0" style="stroke:none;fill:#cccccc;"/>
<rect x="253.150000" y="200.000000" width="24.000000" height="24.000000" rx="0" ry="0" style="stroke:none;fill:#4B71A1;"/>
<text x="265.150000" y="214.000000" font-family="Arial" font-size="7" text-anchor="middle" fill="#FFFFFF">*</text>
<circle cx="255.150000" cy="202.000000" r="1"/>
<line x1="250.150000" y1="207.000000" x2="253.150000" y2="208.000000"  transform="rotate(0.000000,253.150000,208.000000)" style="stroke: black; stroke-width:0.25;"/>
<line x1="250.150000" y1="209.000000" x2="253.150000" y2="208.000000"  transform="rotate(0.000000,253.150000,208.000000)" style="stroke: black; stroke-width:0.25;"/>
<line x1="250.150000" y1="215.000000" x2="253.150000" y2="216.000000"  transform="rotate(0.000000,253.150000,216.000000)" style="stroke: black; stroke-width:0.25;"/>
<line x1="250.150000" y1="217.000000" x2="253.150000" y2="216.000000"  transform="rotate(0.000000,253.150000,216.000000)" style="stroke: black; stroke-width:0.25;"/>
<rect x="349.300000" y="137.000000" width="24.000000" height="24.000000" rx="0" ry="0" style="stroke:none;fill:#cccccc;"/>
<rect x="348.300000" y="136.000000" width="24.000000" height="24.000000" rx="0" ry="0" style="stroke:none;fill:#4B71A1;"/>
<text x="360.300000" y="150.000000" font-family="Arial" font-size="7" text-anchor="middle" fill="#FFFFFF">+</text>
<circle cx="350.300000" cy="138.000000" r="1"/>
<line x1="345.300000" y1="143.000000" x2="348.300000" y2="144.000000"  transform="rotate(0.000000,348.300000,144.000000)" style="stroke: black; stroke-width:0.25;"/>
<line x1="345.300000" y1="145.000000" x2="348.300000" y2="144.000000"  transform="rotate(0.000000,348.300000,144.000000)" style="stroke: black; stroke-width:0.25;"/>
<line x1="345.300000" y1="151.000000" x2="348.300000" y2="152.000000"  transform="rotate(0.000000,348.300000,152.000000)" style="stroke: black; stroke-width:0.25;"/>
<line x1="345.300000" y1="153.000000" x2="348.300000" y2="152.000000"  transform="rotate(0.000000,348.300000,152.000000)" style="stroke: black; stroke-width:0.25;"/>
<line x1="49.000000" y1="33.000000" x2="49.000000" y2="263.000000"  style="stroke: black; stroke-linecap:round; stroke-width:0.25; stroke-dasharray:3,3;"/>
<line x1="49.000000" y1="263.000000" x2="381.300000" y2="263.000000"  style="stroke: black; stroke-linecap:round; stroke-width:0.25; stroke-dasharray:3,3;"/>
<line x1="381.300000" y1="263.000000" x2="381.300000" y2="33.000000"  style="stroke: black; stroke-linecap:round; stroke-width:0.25; stroke-dasharray:3,3;"/>
<line x1="49.000000" y1="33.000000" x2="54.000000" y2="33.000000"  style="stroke: black; stroke-linecap:round; stroke-width:0.25; stroke-dasharray:3,3;"/>
<line x1="95.925000" y1="33.000000" x2="381.300000" y2="33.000000"  style="stroke: black; stroke-linecap:round; stroke-width:0.25; stroke-dasharray:3,3;"/>
<text x="54.000000" y="35.000000" font-family="Arial" font-size="7">Abstraction</text>
<line x1="384.300000" y1="148.000000" x2="384.300000" y2="144.000000"  style="stroke:black; stroke-linecap:round; stroke-width:0.25;"/>
<line x1="384.300000" y1="144.000000" x2="388.300000" y2="144.000000"  style="stroke:black; stroke-linecap:round; stroke-width:0.25;"/>
<line x1="388.300000" y1="144.000000" x2="388.300000" y2="148.000000"  style="stroke:black; stroke-linecap:round; stroke-width:0.25;"/>
<line x1="15.000000" y1="15.000000" x2="15.000000" y2="273.000000"  style="stroke: black; stroke-linecap:round; stroke-width:0.25; stroke-dasharray:3,3;"/>
<line x1="15.000000" y1="273.000000" x2="415.300000" y2="273.000000"  style="stroke: black; stroke-linecap:round; stroke-width:0.25; stroke-dasharray:3,3;"/>
<line x1="415.300000" y1="273.000000" x2="415.300000" y2="15.000000"  style="stroke: black; stroke-linecap:round; stroke-width:0.25; stroke-dasharray:3,3;"/>
<line x1="15.000000" y1="15.000000" x2="20.000000" y2="15.000000"  style="stroke: black; stroke-linecap:round; stroke-width:0.25; stroke-dasharray:3,3;"/>
<line x1="68.375000" y1="15.000000" x2="415.300000" y2="15.000000"  style="stroke: black; stroke-linecap:round; stroke-width:0.25; stroke-dasharray:3,3;"/>
<text x="20.000000" y="17.000000" font-family="Arial" font-size="7">RECURSIVEBODY</text>
<line x1="417.300000" y1="143.000000" x2="420.300000" y2="144.000000"  transform="rotate(0.000000,420.300000,144.000000)" style="stroke: black; stroke-width:0.25;"/>
<line x1="417.300000" y1="145.000000" x2="420.300000" y2="144.000000"  transform="rotate(0.000000,420.300000,144.000000)" style="stroke: black; stroke-width:0.25;"/>
<line x1="10.000000" y1="144.000000" x2="20.000000" y2="144.000000"  style="stroke:black; stroke-linecap:round; stroke-width:0.25;"/>
<line x1="20.000000" y1="144.000000" x2="24.000000" y2="144.000000"  style="stroke:black; stroke-linecap:round; stroke-width:0.25;"/>
<line x1="24.000000" y1="144.000000" x2="28.000000" y2="144.000000"  style="stroke:black; stroke-linecap:round; stroke-width:0.25;"/>
<line x1="28.000000" y1="144.000000" x2="36.000000" y2="144.000000"  style="stroke:black; stroke-linecap:round; stroke-width:0.25;"/>
<line x1="36.000000" y1="144.000000" x2="36.000000" y2="164.000000"  style="stroke:black; stroke-linecap:round; stroke-width:0.25;"/>
<line x1="36.000000" y1="164.000000" x2="36.000000" y2="164.000000"  style="stroke:black; stroke-linecap:round; stroke-width:0.25;"/>
<line x1="36.000000" y1="164.000000" x2="44.000000" y2="164.000000"  style="stroke:black; stroke-linecap:round; stroke-width:0.25;"/>
<line x1="44.000000" y1="24.000000" x2="44.000000" y2="24.000000"  style="stroke:black; stroke-linecap:round; stroke-width:0.25;"/>
<line x1="44.000000" y1="24.000000" x2="44.000000" y2="144.000000"  style="stroke:black; stroke-linecap:round; stroke-width:0.25;"/>
<line x1="44.000000" y1="144.000000" x2="44.000000" y2="144.000000"  style="stroke:black; stroke-linecap:round; stroke-width:0.25;"/>
<line x1="44.000000" y1="144.000000" x2="54.000000" y2="144.000000"  style="stroke:black; stroke-linecap:round; stroke-width:0.25;"/>
<line x1="44.000000" y1="164.000000" x2="54.000000" y2="164.000000"  style="stroke:black; stroke-linecap:round; stroke-width:0.25;"/>
<line x1="54.000000" y1="144.000000" x2="58.000000" y2="144.000000"  style="stroke:black; stroke-linecap:round; stroke-width:0.25;"/>
<line x1="54.000000" y1="164.000000" x2="70.000000" y2="164.000000"  style="stroke:black; stroke-linecap:round; stroke-width:0.25;"/>
<line x1="70.000000" y1="164.000000" x2="86.000000" y2="164.000000"  style="stroke:black; stroke-linecap:round; stroke-width:0.25;"/>
<line x1="86.000000" y1="164.000000" x2="94.000000" y2="164.000000"  style="stroke:black; stroke-linecap:round; stroke-width:0.25;"/>
<line x1="94.000000" y1="164.000000" x2="94.000000" y2="170.000000"  style="stroke:black; stroke-linecap:round; stroke-width:0.25;"/>
<line x1="94.000000" y1="170.000000" x2="94.000000" y2="170.000000"  style="stroke:black; stroke-linecap:round; stroke-width:0.25;"/>
<line x1="94.000000" y1="170.000000" x2="149.150000" y2="170.000000"  style="stroke:black; stroke-linecap:round; stroke-width:0.25;"/>
<line x1="122.000000" y1="150.000000" x2="126.000000" y2="150.000000"  style="stroke:black; stroke-linecap:round; stroke-width:0.25;"/>
<line x1="126.000000" y1="150.000000" x2="126.000000" y2="150.000000"  style="stroke:black; stroke-linecap:round; stroke-width:0.25;"/>
<line x1="126.000000" y1="150.000000" x2="130.000000" y2="150.000000"  style="stroke:black; stroke-linecap:round; stroke-width:0.25;"/>
<line x1="149.150000" y1="170.000000" x2="175.150000" y2="170.000000"  style="stroke:black; stroke-linecap:round; stroke-width:0.25;"/>
<line x1="150.900000" y1="86.000000" x2="154.900000" y2="86.000000"  style="stroke:black; stroke-linecap:round; stroke-width:0.25;"/>
<line x1="154.000000" y1="150.000000" x2="158.000000" y2="150.000000"  style="stroke:black; stroke-linecap:round; stroke-width:0.25;"/>
<line x1="154.900000" y1="86.000000" x2="154.900000" y2="86.000000"  style="stroke:black; stroke-linecap:round; stroke-width:0.25;"/>
<line x1="154.900000" y1="86.000000" x2="158.900000" y2="86.000000"  style="stroke:black; stroke-linecap:round; stroke-width:0.25;"/>
<line x1="158.000000" y1="150.000000" x2="158.000000" y2="150.000000"  style="stroke:black; stroke-linecap:round; stroke-width:0.25;"/>
<line x1="158.000000" y1="150.000000" x2="162.000000" y2="150.000000"  style="stroke:black; stroke-linecap:round; stroke-width:0.25;"/>
<line x1="175.150000" y1="170.000000" x2="201.150000" y2="170.000000"  style="stroke:black; stroke-linecap:round; stroke-width:0.25;"/>
<line x1="187.150000" y1="54.000000" x2="191.150000" y2="54.000000"  style="stroke:black; stroke-linecap:round; stroke-width:0.25;"/>
<line x1="187.150000" y1="118.000000" x2="191.150000" y2="118.000000"  style="stroke:black; stroke-linecap:round; stroke-width:0.25;"/>
<line x1="187.150000" y1="200.000000" x2="191.150000" y2="200.000000"  style="stroke:black; stroke-linecap:round; stroke-width:0.25;"/>
<line x1="191.150000" y1="54.000000" x2="227.400000" y2="54.000000"  style="stroke:black; stroke-linecap:round; stroke-width:0.25;"/>
<line x1="191.150000" y1="118.000000" x2="256.300000" y2="118.000000"  style="stroke:black; stroke-linecap:round; stroke-width:0.25;"/>
<line x1="191.150000" y1="200.000000" x2="201.150000" y2="200.000000"  style="stroke:black; stroke-linecap:round; stroke-width:0.25;"/>
<line x1="201.150000" y1="170.000000" x2="209.150000" y2="170.000000"  style="stroke:black; stroke-linecap:round; stroke-width:0.25;"/>
<line x1="201.150000" y1="200.000000" x2="209.150000" y2="200.000000"  style="stroke:black; stroke-linecap:round; stroke-width:0.25;"/>
<line x1="207.150000" y1="242.000000" x2="211.150000" y2="242.000000"  style="stroke:black; stroke-linecap:round; stroke-width:0.25;"/>
<line x1="209.150000" y1="170.000000" x2="209.150000" y2="192.000000"  style="stroke:black; stroke-linecap:round; stroke-width:0.25;"/>
<line x1="209.150000" y1="192.000000" x2="209.150000" y2="192.000000"  style="stroke:black; stroke-linecap:round; stroke-width:0.25;"/>
<line x1="209.150000" y1="192.000000" x2="213.150000" y2="192.000000"  style="stroke:black; stroke-linecap:round; stroke-width:0.25;"/>
<line x1="209.150000" y1="200.000000" x2="213.150000" y2="200.000000"  style="stroke:black; stroke-linecap:round; stroke-width:0.25;"/>
<line x1="211.150000" y1="242.000000" x2="241.150000" y2="242.000000"  style="stroke:black; stroke-linecap:round; stroke-width:0.25;"/>
<line x1="215.150000" y1="24.000000" x2="44.000000" y2="24.000000"  style="stroke:black; stroke-linecap:round; stroke-width:0.25;"/>
<line x1="223.400000" y1="86.000000" x2="227.400000" y2="86.000000"  style="stroke:black; stroke-linecap:round; stroke-width:0.25;"/>
<line x1="227.400000" y1="54.000000" x2="235.400000" y2="54.000000"  style="stroke:black; stroke-linecap:round; stroke-width:0.25;"/>
<line x1="227.400000" y1="74.000000" x2="235.400000" y2="74.000000"  style="stroke:black; stroke-linecap:round; stroke-width:0.25;"/>
<line x1="227.400000" y1="86.000000" x2="227.400000" y2="74.000000"  style="stroke:black; stroke-linecap:round; stroke-width:0.25;"/>
<line x1="227.400000" y1="86.000000" x2="227.400000" y2="86.000000"  style="stroke:black; stroke-linecap:round; stroke-width:0.25;"/>
<line x1="235.400000" y1="54.000000" x2="235.400000" y2="66.000000"  style="stroke:black; stroke-linecap:round; stroke-width:0.25;"/>
<line x1="235.400000" y1="66.000000" x2="235.400000" y2="66.000000"  style="stroke:black; stroke-linecap:round; stroke-width:0.25;"/>
<line x1="235.400000" y1="66.000000" x2="239.400000" y2="66.000000"  style="stroke:black; stroke-linecap:round; stroke-width:0.25;"/>
<line x1="235.400000" y1="74.000000" x2="239.400000" y2="74.000000"  style="stroke:black; stroke-linecap:round; stroke-width:0.25;"/>
<line x1="237.150000" y1="196.000000" x2="241.150000" y2="196.000000"  style="stroke:black; stroke-linecap:round; stroke-width:0.25;"/>
<line x1="241.150000" y1="196.000000" x2="249.150000" y2="196.000000"  style="stroke:black; stroke-linecap:round; stroke-width:0.25;"/>
<line x1="241.150000" y1="216.000000" x2="249.150000" y2="216.000000"  style="stroke:black; stroke-linecap:round; stroke-width:0.25;"/>
<line x1="241.150000" y1="242.000000" x2="241.150000" y2="216.000000"  style="stroke:black; stroke-linecap:round; stroke-width:0.25;"/>
<line x1="241.150000" y1="242.000000" x2="241.150000" y2="242.000000"  style="stroke:black; stroke-linecap:round; stroke-width:0.25;"/>
<line x1="249.150000" y1="196.000000" x2="249.150000" y2="208.000000"  style="stroke:black; stroke-linecap:round; stroke-width:0.25;"/>
<line x1="249.150000" y1="208.000000" x2="249.150000" y2="208.000000"  style="stroke:black; stroke-linecap:round; stroke-width:0.25;"/>
<line x1="249.150000" y1="208.000000" x2="253.150000" y2="208.000000"  style="stroke:black; stroke-linecap:round; stroke-width:0.25;"/>
<line x1="249.150000" y1="216.000000" x2="253.150000" y2="216.000000"  style="stroke:black; stroke-linecap:round; stroke-width:0.25;"/>
<line x1="252.300000" y1="150.000000" x2="256.300000" y2="150.000000"  style="stroke:black; stroke-linecap:round; stroke-width:0.25;"/>
<line x1="256.300000" y1="118.000000" x2="264.300000" y2="118.000000"  style="stroke:black; stroke-linecap:round; stroke-width:0.25;"/>
<line x1="256.300000" y1="138.000000" x2="264.300000" y2="138.000000"  style="stroke:black; stroke-linecap:round; stroke-width:0.25;"/>
<line x1="256.300000" y1="150.000000" x2="256.300000" y2="138.000000"  style="stroke:black; stroke-linecap:round; stroke-width:0.25;"/>
<line x1="256.300000" y1="150.000000" x2="256.300000" y2="150.000000"  style="stroke:black; stroke-linecap:round; stroke-width:0.25;"/>
<line x1="263.400000" y1="70.000000" x2="267.400000" y2="70.000000"  style="stroke:black; stroke-linecap:round; stroke-width:0.25;"/>
<line x1="264.300000" y1="118.000000" x2="264.300000" y2="130.000000"  style="stroke:black; stroke-linecap:round; stroke-width:0.25;"/>
<line x1="264.300000" y1="130.000000" x2="264.300000" y2="130.000000"  style="stroke:black; stroke-linecap:round; stroke-width:0.25;"/>
<line x1="264.300000" y1="130.000000" x2="268.300000" y2="130.000000"  style="stroke:black; stroke-linecap:round; stroke-width:0.25;"/>
<line x1="264.300000" y1="138.000000" x2="268.300000" y2="138.000000"  style="stroke:black; stroke-linecap:round; stroke-width:0.25;"/>
<line x1="267.400000" y1="70.000000" x2="296.300000" y2="70.000000"  style="stroke:black; stroke-linecap:round; stroke-width:0.25;"/>
<line x1="277.150000" y1="212.000000" x2="281.150000" y2="212.000000"  style="stroke:black; stroke-linecap:round; stroke-width:0.25;"/>
<line x1="281.150000" y1="212.000000" x2="336.300000" y2="212.000000"  style="stroke:black; stroke-linecap:round; stroke-width:0.25;"/>
<line x1="292.300000" y1="134.000000" x2="296.300000" y2="134.000000"  style="stroke:black; stroke-linecap:round; stroke-width:0.25;"/>
<line x1="296.300000" y1="70.000000" x2="304.300000" y2="70.000000"  style="stroke:black; stroke-linecap:round; stroke-width:0.25;"/>
<line x1="296.300000" y1="106.000000" x2="304.300000" y2="106.000000"  style="stroke:black; stroke-linecap:round; stroke-width:0.25;"/>
<line x1="296.300000" y1="134.000000" x2="296.300000" y2="106.000000"  style="stroke:black; stroke-linecap:round; stroke-width:0.25;"/>
<line x1="296.300000" y1="134.000000" x2="296.300000" y2="134.000000"  style="stroke:black; stroke-linecap:round; stroke-width:0.25;"/>
<line x1="304.300000" y1="70.000000" x2="304.300000" y2="98.000000"  style="stroke:black; stroke-linecap:round; stroke-width:0.25;"/>
<line x1="304.300000" y1="98.000000" x2="304.300000" y2="98.000000"  style="stroke:black; stroke-linecap:round; stroke-width:0.25;"/>
<line x1="304.300000" y1="98.000000" x2="308.300000" y2="98.000000"  style="stroke:black; stroke-linecap:round; stroke-width:0.25;"/>
<line x1="304.300000" y1="106.000000" x2="308.300000" y2="106.000000"  style="stroke:black; stroke-linecap:round; stroke-width:0.25;"/>
<line x1="332.300000" y1="102.000000" x2="336.300000" y2="102.000000"  style="stroke:black; stroke-linecap:round; stroke-width:0.25;"/>
<line x1="336.300000" y1="152.000000" x2="344.300000" y2="152.000000"  style="stroke:black; stroke-linecap:round; stroke-width:0.25;"/>
<line x1="336.300000" y1="212.000000" x2="336.300000" y2="152.000000"  style="stroke:black; stroke-linecap:round; stroke-width:0.25;"/>
<line x1="336.300000" y1="212.000000" x2="336.300000" y2="212.000000"  style="stroke:black; stroke-linecap:round; stroke-width:0.25;"/>
<line x1="336.300000" y1="102.000000" x2="344.300000" y2="102.000000"  style="stroke:black; stroke-linecap:round; stroke-width:0.25;"/>
<line x1="344.300000" y1="102.000000" x2="344.300000" y2="144.000000"  style="stroke:black; stroke-linecap:round; stroke-width:0.25;"/>
<line x1="344.300000" y1="144.000000" x2="344.300000" y2="144.000000"  style="stroke:black; stroke-linecap:round; stroke-width:0.25;"/>
<line x1="344.300000" y1="144.000000" x2="348.300000" y2="144.000000"  style="stroke:black; stroke-linecap:round; stroke-width:0.25;"/>
<line x1="344.300000" y1="152.000000" x2="348.300000" y2="152.000000"  style="stroke:black; stroke-linecap:round; stroke-width:0.25;"/>
<line x1="372.300000" y1="148.000000" x2="376.300000" y2="148.000000"  style="stroke:black; stroke-linecap:round; stroke-width:0.25;"/>
<line x1="376.300000" y1="148.000000" x2="386.300000" y2="148.000000"  style="stroke:black; stroke-linecap:round; stroke-width:0.25;"/>
<line x1="386.300000" y1="24.000000" x2="215.150000" y2="24.000000"  style="stroke:black; stroke-linecap:round; stroke-width:0.25;"/>
<line x1="386.300000" y1="24.000000" x2="386.300000" y2="24.000000"  style="stroke:black; stroke-linecap:round; stroke-width:0.25;"/>
<line x1="386.300000" y1="144.000000" x2="386.300000" y2="24.000000"  style="stroke:black; stroke-linecap:round; stroke-width:0.25;"/>
<line x1="386.300000" y1="148.000000" x2="388.300000" y2="148.000000"  style="stroke:black; stroke-linecap:round; stroke-width:0.25;"/>
<line x1="388.300000" y1="148.000000" x2="394.300000" y2="148.000000"  style="stroke:black; stroke-linecap:round; stroke-width:0.25;"/>
<line x1="394.300000" y1="144.000000" x2="402.300000" y2="144.000000"  style="stroke:black; stroke-linecap:round; stroke-width:0.25;"/>
<line x1="394.300000" y1="148.000000" x2="394.300000" y2="144.000000"  style="stroke:black; stroke-linecap:round; stroke-width:0.25;"/>
<line x1="394.300000" y1="148.000000" x2="394.300000" y2="148.000000"  style="stroke:black; stroke-linecap:round; stroke-width:0.25;"/>
<line x1="402.300000" y1="144.000000" x2="406.300000" y2="144.000000"  style="stroke:black; stroke-linecap:round; stroke-width:0.25;"/>
<line x1="406.300000" y1="144.000000" x2="410.300000" y2="144.000000"  style="stroke:black; stroke-linecap:round; stroke-width:0.25;"/>
<line x1="410.300000" y1="144.000000" x2="420.300000" y2="144.000000"  style="stroke:black; stroke-linecap:round; stroke-width:0.25;"/>
</svg>
