http://www.luiginono.it/opere/a-pierre-dellazzurro-silenzio-inquietum/
File generated automatically on Sat, 29 Apr 2023 15:37:18, do NOT edit

To update a mirror, just launch httrack without any parameters
The existing cache will be used (and modified)
To have other options, retype all parameters and launch HTTrack
To continue an interrupted mirror, just launch httrack without any parameters

